*****************************************************************
      SolidWorks Corporation - IGES Processor Status Report
*****************************************************************
=================================================================
General Information
=================================================================
Sending System Product I.D.  : Part2
Receiving System Product I.D.: Part2
File Name                    : W:\Projects\C003\CAD\Exports\Slope at entry.IGS
Sending System               : SolidWorks 2016
Preprocessor Version         : SolidWorks 2016
File Creation Date           : 170505.114242
Model Creation Date          : 170505.114242
Units                        : MM
Model Space Scale            : 1
Author                       : engs1478
Organization                 : 


=================================================================
Entity Processing Information
=================================================================


=================================================================
Precision analysis of IGES file:
=================================================================


=================================================================
Entity Summary
=================================================================
-----------------------------------------------------------------
Type Name                                         Count Converted
---- ----                                         ----- ---------
116  Point                                           13        13
314  Color definition                                 1         1
402  Associativity instance                           1         1
_________________________________________________________________


=================================================================
Result Summary
=================================================================
SolidWorks Feature Type                Count
-----------------------                -----
Solid feature(s)                       0
Surface feature(s)                     0
Curve/Sketch feature(s)                0
--------------------------------------------
Start time: Monday, May 08, 2017 15:15:24
Finish time: Monday, May 08, 2017 15:15:33
Processing time: 0 days, 00 hours, 00 mins, 09 secs
