SolidWorks IGES file using analytic representation for surfaces         S      1
1H,,1H;,5HPart2,47HW:\Projects\C003\CAD\Exports\Slope at entry.IGS,15HSoG      1
lidWorks 2016,15HSolidWorks 2016,32,308,15,308,15,5HPart2,1.,2,2HMM,50, G      2
0.125,13H170505.114242,1E-008,499990.,8Hengs1478,,11,0,13H170505.114242;G      3
     116       1       0       0       0                        00000000D      1
     116       0       0       1       0                               0D      2
     116       2       0       0       0                        00000000D      3
     116       0       0       1       0                               0D      4
     116       3       0       0       0                        00000000D      5
     116       0       0       1       0                               0D      6
     116       4       0       0       0                        00000000D      7
     116       0       0       1       0                               0D      8
     116       5       0       0       0                        00000000D      9
     116       0       0       1       0                               0D     10
     116       6       0       0       0                        00000000D     11
     116       0       0       1       0                               0D     12
     116       7       0       0       0                        00000000D     13
     116       0       0       1       0                               0D     14
     116       8       0       0       0                        00000000D     15
     116       0       0       1       0                               0D     16
     116       9       0       0       0                        00000000D     17
     116       0       0       1       0                               0D     18
     116      10       0       0       0                        00000000D     19
     116       0       0       1       0                               0D     20
     116      11       0       0       0                        00000000D     21
     116       0       0       1       0                               0D     22
     116      12       0       0       0                        00000000D     23
     116       0       0       1       0                               0D     24
     116      13       0       0       0                        00000000D     25
     116       0       0       1       0                               0D     26
     402      14       0       0       0                        00000000D     27
     402       0       0       1      15                3DSKETCH       1D     28
     314      15       0       0       0                        00000200D     29
     314       0       8       1       0                               0D     30
116,-15.238757864,-40.,331.325829413,;                                 1P      1
116,-18.583744086,-40.,333.459782685,;                                 3P      2
116,-22.862637389,-40.,336.518900713,;                                 5P      3
116,-27.925917671,-40.,340.454916465,;                                 7P      4
116,-30.915395928,-40.,342.779432906,;                                 9P      5
116,-33.189823137,-40.,344.486816707,;                                11P      6
116,-35.833801439,-40.,346.38473056,;                                 13P      7
116,-38.307151558,-40.,348.08036992,;                                 15P      8
116,-40.857717282,-40.,349.769281126,;                                17P      9
116,-42.95900688,-40.,351.13007973,;                                  19P     10
116,-13.89149827,-40.,330.541146861,;                                 21P     11
116,-26.035091679,-40.,338.964030273,;                                23P     12
116,-45.266217084,-40.,352.600635356,;                                25P     13
402,13,1,3,5,7,9,11,13,15,17,19,21,23,25;                             27P     14
314,79.2156862745098,81.9607843137255,93.3333333333333,;              29P     15
S      1G      3D     30P     15                                        T      1
