ISO-10303-21;
HEADER;
/****************************************************************
 * Generated by software with PDElib inside                    *
 * PDElib Version v51a, created Wed 11/30/2011                  *
 * ITI Transcendata (http://www.transcendata.com/)              *
 ****************************************************************/
FILE_DESCRIPTION((''),'2;1');
FILE_NAME('J:\\converted\\flange_downstream_draft.stp','2014-01-21T13:41:28',('univ2521'),(''),'Autodesk Inventor 2013','Autodesk Inventor 2013','');
FILE_SCHEMA(('AUTOMOTIVE_DESIGN { 1 0 10303 214 1 1 1 1 }'));
ENDSEC;
DATA;
#5=APPLICATION_CONTEXT('automotive design');
#6=APPLICATION_PROTOCOL_DEFINITION('International Standard','automotive_design',2001,#5);
#7=PRODUCT_CONTEXT('',#5,'mechanical');
#8=PRODUCT('flange_downstream_draft','flange_downstream_draft',$,(#7));
#9=PRODUCT_RELATED_PRODUCT_CATEGORY('part',$,(#8));
#10=PRODUCT_DEFINITION_FORMATION('',$,#8);
#11=PRODUCT_DEFINITION_CONTEXT('part definition',#5,'design');
#12=PRODUCT_DEFINITION('',$,#10,#11);
#18=(NAMED_UNIT(*)PLANE_ANGLE_UNIT()SI_UNIT($,.RADIAN.));
#19=DIMENSIONAL_EXPONENTS(0.0,0.0,0.0,0.0,0.0,0.0,0.0);
#20=PLANE_ANGLE_MEASURE_WITH_UNIT(PLANE_ANGLE_MEASURE(0.0174532925),#18);
#24=(CONVERSION_BASED_UNIT('DEGREE',#20)NAMED_UNIT(#19)PLANE_ANGLE_UNIT());
#28=(NAMED_UNIT(*)SI_UNIT($,.STERADIAN.)SOLID_ANGLE_UNIT());
#32=(LENGTH_UNIT()NAMED_UNIT(*)SI_UNIT(.MILLI.,.METRE.));
#34=UNCERTAINTY_MEASURE_WITH_UNIT(LENGTH_MEASURE(0.01),#32,'DISTANCE_ACCURACY_VALUE','');
#36=(GEOMETRIC_REPRESENTATION_CONTEXT(3)GLOBAL_UNCERTAINTY_ASSIGNED_CONTEXT((#34))GLOBAL_UNIT_ASSIGNED_CONTEXT((#24,#28,#32))REPRESENTATION_CONTEXT('None','None'));
#37=AXIS2_PLACEMENT_3D('',#38,#39,#40);
#38=CARTESIAN_POINT('',(0.0,0.0,0.0));
#39=DIRECTION('',(0.0,0.0,1.0));
#40=DIRECTION('',(1.0,0.0,0.0));
#41=SHAPE_REPRESENTATION('',(#37),#36);
#42=PRODUCT_DEFINITION_SHAPE('','',#12);
#43=SHAPE_DEFINITION_REPRESENTATION(#42,#41);
#49=(NAMED_UNIT(*)PLANE_ANGLE_UNIT()SI_UNIT($,.RADIAN.));
#50=DIMENSIONAL_EXPONENTS(0.0,0.0,0.0,0.0,0.0,0.0,0.0);
#51=PLANE_ANGLE_MEASURE_WITH_UNIT(PLANE_ANGLE_MEASURE(0.0174532925),#49);
#55=(CONVERSION_BASED_UNIT('DEGREE',#51)NAMED_UNIT(#50)PLANE_ANGLE_UNIT());
#59=(NAMED_UNIT(*)SI_UNIT($,.STERADIAN.)SOLID_ANGLE_UNIT());
#63=(LENGTH_UNIT()NAMED_UNIT(*)SI_UNIT(.MILLI.,.METRE.));
#65=UNCERTAINTY_MEASURE_WITH_UNIT(LENGTH_MEASURE(0.000001),#63,'DISTANCE_ACCURACY_VALUE','');
#67=(GEOMETRIC_REPRESENTATION_CONTEXT(3)GLOBAL_UNCERTAINTY_ASSIGNED_CONTEXT((#65))GLOBAL_UNIT_ASSIGNED_CONTEXT((#55,#59,#63))REPRESENTATION_CONTEXT('','3D'));
#68=CARTESIAN_POINT('',(-272.0,27.99999999999994,958.7819890360895));
#69=DIRECTION('',(0.0,0.0,-1.0));
#70=DIRECTION('',(-1.0,0.0,0.0));
#71=AXIS2_PLACEMENT_3D('',#68,#69,#70);
#72=CYLINDRICAL_SURFACE('',#71,9.0);
#73=CARTESIAN_POINT('',(-263.00000000000006,27.99999999999994,19.050000000000011));
#74=VERTEX_POINT('',#73);
#75=CARTESIAN_POINT('',(-272.0,27.99999999999994,19.050000000000011));
#76=DIRECTION('',(0.0,0.0,-1.0));
#77=DIRECTION('',(-1.0,0.0,0.0));
#78=AXIS2_PLACEMENT_3D('',#75,#76,#77);
#79=CIRCLE('',#78,9.0);
#80=EDGE_CURVE('',#74,#74,#79,.T.);
#81=ORIENTED_EDGE('',*,*,#80,.F.);
#82=EDGE_LOOP('',(#81));
#83=FACE_OUTER_BOUND('',#82,.T.);
#84=CARTESIAN_POINT('',(-281.0,27.99999999999994,0.0));
#85=VERTEX_POINT('',#84);
#86=CARTESIAN_POINT('',(-272.0,27.99999999999994,0.0));
#87=DIRECTION('',(0.0,0.0,1.0));
#88=DIRECTION('',(-1.0,0.0,0.0));
#89=AXIS2_PLACEMENT_3D('',#86,#87,#88);
#90=CIRCLE('',#89,9.0);
#91=EDGE_CURVE('',#85,#85,#90,.T.);
#92=ORIENTED_EDGE('',*,*,#91,.F.);
#93=EDGE_LOOP('',(#92));
#94=FACE_BOUND('',#93,.T.);
#95=ADVANCED_FACE('',(#83,#94),#72,.F.);
#96=CARTESIAN_POINT('',(-390.50000000000006,27.999999999999954,958.7819890360895));
#97=DIRECTION('',(0.0,0.0,-1.0));
#98=DIRECTION('',(-1.0,0.0,0.0));
#99=AXIS2_PLACEMENT_3D('',#96,#97,#98);
#100=CYLINDRICAL_SURFACE('',#99,9.0);
#101=CARTESIAN_POINT('',(-381.50000000000006,27.999999999999954,19.050000000000011));
#102=VERTEX_POINT('',#101);
#103=CARTESIAN_POINT('',(-390.50000000000006,27.999999999999954,19.050000000000011));
#104=DIRECTION('',(0.0,0.0,-1.0));
#105=DIRECTION('',(-1.0,0.0,0.0));
#106=AXIS2_PLACEMENT_3D('',#103,#104,#105);
#107=CIRCLE('',#106,9.0);
#108=EDGE_CURVE('',#102,#102,#107,.T.);
#109=ORIENTED_EDGE('',*,*,#108,.F.);
#110=EDGE_LOOP('',(#109));
#111=FACE_OUTER_BOUND('',#110,.T.);
#112=CARTESIAN_POINT('',(-399.5,27.999999999999954,0.0));
#113=VERTEX_POINT('',#112);
#114=CARTESIAN_POINT('',(-390.50000000000006,27.999999999999954,0.0));
#115=DIRECTION('',(0.0,0.0,1.0));
#116=DIRECTION('',(-1.0,0.0,0.0));
#117=AXIS2_PLACEMENT_3D('',#114,#115,#116);
#118=CIRCLE('',#117,9.0);
#119=EDGE_CURVE('',#113,#113,#118,.T.);
#120=ORIENTED_EDGE('',*,*,#119,.F.);
#121=EDGE_LOOP('',(#120));
#122=FACE_BOUND('',#121,.T.);
#123=ADVANCED_FACE('',(#111,#122),#100,.F.);
#124=CARTESIAN_POINT('',(-509.5,27.999999999999943,958.7819890360895));
#125=DIRECTION('',(0.0,0.0,-1.0));
#126=DIRECTION('',(-1.0,0.0,0.0));
#127=AXIS2_PLACEMENT_3D('',#124,#125,#126);
#128=CYLINDRICAL_SURFACE('',#127,9.0);
#129=CARTESIAN_POINT('',(-500.50000000000006,27.999999999999943,19.050000000000011));
#130=VERTEX_POINT('',#129);
#131=CARTESIAN_POINT('',(-509.5,27.999999999999943,19.050000000000011));
#132=DIRECTION('',(0.0,0.0,-1.0));
#133=DIRECTION('',(-1.0,0.0,0.0));
#134=AXIS2_PLACEMENT_3D('',#131,#132,#133);
#135=CIRCLE('',#134,9.0);
#136=EDGE_CURVE('',#130,#130,#135,.T.);
#137=ORIENTED_EDGE('',*,*,#136,.F.);
#138=EDGE_LOOP('',(#137));
#139=FACE_OUTER_BOUND('',#138,.T.);
#140=CARTESIAN_POINT('',(-518.5,27.999999999999943,0.0));
#141=VERTEX_POINT('',#140);
#142=CARTESIAN_POINT('',(-509.5,27.999999999999943,0.0));
#143=DIRECTION('',(0.0,0.0,1.0));
#144=DIRECTION('',(-1.0,0.0,0.0));
#145=AXIS2_PLACEMENT_3D('',#142,#143,#144);
#146=CIRCLE('',#145,9.0);
#147=EDGE_CURVE('',#141,#141,#146,.T.);
#148=ORIENTED_EDGE('',*,*,#147,.F.);
#149=EDGE_LOOP('',(#148));
#150=FACE_BOUND('',#149,.T.);
#151=ADVANCED_FACE('',(#139,#150),#128,.F.);
#152=CARTESIAN_POINT('',(-628.0,27.999999999999957,958.7819890360895));
#153=DIRECTION('',(0.0,0.0,-1.0));
#154=DIRECTION('',(-1.0,0.0,0.0));
#155=AXIS2_PLACEMENT_3D('',#152,#153,#154);
#156=CYLINDRICAL_SURFACE('',#155,9.0);
#157=CARTESIAN_POINT('',(-619.0,27.999999999999957,19.050000000000011));
#158=VERTEX_POINT('',#157);
#159=CARTESIAN_POINT('',(-628.0,27.999999999999957,19.050000000000011));
#160=DIRECTION('',(0.0,0.0,-1.0));
#161=DIRECTION('',(-1.0,0.0,0.0));
#162=AXIS2_PLACEMENT_3D('',#159,#160,#161);
#163=CIRCLE('',#162,9.0);
#164=EDGE_CURVE('',#158,#158,#163,.T.);
#165=ORIENTED_EDGE('',*,*,#164,.F.);
#166=EDGE_LOOP('',(#165));
#167=FACE_OUTER_BOUND('',#166,.T.);
#168=CARTESIAN_POINT('',(-637.0,27.999999999999957,0.0));
#169=VERTEX_POINT('',#168);
#170=CARTESIAN_POINT('',(-628.0,27.999999999999957,0.0));
#171=DIRECTION('',(0.0,0.0,1.0));
#172=DIRECTION('',(-1.0,0.0,0.0));
#173=AXIS2_PLACEMENT_3D('',#170,#171,#172);
#174=CIRCLE('',#173,9.0);
#175=EDGE_CURVE('',#169,#169,#174,.T.);
#176=ORIENTED_EDGE('',*,*,#175,.F.);
#177=EDGE_LOOP('',(#176));
#178=FACE_BOUND('',#177,.T.);
#179=ADVANCED_FACE('',(#167,#178),#156,.F.);
#180=CARTESIAN_POINT('',(-153.5,27.999999999999936,958.7819890360895));
#181=DIRECTION('',(0.0,0.0,-1.0));
#182=DIRECTION('',(-1.0,0.0,0.0));
#183=AXIS2_PLACEMENT_3D('',#180,#181,#182);
#184=CYLINDRICAL_SURFACE('',#183,9.0);
#185=CARTESIAN_POINT('',(-144.5,27.999999999999936,19.050000000000011));
#186=VERTEX_POINT('',#185);
#187=CARTESIAN_POINT('',(-153.5,27.999999999999936,19.050000000000011));
#188=DIRECTION('',(0.0,0.0,-1.0));
#189=DIRECTION('',(-1.0,0.0,0.0));
#190=AXIS2_PLACEMENT_3D('',#187,#188,#189);
#191=CIRCLE('',#190,9.0);
#192=EDGE_CURVE('',#186,#186,#191,.T.);
#193=ORIENTED_EDGE('',*,*,#192,.F.);
#194=EDGE_LOOP('',(#193));
#195=FACE_OUTER_BOUND('',#194,.T.);
#196=CARTESIAN_POINT('',(-162.5,27.999999999999936,0.0));
#197=VERTEX_POINT('',#196);
#198=CARTESIAN_POINT('',(-153.5,27.999999999999936,0.0));
#199=DIRECTION('',(0.0,0.0,1.0));
#200=DIRECTION('',(-1.0,0.0,0.0));
#201=AXIS2_PLACEMENT_3D('',#198,#199,#200);
#202=CIRCLE('',#201,9.0);
#203=EDGE_CURVE('',#197,#197,#202,.T.);
#204=ORIENTED_EDGE('',*,*,#203,.F.);
#205=EDGE_LOOP('',(#204));
#206=FACE_BOUND('',#205,.T.);
#207=ADVANCED_FACE('',(#195,#206),#184,.F.);
#208=CARTESIAN_POINT('',(-35.000000000000007,27.999999999999901,958.7819890360895));
#209=DIRECTION('',(0.0,0.0,-1.0));
#210=DIRECTION('',(-1.0,0.0,0.0));
#211=AXIS2_PLACEMENT_3D('',#208,#209,#210);
#212=CYLINDRICAL_SURFACE('',#211,9.0);
#213=CARTESIAN_POINT('',(-26.000000000000011,27.999999999999901,19.050000000000011));
#214=VERTEX_POINT('',#213);
#215=CARTESIAN_POINT('',(-35.000000000000007,27.999999999999901,19.050000000000011));
#216=DIRECTION('',(0.0,0.0,-1.0));
#217=DIRECTION('',(-1.0,0.0,0.0));
#218=AXIS2_PLACEMENT_3D('',#215,#216,#217);
#219=CIRCLE('',#218,9.0);
#220=EDGE_CURVE('',#214,#214,#219,.T.);
#221=ORIENTED_EDGE('',*,*,#220,.F.);
#222=EDGE_LOOP('',(#221));
#223=FACE_OUTER_BOUND('',#222,.T.);
#224=CARTESIAN_POINT('',(-44.000000000000014,27.999999999999901,0.0));
#225=VERTEX_POINT('',#224);
#226=CARTESIAN_POINT('',(-35.000000000000007,27.999999999999901,0.0));
#227=DIRECTION('',(0.0,0.0,1.0));
#228=DIRECTION('',(-1.0,0.0,0.0));
#229=AXIS2_PLACEMENT_3D('',#226,#227,#228);
#230=CIRCLE('',#229,9.0);
#231=EDGE_CURVE('',#225,#225,#230,.T.);
#232=ORIENTED_EDGE('',*,*,#231,.F.);
#233=EDGE_LOOP('',(#232));
#234=FACE_BOUND('',#233,.T.);
#235=ADVANCED_FACE('',(#223,#234),#212,.F.);
#236=CARTESIAN_POINT('',(-35.000000000000092,301.99999999999983,958.7819890360895));
#237=DIRECTION('',(0.0,0.0,-1.0));
#238=DIRECTION('',(-1.0,0.0,0.0));
#239=AXIS2_PLACEMENT_3D('',#236,#237,#238);
#240=CYLINDRICAL_SURFACE('',#239,9.0);
#241=CARTESIAN_POINT('',(-26.000000000000092,301.99999999999983,19.050000000000011));
#242=VERTEX_POINT('',#241);
#243=CARTESIAN_POINT('',(-35.000000000000092,301.99999999999983,19.050000000000011));
#244=DIRECTION('',(0.0,0.0,-1.0));
#245=DIRECTION('',(-1.0,0.0,0.0));
#246=AXIS2_PLACEMENT_3D('',#243,#244,#245);
#247=CIRCLE('',#246,9.0);
#248=EDGE_CURVE('',#242,#242,#247,.T.);
#249=ORIENTED_EDGE('',*,*,#248,.F.);
#250=EDGE_LOOP('',(#249));
#251=FACE_OUTER_BOUND('',#250,.T.);
#252=CARTESIAN_POINT('',(-44.000000000000092,301.99999999999983,0.0));
#253=VERTEX_POINT('',#252);
#254=CARTESIAN_POINT('',(-35.000000000000092,301.99999999999983,0.0));
#255=DIRECTION('',(0.0,0.0,1.0));
#256=DIRECTION('',(-1.0,0.0,0.0));
#257=AXIS2_PLACEMENT_3D('',#254,#255,#256);
#258=CIRCLE('',#257,9.0);
#259=EDGE_CURVE('',#253,#253,#258,.T.);
#260=ORIENTED_EDGE('',*,*,#259,.F.);
#261=EDGE_LOOP('',(#260));
#262=FACE_BOUND('',#261,.T.);
#263=ADVANCED_FACE('',(#251,#262),#240,.F.);
#264=CARTESIAN_POINT('',(-153.50000000000011,301.99999999999989,958.7819890360895));
#265=DIRECTION('',(0.0,0.0,-1.0));
#266=DIRECTION('',(-1.0,0.0,0.0));
#267=AXIS2_PLACEMENT_3D('',#264,#265,#266);
#268=CYLINDRICAL_SURFACE('',#267,9.0);
#269=CARTESIAN_POINT('',(-144.50000000000011,301.99999999999989,19.050000000000011));
#270=VERTEX_POINT('',#269);
#271=CARTESIAN_POINT('',(-153.50000000000011,301.99999999999989,19.050000000000011));
#272=DIRECTION('',(0.0,0.0,-1.0));
#273=DIRECTION('',(-1.0,0.0,0.0));
#274=AXIS2_PLACEMENT_3D('',#271,#272,#273);
#275=CIRCLE('',#274,9.0);
#276=EDGE_CURVE('',#270,#270,#275,.T.);
#277=ORIENTED_EDGE('',*,*,#276,.F.);
#278=EDGE_LOOP('',(#277));
#279=FACE_OUTER_BOUND('',#278,.T.);
#280=CARTESIAN_POINT('',(-162.50000000000011,301.99999999999989,0.0));
#281=VERTEX_POINT('',#280);
#282=CARTESIAN_POINT('',(-153.50000000000011,301.99999999999989,0.0));
#283=DIRECTION('',(0.0,0.0,1.0));
#284=DIRECTION('',(-1.0,0.0,0.0));
#285=AXIS2_PLACEMENT_3D('',#282,#283,#284);
#286=CIRCLE('',#285,9.0);
#287=EDGE_CURVE('',#281,#281,#286,.T.);
#288=ORIENTED_EDGE('',*,*,#287,.F.);
#289=EDGE_LOOP('',(#288));
#290=FACE_BOUND('',#289,.T.);
#291=ADVANCED_FACE('',(#279,#290),#268,.F.);
#292=CARTESIAN_POINT('',(-272.00000000000011,301.99999999999989,958.7819890360895));
#293=DIRECTION('',(0.0,0.0,-1.0));
#294=DIRECTION('',(-1.0,0.0,0.0));
#295=AXIS2_PLACEMENT_3D('',#292,#293,#294);
#296=CYLINDRICAL_SURFACE('',#295,9.0);
#297=CARTESIAN_POINT('',(-263.00000000000011,301.99999999999989,19.050000000000011));
#298=VERTEX_POINT('',#297);
#299=CARTESIAN_POINT('',(-272.00000000000011,301.99999999999989,19.050000000000011));
#300=DIRECTION('',(0.0,0.0,-1.0));
#301=DIRECTION('',(-1.0,0.0,0.0));
#302=AXIS2_PLACEMENT_3D('',#299,#300,#301);
#303=CIRCLE('',#302,9.0);
#304=EDGE_CURVE('',#298,#298,#303,.T.);
#305=ORIENTED_EDGE('',*,*,#304,.F.);
#306=EDGE_LOOP('',(#305));
#307=FACE_OUTER_BOUND('',#306,.T.);
#308=CARTESIAN_POINT('',(-281.00000000000011,301.99999999999989,0.0));
#309=VERTEX_POINT('',#308);
#310=CARTESIAN_POINT('',(-272.00000000000011,301.99999999999989,0.0));
#311=DIRECTION('',(0.0,0.0,1.0));
#312=DIRECTION('',(-1.0,0.0,0.0));
#313=AXIS2_PLACEMENT_3D('',#310,#311,#312);
#314=CIRCLE('',#313,9.0);
#315=EDGE_CURVE('',#309,#309,#314,.T.);
#316=ORIENTED_EDGE('',*,*,#315,.F.);
#317=EDGE_LOOP('',(#316));
#318=FACE_BOUND('',#317,.T.);
#319=ADVANCED_FACE('',(#307,#318),#296,.F.);
#320=CARTESIAN_POINT('',(-390.50000000000011,301.99999999999989,958.7819890360895));
#321=DIRECTION('',(0.0,0.0,-1.0));
#322=DIRECTION('',(-1.0,0.0,0.0));
#323=AXIS2_PLACEMENT_3D('',#320,#321,#322);
#324=CYLINDRICAL_SURFACE('',#323,9.0);
#325=CARTESIAN_POINT('',(-381.50000000000011,301.99999999999989,19.050000000000011));
#326=VERTEX_POINT('',#325);
#327=CARTESIAN_POINT('',(-390.50000000000011,301.99999999999989,19.050000000000011));
#328=DIRECTION('',(0.0,0.0,-1.0));
#329=DIRECTION('',(-1.0,0.0,0.0));
#330=AXIS2_PLACEMENT_3D('',#327,#328,#329);
#331=CIRCLE('',#330,9.0);
#332=EDGE_CURVE('',#326,#326,#331,.T.);
#333=ORIENTED_EDGE('',*,*,#332,.F.);
#334=EDGE_LOOP('',(#333));
#335=FACE_OUTER_BOUND('',#334,.T.);
#336=CARTESIAN_POINT('',(-399.50000000000011,301.99999999999989,0.0));
#337=VERTEX_POINT('',#336);
#338=CARTESIAN_POINT('',(-390.50000000000011,301.99999999999989,0.0));
#339=DIRECTION('',(0.0,0.0,1.0));
#340=DIRECTION('',(-1.0,0.0,0.0));
#341=AXIS2_PLACEMENT_3D('',#338,#339,#340);
#342=CIRCLE('',#341,9.0);
#343=EDGE_CURVE('',#337,#337,#342,.T.);
#344=ORIENTED_EDGE('',*,*,#343,.F.);
#345=EDGE_LOOP('',(#344));
#346=FACE_BOUND('',#345,.T.);
#347=ADVANCED_FACE('',(#335,#346),#324,.F.);
#348=CARTESIAN_POINT('',(-509.5,301.99999999999989,958.7819890360895));
#349=DIRECTION('',(0.0,0.0,-1.0));
#350=DIRECTION('',(-1.0,0.0,0.0));
#351=AXIS2_PLACEMENT_3D('',#348,#349,#350);
#352=CYLINDRICAL_SURFACE('',#351,9.0);
#353=CARTESIAN_POINT('',(-500.50000000000006,301.99999999999989,19.050000000000011));
#354=VERTEX_POINT('',#353);
#355=CARTESIAN_POINT('',(-509.5,301.99999999999989,19.050000000000011));
#356=DIRECTION('',(0.0,0.0,-1.0));
#357=DIRECTION('',(-1.0,0.0,0.0));
#358=AXIS2_PLACEMENT_3D('',#355,#356,#357);
#359=CIRCLE('',#358,9.0);
#360=EDGE_CURVE('',#354,#354,#359,.T.);
#361=ORIENTED_EDGE('',*,*,#360,.F.);
#362=EDGE_LOOP('',(#361));
#363=FACE_OUTER_BOUND('',#362,.T.);
#364=CARTESIAN_POINT('',(-518.5,301.99999999999989,0.0));
#365=VERTEX_POINT('',#364);
#366=CARTESIAN_POINT('',(-509.5,301.99999999999989,0.0));
#367=DIRECTION('',(0.0,0.0,1.0));
#368=DIRECTION('',(-1.0,0.0,0.0));
#369=AXIS2_PLACEMENT_3D('',#366,#367,#368);
#370=CIRCLE('',#369,9.0);
#371=EDGE_CURVE('',#365,#365,#370,.T.);
#372=ORIENTED_EDGE('',*,*,#371,.F.);
#373=EDGE_LOOP('',(#372));
#374=FACE_BOUND('',#373,.T.);
#375=ADVANCED_FACE('',(#363,#374),#352,.F.);
#376=CARTESIAN_POINT('',(-628.0,301.99999999999994,958.7819890360895));
#377=DIRECTION('',(0.0,0.0,-1.0));
#378=DIRECTION('',(-1.0,0.0,0.0));
#379=AXIS2_PLACEMENT_3D('',#376,#377,#378);
#380=CYLINDRICAL_SURFACE('',#379,9.0);
#381=CARTESIAN_POINT('',(-619.0,301.99999999999994,19.050000000000011));
#382=VERTEX_POINT('',#381);
#383=CARTESIAN_POINT('',(-628.0,301.99999999999994,19.050000000000011));
#384=DIRECTION('',(0.0,0.0,-1.0));
#385=DIRECTION('',(-1.0,0.0,0.0));
#386=AXIS2_PLACEMENT_3D('',#383,#384,#385);
#387=CIRCLE('',#386,9.0);
#388=EDGE_CURVE('',#382,#382,#387,.T.);
#389=ORIENTED_EDGE('',*,*,#388,.F.);
#390=EDGE_LOOP('',(#389));
#391=FACE_OUTER_BOUND('',#390,.T.);
#392=CARTESIAN_POINT('',(-637.0,301.99999999999994,0.0));
#393=VERTEX_POINT('',#392);
#394=CARTESIAN_POINT('',(-628.0,301.99999999999994,0.0));
#395=DIRECTION('',(0.0,0.0,1.0));
#396=DIRECTION('',(-1.0,0.0,0.0));
#397=AXIS2_PLACEMENT_3D('',#394,#395,#396);
#398=CIRCLE('',#397,9.0);
#399=EDGE_CURVE('',#393,#393,#398,.T.);
#400=ORIENTED_EDGE('',*,*,#399,.F.);
#401=EDGE_LOOP('',(#400));
#402=FACE_BOUND('',#401,.T.);
#403=ADVANCED_FACE('',(#391,#402),#380,.F.);
#404=CARTESIAN_POINT('',(-746.5,301.99999999999994,958.7819890360895));
#405=DIRECTION('',(0.0,0.0,-1.0));
#406=DIRECTION('',(-1.0,0.0,0.0));
#407=AXIS2_PLACEMENT_3D('',#404,#405,#406);
#408=CYLINDRICAL_SURFACE('',#407,9.0);
#409=CARTESIAN_POINT('',(-737.5,301.99999999999994,19.050000000000011));
#410=VERTEX_POINT('',#409);
#411=CARTESIAN_POINT('',(-746.5,301.99999999999994,19.050000000000011));
#412=DIRECTION('',(0.0,0.0,-1.0));
#413=DIRECTION('',(-1.0,0.0,0.0));
#414=AXIS2_PLACEMENT_3D('',#411,#412,#413);
#415=CIRCLE('',#414,9.0);
#416=EDGE_CURVE('',#410,#410,#415,.T.);
#417=ORIENTED_EDGE('',*,*,#416,.F.);
#418=EDGE_LOOP('',(#417));
#419=FACE_OUTER_BOUND('',#418,.T.);
#420=CARTESIAN_POINT('',(-755.50000000000011,301.99999999999994,0.0));
#421=VERTEX_POINT('',#420);
#422=CARTESIAN_POINT('',(-746.5,301.99999999999994,0.0));
#423=DIRECTION('',(0.0,0.0,1.0));
#424=DIRECTION('',(-1.0,0.0,0.0));
#425=AXIS2_PLACEMENT_3D('',#422,#423,#424);
#426=CIRCLE('',#425,9.0);
#427=EDGE_CURVE('',#421,#421,#426,.T.);
#428=ORIENTED_EDGE('',*,*,#427,.F.);
#429=EDGE_LOOP('',(#428));
#430=FACE_BOUND('',#429,.T.);
#431=ADVANCED_FACE('',(#419,#430),#408,.F.);
#432=CARTESIAN_POINT('',(-865.0,301.99999999999994,958.7819890360895));
#433=DIRECTION('',(0.0,0.0,-1.0));
#434=DIRECTION('',(-1.0,0.0,0.0));
#435=AXIS2_PLACEMENT_3D('',#432,#433,#434);
#436=CYLINDRICAL_SURFACE('',#435,9.0);
#437=CARTESIAN_POINT('',(-856.0,301.99999999999994,19.050000000000011));
#438=VERTEX_POINT('',#437);
#439=CARTESIAN_POINT('',(-865.0,301.99999999999994,19.050000000000011));
#440=DIRECTION('',(0.0,0.0,-1.0));
#441=DIRECTION('',(-1.0,0.0,0.0));
#442=AXIS2_PLACEMENT_3D('',#439,#440,#441);
#443=CIRCLE('',#442,9.0);
#444=EDGE_CURVE('',#438,#438,#443,.T.);
#445=ORIENTED_EDGE('',*,*,#444,.F.);
#446=EDGE_LOOP('',(#445));
#447=FACE_OUTER_BOUND('',#446,.T.);
#448=CARTESIAN_POINT('',(-874.0,301.99999999999994,0.0));
#449=VERTEX_POINT('',#448);
#450=CARTESIAN_POINT('',(-865.0,301.99999999999994,0.0));
#451=DIRECTION('',(0.0,0.0,1.0));
#452=DIRECTION('',(-1.0,0.0,0.0));
#453=AXIS2_PLACEMENT_3D('',#450,#451,#452);
#454=CIRCLE('',#453,9.0);
#455=EDGE_CURVE('',#449,#449,#454,.T.);
#456=ORIENTED_EDGE('',*,*,#455,.F.);
#457=EDGE_LOOP('',(#456));
#458=FACE_BOUND('',#457,.T.);
#459=ADVANCED_FACE('',(#447,#458),#436,.F.);
#460=CARTESIAN_POINT('',(-746.5,27.999999999999972,958.7819890360895));
#461=DIRECTION('',(0.0,0.0,-1.0));
#462=DIRECTION('',(-1.0,0.0,0.0));
#463=AXIS2_PLACEMENT_3D('',#460,#461,#462);
#464=CYLINDRICAL_SURFACE('',#463,9.0);
#465=CARTESIAN_POINT('',(-737.5,27.999999999999972,19.050000000000011));
#466=VERTEX_POINT('',#465);
#467=CARTESIAN_POINT('',(-746.5,27.999999999999972,19.050000000000011));
#468=DIRECTION('',(0.0,0.0,-1.0));
#469=DIRECTION('',(-1.0,0.0,0.0));
#470=AXIS2_PLACEMENT_3D('',#467,#468,#469);
#471=CIRCLE('',#470,9.0);
#472=EDGE_CURVE('',#466,#466,#471,.T.);
#473=ORIENTED_EDGE('',*,*,#472,.F.);
#474=EDGE_LOOP('',(#473));
#475=FACE_OUTER_BOUND('',#474,.T.);
#476=CARTESIAN_POINT('',(-755.50000000000011,27.999999999999972,0.0));
#477=VERTEX_POINT('',#476);
#478=CARTESIAN_POINT('',(-746.5,27.999999999999972,0.0));
#479=DIRECTION('',(0.0,0.0,1.0));
#480=DIRECTION('',(-1.0,0.0,0.0));
#481=AXIS2_PLACEMENT_3D('',#478,#479,#480);
#482=CIRCLE('',#481,9.0);
#483=EDGE_CURVE('',#477,#477,#482,.T.);
#484=ORIENTED_EDGE('',*,*,#483,.F.);
#485=EDGE_LOOP('',(#484));
#486=FACE_BOUND('',#485,.T.);
#487=ADVANCED_FACE('',(#475,#486),#464,.F.);
#488=CARTESIAN_POINT('',(-865.0,27.999999999999975,958.7819890360895));
#489=DIRECTION('',(0.0,0.0,-1.0));
#490=DIRECTION('',(-1.0,0.0,0.0));
#491=AXIS2_PLACEMENT_3D('',#488,#489,#490);
#492=CYLINDRICAL_SURFACE('',#491,9.0);
#493=CARTESIAN_POINT('',(-856.0,27.999999999999975,19.050000000000011));
#494=VERTEX_POINT('',#493);
#495=CARTESIAN_POINT('',(-865.0,27.999999999999975,19.050000000000011));
#496=DIRECTION('',(0.0,0.0,-1.0));
#497=DIRECTION('',(-1.0,0.0,0.0));
#498=AXIS2_PLACEMENT_3D('',#495,#496,#497);
#499=CIRCLE('',#498,9.0);
#500=EDGE_CURVE('',#494,#494,#499,.T.);
#501=ORIENTED_EDGE('',*,*,#500,.F.);
#502=EDGE_LOOP('',(#501));
#503=FACE_OUTER_BOUND('',#502,.T.);
#504=CARTESIAN_POINT('',(-874.0,27.999999999999975,0.0));
#505=VERTEX_POINT('',#504);
#506=CARTESIAN_POINT('',(-865.0,27.999999999999975,0.0));
#507=DIRECTION('',(0.0,0.0,1.0));
#508=DIRECTION('',(-1.0,0.0,0.0));
#509=AXIS2_PLACEMENT_3D('',#506,#507,#508);
#510=CIRCLE('',#509,9.0);
#511=EDGE_CURVE('',#505,#505,#510,.T.);
#512=ORIENTED_EDGE('',*,*,#511,.F.);
#513=EDGE_LOOP('',(#512));
#514=FACE_BOUND('',#513,.T.);
#515=ADVANCED_FACE('',(#503,#514),#492,.F.);
#516=CARTESIAN_POINT('',(-840.0,253.59999999999991,958.7819890360895));
#517=DIRECTION('',(0.0,0.0,-1.0));
#518=DIRECTION('',(-1.0,0.0,0.0));
#519=AXIS2_PLACEMENT_3D('',#516,#517,#518);
#520=CYLINDRICAL_SURFACE('',#519,4.0);
#521=CARTESIAN_POINT('',(-836.0,253.59999999999991,19.050000000000011));
#522=VERTEX_POINT('',#521);
#523=CARTESIAN_POINT('',(-840.0,253.59999999999991,19.050000000000011));
#524=DIRECTION('',(0.0,0.0,-1.0));
#525=DIRECTION('',(-1.0,0.0,0.0));
#526=AXIS2_PLACEMENT_3D('',#523,#524,#525);
#527=CIRCLE('',#526,4.0);
#528=EDGE_CURVE('',#522,#522,#527,.T.);
#529=ORIENTED_EDGE('',*,*,#528,.F.);
#530=EDGE_LOOP('',(#529));
#531=FACE_OUTER_BOUND('',#530,.T.);
#532=CARTESIAN_POINT('',(-844.0,253.59999999999991,0.0));
#533=VERTEX_POINT('',#532);
#534=CARTESIAN_POINT('',(-840.0,253.59999999999991,0.0));
#535=DIRECTION('',(0.0,0.0,1.0));
#536=DIRECTION('',(-1.0,0.0,0.0));
#537=AXIS2_PLACEMENT_3D('',#534,#535,#536);
#538=CIRCLE('',#537,4.0);
#539=EDGE_CURVE('',#533,#533,#538,.T.);
#540=ORIENTED_EDGE('',*,*,#539,.F.);
#541=EDGE_LOOP('',(#540));
#542=FACE_BOUND('',#541,.T.);
#543=ADVANCED_FACE('',(#531,#542),#520,.F.);
#544=CARTESIAN_POINT('',(-790.0,253.59999999999991,958.7819890360895));
#545=DIRECTION('',(0.0,0.0,-1.0));
#546=DIRECTION('',(-1.0,0.0,0.0));
#547=AXIS2_PLACEMENT_3D('',#544,#545,#546);
#548=CYLINDRICAL_SURFACE('',#547,4.0);
#549=CARTESIAN_POINT('',(-786.0,253.59999999999991,19.050000000000011));
#550=VERTEX_POINT('',#549);
#551=CARTESIAN_POINT('',(-790.0,253.59999999999991,19.050000000000011));
#552=DIRECTION('',(0.0,0.0,-1.0));
#553=DIRECTION('',(-1.0,0.0,0.0));
#554=AXIS2_PLACEMENT_3D('',#551,#552,#553);
#555=CIRCLE('',#554,4.0);
#556=EDGE_CURVE('',#550,#550,#555,.T.);
#557=ORIENTED_EDGE('',*,*,#556,.F.);
#558=EDGE_LOOP('',(#557));
#559=FACE_OUTER_BOUND('',#558,.T.);
#560=CARTESIAN_POINT('',(-794.0,253.59999999999991,0.0));
#561=VERTEX_POINT('',#560);
#562=CARTESIAN_POINT('',(-790.0,253.59999999999991,0.0));
#563=DIRECTION('',(0.0,0.0,1.0));
#564=DIRECTION('',(-1.0,0.0,0.0));
#565=AXIS2_PLACEMENT_3D('',#562,#563,#564);
#566=CIRCLE('',#565,4.0);
#567=EDGE_CURVE('',#561,#561,#566,.T.);
#568=ORIENTED_EDGE('',*,*,#567,.F.);
#569=EDGE_LOOP('',(#568));
#570=FACE_BOUND('',#569,.T.);
#571=ADVANCED_FACE('',(#559,#570),#548,.F.);
#572=CARTESIAN_POINT('',(-740.0,253.59999999999991,958.7819890360895));
#573=DIRECTION('',(0.0,0.0,-1.0));
#574=DIRECTION('',(-1.0,0.0,0.0));
#575=AXIS2_PLACEMENT_3D('',#572,#573,#574);
#576=CYLINDRICAL_SURFACE('',#575,4.0);
#577=CARTESIAN_POINT('',(-736.0,253.59999999999991,19.050000000000011));
#578=VERTEX_POINT('',#577);
#579=CARTESIAN_POINT('',(-740.0,253.59999999999991,19.050000000000011));
#580=DIRECTION('',(0.0,0.0,-1.0));
#581=DIRECTION('',(-1.0,0.0,0.0));
#582=AXIS2_PLACEMENT_3D('',#579,#580,#581);
#583=CIRCLE('',#582,4.0);
#584=EDGE_CURVE('',#578,#578,#583,.T.);
#585=ORIENTED_EDGE('',*,*,#584,.F.);
#586=EDGE_LOOP('',(#585));
#587=FACE_OUTER_BOUND('',#586,.T.);
#588=CARTESIAN_POINT('',(-744.0,253.59999999999991,0.0));
#589=VERTEX_POINT('',#588);
#590=CARTESIAN_POINT('',(-740.0,253.59999999999991,0.0));
#591=DIRECTION('',(0.0,0.0,1.0));
#592=DIRECTION('',(-1.0,0.0,0.0));
#593=AXIS2_PLACEMENT_3D('',#590,#591,#592);
#594=CIRCLE('',#593,4.0);
#595=EDGE_CURVE('',#589,#589,#594,.T.);
#596=ORIENTED_EDGE('',*,*,#595,.F.);
#597=EDGE_LOOP('',(#596));
#598=FACE_BOUND('',#597,.T.);
#599=ADVANCED_FACE('',(#587,#598),#576,.F.);
#600=CARTESIAN_POINT('',(-690.0,253.59999999999991,958.7819890360895));
#601=DIRECTION('',(0.0,0.0,-1.0));
#602=DIRECTION('',(-1.0,0.0,0.0));
#603=AXIS2_PLACEMENT_3D('',#600,#601,#602);
#604=CYLINDRICAL_SURFACE('',#603,4.0);
#605=CARTESIAN_POINT('',(-686.0,253.59999999999991,19.050000000000011));
#606=VERTEX_POINT('',#605);
#607=CARTESIAN_POINT('',(-690.0,253.59999999999991,19.050000000000011));
#608=DIRECTION('',(0.0,0.0,-1.0));
#609=DIRECTION('',(-1.0,0.0,0.0));
#610=AXIS2_PLACEMENT_3D('',#607,#608,#609);
#611=CIRCLE('',#610,4.0);
#612=EDGE_CURVE('',#606,#606,#611,.T.);
#613=ORIENTED_EDGE('',*,*,#612,.F.);
#614=EDGE_LOOP('',(#613));
#615=FACE_OUTER_BOUND('',#614,.T.);
#616=CARTESIAN_POINT('',(-694.0,253.59999999999991,0.0));
#617=VERTEX_POINT('',#616);
#618=CARTESIAN_POINT('',(-690.0,253.59999999999991,0.0));
#619=DIRECTION('',(0.0,0.0,1.0));
#620=DIRECTION('',(-1.0,0.0,0.0));
#621=AXIS2_PLACEMENT_3D('',#618,#619,#620);
#622=CIRCLE('',#621,4.0);
#623=EDGE_CURVE('',#617,#617,#622,.T.);
#624=ORIENTED_EDGE('',*,*,#623,.F.);
#625=EDGE_LOOP('',(#624));
#626=FACE_BOUND('',#625,.T.);
#627=ADVANCED_FACE('',(#615,#626),#604,.F.);
#628=CARTESIAN_POINT('',(-640.0,253.59999999999991,958.7819890360895));
#629=DIRECTION('',(0.0,0.0,-1.0));
#630=DIRECTION('',(-1.0,0.0,0.0));
#631=AXIS2_PLACEMENT_3D('',#628,#629,#630);
#632=CYLINDRICAL_SURFACE('',#631,4.0);
#633=CARTESIAN_POINT('',(-636.0,253.59999999999991,19.050000000000011));
#634=VERTEX_POINT('',#633);
#635=CARTESIAN_POINT('',(-640.0,253.59999999999991,19.050000000000011));
#636=DIRECTION('',(0.0,0.0,-1.0));
#637=DIRECTION('',(-1.0,0.0,0.0));
#638=AXIS2_PLACEMENT_3D('',#635,#636,#637);
#639=CIRCLE('',#638,4.0);
#640=EDGE_CURVE('',#634,#634,#639,.T.);
#641=ORIENTED_EDGE('',*,*,#640,.F.);
#642=EDGE_LOOP('',(#641));
#643=FACE_OUTER_BOUND('',#642,.T.);
#644=CARTESIAN_POINT('',(-644.0,253.59999999999991,0.0));
#645=VERTEX_POINT('',#644);
#646=CARTESIAN_POINT('',(-640.0,253.59999999999991,0.0));
#647=DIRECTION('',(0.0,0.0,1.0));
#648=DIRECTION('',(-1.0,0.0,0.0));
#649=AXIS2_PLACEMENT_3D('',#646,#647,#648);
#650=CIRCLE('',#649,4.0);
#651=EDGE_CURVE('',#645,#645,#650,.T.);
#652=ORIENTED_EDGE('',*,*,#651,.F.);
#653=EDGE_LOOP('',(#652));
#654=FACE_BOUND('',#653,.T.);
#655=ADVANCED_FACE('',(#643,#654),#632,.F.);
#656=CARTESIAN_POINT('',(-590.0,253.59999999999991,958.7819890360895));
#657=DIRECTION('',(0.0,0.0,-1.0));
#658=DIRECTION('',(-1.0,0.0,0.0));
#659=AXIS2_PLACEMENT_3D('',#656,#657,#658);
#660=CYLINDRICAL_SURFACE('',#659,4.0);
#661=CARTESIAN_POINT('',(-586.0,253.59999999999991,19.050000000000011));
#662=VERTEX_POINT('',#661);
#663=CARTESIAN_POINT('',(-590.0,253.59999999999991,19.050000000000011));
#664=DIRECTION('',(0.0,0.0,-1.0));
#665=DIRECTION('',(-1.0,0.0,0.0));
#666=AXIS2_PLACEMENT_3D('',#663,#664,#665);
#667=CIRCLE('',#666,4.0);
#668=EDGE_CURVE('',#662,#662,#667,.T.);
#669=ORIENTED_EDGE('',*,*,#668,.F.);
#670=EDGE_LOOP('',(#669));
#671=FACE_OUTER_BOUND('',#670,.T.);
#672=CARTESIAN_POINT('',(-594.0,253.59999999999991,0.0));
#673=VERTEX_POINT('',#672);
#674=CARTESIAN_POINT('',(-590.0,253.59999999999991,0.0));
#675=DIRECTION('',(0.0,0.0,1.0));
#676=DIRECTION('',(-1.0,0.0,0.0));
#677=AXIS2_PLACEMENT_3D('',#674,#675,#676);
#678=CIRCLE('',#677,4.0);
#679=EDGE_CURVE('',#673,#673,#678,.T.);
#680=ORIENTED_EDGE('',*,*,#679,.F.);
#681=EDGE_LOOP('',(#680));
#682=FACE_BOUND('',#681,.T.);
#683=ADVANCED_FACE('',(#671,#682),#660,.F.);
#684=CARTESIAN_POINT('',(-540.0,253.59999999999988,958.7819890360895));
#685=DIRECTION('',(0.0,0.0,-1.0));
#686=DIRECTION('',(-1.0,0.0,0.0));
#687=AXIS2_PLACEMENT_3D('',#684,#685,#686);
#688=CYLINDRICAL_SURFACE('',#687,4.0);
#689=CARTESIAN_POINT('',(-536.0,253.59999999999988,19.050000000000011));
#690=VERTEX_POINT('',#689);
#691=CARTESIAN_POINT('',(-540.0,253.59999999999988,19.050000000000011));
#692=DIRECTION('',(0.0,0.0,-1.0));
#693=DIRECTION('',(-1.0,0.0,0.0));
#694=AXIS2_PLACEMENT_3D('',#691,#692,#693);
#695=CIRCLE('',#694,4.0);
#696=EDGE_CURVE('',#690,#690,#695,.T.);
#697=ORIENTED_EDGE('',*,*,#696,.F.);
#698=EDGE_LOOP('',(#697));
#699=FACE_OUTER_BOUND('',#698,.T.);
#700=CARTESIAN_POINT('',(-544.0,253.59999999999988,0.0));
#701=VERTEX_POINT('',#700);
#702=CARTESIAN_POINT('',(-540.0,253.59999999999988,0.0));
#703=DIRECTION('',(0.0,0.0,1.0));
#704=DIRECTION('',(-1.0,0.0,0.0));
#705=AXIS2_PLACEMENT_3D('',#702,#703,#704);
#706=CIRCLE('',#705,4.0);
#707=EDGE_CURVE('',#701,#701,#706,.T.);
#708=ORIENTED_EDGE('',*,*,#707,.F.);
#709=EDGE_LOOP('',(#708));
#710=FACE_BOUND('',#709,.T.);
#711=ADVANCED_FACE('',(#699,#710),#688,.F.);
#712=CARTESIAN_POINT('',(-490.0,253.59999999999988,958.7819890360895));
#713=DIRECTION('',(0.0,0.0,-1.0));
#714=DIRECTION('',(-1.0,0.0,0.0));
#715=AXIS2_PLACEMENT_3D('',#712,#713,#714);
#716=CYLINDRICAL_SURFACE('',#715,4.0);
#717=CARTESIAN_POINT('',(-486.0,253.59999999999988,19.050000000000011));
#718=VERTEX_POINT('',#717);
#719=CARTESIAN_POINT('',(-490.0,253.59999999999988,19.050000000000011));
#720=DIRECTION('',(0.0,0.0,-1.0));
#721=DIRECTION('',(-1.0,0.0,0.0));
#722=AXIS2_PLACEMENT_3D('',#719,#720,#721);
#723=CIRCLE('',#722,4.0);
#724=EDGE_CURVE('',#718,#718,#723,.T.);
#725=ORIENTED_EDGE('',*,*,#724,.F.);
#726=EDGE_LOOP('',(#725));
#727=FACE_OUTER_BOUND('',#726,.T.);
#728=CARTESIAN_POINT('',(-494.0,253.59999999999988,0.0));
#729=VERTEX_POINT('',#728);
#730=CARTESIAN_POINT('',(-490.0,253.59999999999988,0.0));
#731=DIRECTION('',(0.0,0.0,1.0));
#732=DIRECTION('',(-1.0,0.0,0.0));
#733=AXIS2_PLACEMENT_3D('',#730,#731,#732);
#734=CIRCLE('',#733,4.0);
#735=EDGE_CURVE('',#729,#729,#734,.T.);
#736=ORIENTED_EDGE('',*,*,#735,.F.);
#737=EDGE_LOOP('',(#736));
#738=FACE_BOUND('',#737,.T.);
#739=ADVANCED_FACE('',(#727,#738),#716,.F.);
#740=CARTESIAN_POINT('',(-440.0,253.59999999999988,958.7819890360895));
#741=DIRECTION('',(0.0,0.0,-1.0));
#742=DIRECTION('',(-1.0,0.0,0.0));
#743=AXIS2_PLACEMENT_3D('',#740,#741,#742);
#744=CYLINDRICAL_SURFACE('',#743,4.0);
#745=CARTESIAN_POINT('',(-436.0,253.59999999999988,19.050000000000011));
#746=VERTEX_POINT('',#745);
#747=CARTESIAN_POINT('',(-440.0,253.59999999999988,19.050000000000011));
#748=DIRECTION('',(0.0,0.0,-1.0));
#749=DIRECTION('',(-1.0,0.0,0.0));
#750=AXIS2_PLACEMENT_3D('',#747,#748,#749);
#751=CIRCLE('',#750,4.0);
#752=EDGE_CURVE('',#746,#746,#751,.T.);
#753=ORIENTED_EDGE('',*,*,#752,.F.);
#754=EDGE_LOOP('',(#753));
#755=FACE_OUTER_BOUND('',#754,.T.);
#756=CARTESIAN_POINT('',(-444.0,253.59999999999988,0.0));
#757=VERTEX_POINT('',#756);
#758=CARTESIAN_POINT('',(-440.0,253.59999999999988,0.0));
#759=DIRECTION('',(0.0,0.0,1.0));
#760=DIRECTION('',(-1.0,0.0,0.0));
#761=AXIS2_PLACEMENT_3D('',#758,#759,#760);
#762=CIRCLE('',#761,4.0);
#763=EDGE_CURVE('',#757,#757,#762,.T.);
#764=ORIENTED_EDGE('',*,*,#763,.F.);
#765=EDGE_LOOP('',(#764));
#766=FACE_BOUND('',#765,.T.);
#767=ADVANCED_FACE('',(#755,#766),#744,.F.);
#768=CARTESIAN_POINT('',(-390.0,253.59999999999988,958.7819890360895));
#769=DIRECTION('',(0.0,0.0,-1.0));
#770=DIRECTION('',(-1.0,0.0,0.0));
#771=AXIS2_PLACEMENT_3D('',#768,#769,#770);
#772=CYLINDRICAL_SURFACE('',#771,4.0);
#773=CARTESIAN_POINT('',(-386.0,253.59999999999988,19.050000000000011));
#774=VERTEX_POINT('',#773);
#775=CARTESIAN_POINT('',(-390.0,253.59999999999988,19.050000000000011));
#776=DIRECTION('',(0.0,0.0,-1.0));
#777=DIRECTION('',(-1.0,0.0,0.0));
#778=AXIS2_PLACEMENT_3D('',#775,#776,#777);
#779=CIRCLE('',#778,4.0);
#780=EDGE_CURVE('',#774,#774,#779,.T.);
#781=ORIENTED_EDGE('',*,*,#780,.F.);
#782=EDGE_LOOP('',(#781));
#783=FACE_OUTER_BOUND('',#782,.T.);
#784=CARTESIAN_POINT('',(-394.0,253.59999999999988,0.0));
#785=VERTEX_POINT('',#784);
#786=CARTESIAN_POINT('',(-390.0,253.59999999999988,0.0));
#787=DIRECTION('',(0.0,0.0,1.0));
#788=DIRECTION('',(-1.0,0.0,0.0));
#789=AXIS2_PLACEMENT_3D('',#786,#787,#788);
#790=CIRCLE('',#789,4.0);
#791=EDGE_CURVE('',#785,#785,#790,.T.);
#792=ORIENTED_EDGE('',*,*,#791,.F.);
#793=EDGE_LOOP('',(#792));
#794=FACE_BOUND('',#793,.T.);
#795=ADVANCED_FACE('',(#783,#794),#772,.F.);
#796=CARTESIAN_POINT('',(-340.0,253.59999999999988,958.7819890360895));
#797=DIRECTION('',(0.0,0.0,-1.0));
#798=DIRECTION('',(-1.0,0.0,0.0));
#799=AXIS2_PLACEMENT_3D('',#796,#797,#798);
#800=CYLINDRICAL_SURFACE('',#799,4.0);
#801=CARTESIAN_POINT('',(-336.0,253.59999999999988,19.050000000000011));
#802=VERTEX_POINT('',#801);
#803=CARTESIAN_POINT('',(-340.0,253.59999999999988,19.050000000000011));
#804=DIRECTION('',(0.0,0.0,-1.0));
#805=DIRECTION('',(-1.0,0.0,0.0));
#806=AXIS2_PLACEMENT_3D('',#803,#804,#805);
#807=CIRCLE('',#806,4.0);
#808=EDGE_CURVE('',#802,#802,#807,.T.);
#809=ORIENTED_EDGE('',*,*,#808,.F.);
#810=EDGE_LOOP('',(#809));
#811=FACE_OUTER_BOUND('',#810,.T.);
#812=CARTESIAN_POINT('',(-344.0,253.59999999999988,0.0));
#813=VERTEX_POINT('',#812);
#814=CARTESIAN_POINT('',(-340.0,253.59999999999988,0.0));
#815=DIRECTION('',(0.0,0.0,1.0));
#816=DIRECTION('',(-1.0,0.0,0.0));
#817=AXIS2_PLACEMENT_3D('',#814,#815,#816);
#818=CIRCLE('',#817,4.0);
#819=EDGE_CURVE('',#813,#813,#818,.T.);
#820=ORIENTED_EDGE('',*,*,#819,.F.);
#821=EDGE_LOOP('',(#820));
#822=FACE_BOUND('',#821,.T.);
#823=ADVANCED_FACE('',(#811,#822),#800,.F.);
#824=CARTESIAN_POINT('',(-290.0,253.59999999999988,958.7819890360895));
#825=DIRECTION('',(0.0,0.0,-1.0));
#826=DIRECTION('',(-1.0,0.0,0.0));
#827=AXIS2_PLACEMENT_3D('',#824,#825,#826);
#828=CYLINDRICAL_SURFACE('',#827,4.0);
#829=CARTESIAN_POINT('',(-286.0,253.59999999999988,19.050000000000011));
#830=VERTEX_POINT('',#829);
#831=CARTESIAN_POINT('',(-290.0,253.59999999999988,19.050000000000011));
#832=DIRECTION('',(0.0,0.0,-1.0));
#833=DIRECTION('',(-1.0,0.0,0.0));
#834=AXIS2_PLACEMENT_3D('',#831,#832,#833);
#835=CIRCLE('',#834,4.0);
#836=EDGE_CURVE('',#830,#830,#835,.T.);
#837=ORIENTED_EDGE('',*,*,#836,.F.);
#838=EDGE_LOOP('',(#837));
#839=FACE_OUTER_BOUND('',#838,.T.);
#840=CARTESIAN_POINT('',(-294.0,253.59999999999988,0.0));
#841=VERTEX_POINT('',#840);
#842=CARTESIAN_POINT('',(-290.0,253.59999999999988,0.0));
#843=DIRECTION('',(0.0,0.0,1.0));
#844=DIRECTION('',(-1.0,0.0,0.0));
#845=AXIS2_PLACEMENT_3D('',#842,#843,#844);
#846=CIRCLE('',#845,4.0);
#847=EDGE_CURVE('',#841,#841,#846,.T.);
#848=ORIENTED_EDGE('',*,*,#847,.F.);
#849=EDGE_LOOP('',(#848));
#850=FACE_BOUND('',#849,.T.);
#851=ADVANCED_FACE('',(#839,#850),#828,.F.);
#852=CARTESIAN_POINT('',(-240.0,253.59999999999988,958.7819890360895));
#853=DIRECTION('',(0.0,0.0,-1.0));
#854=DIRECTION('',(-1.0,0.0,0.0));
#855=AXIS2_PLACEMENT_3D('',#852,#853,#854);
#856=CYLINDRICAL_SURFACE('',#855,4.0);
#857=CARTESIAN_POINT('',(-236.0,253.59999999999988,19.050000000000011));
#858=VERTEX_POINT('',#857);
#859=CARTESIAN_POINT('',(-240.0,253.59999999999988,19.050000000000011));
#860=DIRECTION('',(0.0,0.0,-1.0));
#861=DIRECTION('',(-1.0,0.0,0.0));
#862=AXIS2_PLACEMENT_3D('',#859,#860,#861);
#863=CIRCLE('',#862,4.0);
#864=EDGE_CURVE('',#858,#858,#863,.T.);
#865=ORIENTED_EDGE('',*,*,#864,.F.);
#866=EDGE_LOOP('',(#865));
#867=FACE_OUTER_BOUND('',#866,.T.);
#868=CARTESIAN_POINT('',(-244.0,253.59999999999988,0.0));
#869=VERTEX_POINT('',#868);
#870=CARTESIAN_POINT('',(-240.0,253.59999999999988,0.0));
#871=DIRECTION('',(0.0,0.0,1.0));
#872=DIRECTION('',(-1.0,0.0,0.0));
#873=AXIS2_PLACEMENT_3D('',#870,#871,#872);
#874=CIRCLE('',#873,4.0);
#875=EDGE_CURVE('',#869,#869,#874,.T.);
#876=ORIENTED_EDGE('',*,*,#875,.F.);
#877=EDGE_LOOP('',(#876));
#878=FACE_BOUND('',#877,.T.);
#879=ADVANCED_FACE('',(#867,#878),#856,.F.);
#880=CARTESIAN_POINT('',(-190.0,253.59999999999988,958.7819890360895));
#881=DIRECTION('',(0.0,0.0,-1.0));
#882=DIRECTION('',(-1.0,0.0,0.0));
#883=AXIS2_PLACEMENT_3D('',#880,#881,#882);
#884=CYLINDRICAL_SURFACE('',#883,4.0);
#885=CARTESIAN_POINT('',(-186.0,253.59999999999988,19.050000000000011));
#886=VERTEX_POINT('',#885);
#887=CARTESIAN_POINT('',(-190.0,253.59999999999988,19.050000000000011));
#888=DIRECTION('',(0.0,0.0,-1.0));
#889=DIRECTION('',(-1.0,0.0,0.0));
#890=AXIS2_PLACEMENT_3D('',#887,#888,#889);
#891=CIRCLE('',#890,4.0);
#892=EDGE_CURVE('',#886,#886,#891,.T.);
#893=ORIENTED_EDGE('',*,*,#892,.F.);
#894=EDGE_LOOP('',(#893));
#895=FACE_OUTER_BOUND('',#894,.T.);
#896=CARTESIAN_POINT('',(-194.0,253.59999999999988,0.0));
#897=VERTEX_POINT('',#896);
#898=CARTESIAN_POINT('',(-190.0,253.59999999999988,0.0));
#899=DIRECTION('',(0.0,0.0,1.0));
#900=DIRECTION('',(-1.0,0.0,0.0));
#901=AXIS2_PLACEMENT_3D('',#898,#899,#900);
#902=CIRCLE('',#901,4.0);
#903=EDGE_CURVE('',#897,#897,#902,.T.);
#904=ORIENTED_EDGE('',*,*,#903,.F.);
#905=EDGE_LOOP('',(#904));
#906=FACE_BOUND('',#905,.T.);
#907=ADVANCED_FACE('',(#895,#906),#884,.F.);
#908=CARTESIAN_POINT('',(-140.0,253.59999999999988,958.7819890360895));
#909=DIRECTION('',(0.0,0.0,-1.0));
#910=DIRECTION('',(-1.0,0.0,0.0));
#911=AXIS2_PLACEMENT_3D('',#908,#909,#910);
#912=CYLINDRICAL_SURFACE('',#911,4.0);
#913=CARTESIAN_POINT('',(-136.0,253.59999999999988,19.050000000000011));
#914=VERTEX_POINT('',#913);
#915=CARTESIAN_POINT('',(-140.0,253.59999999999988,19.050000000000011));
#916=DIRECTION('',(0.0,0.0,-1.0));
#917=DIRECTION('',(-1.0,0.0,0.0));
#918=AXIS2_PLACEMENT_3D('',#915,#916,#917);
#919=CIRCLE('',#918,4.0);
#920=EDGE_CURVE('',#914,#914,#919,.T.);
#921=ORIENTED_EDGE('',*,*,#920,.F.);
#922=EDGE_LOOP('',(#921));
#923=FACE_OUTER_BOUND('',#922,.T.);
#924=CARTESIAN_POINT('',(-144.0,253.59999999999988,0.0));
#925=VERTEX_POINT('',#924);
#926=CARTESIAN_POINT('',(-140.0,253.59999999999988,0.0));
#927=DIRECTION('',(0.0,0.0,1.0));
#928=DIRECTION('',(-1.0,0.0,0.0));
#929=AXIS2_PLACEMENT_3D('',#926,#927,#928);
#930=CIRCLE('',#929,4.0);
#931=EDGE_CURVE('',#925,#925,#930,.T.);
#932=ORIENTED_EDGE('',*,*,#931,.F.);
#933=EDGE_LOOP('',(#932));
#934=FACE_BOUND('',#933,.T.);
#935=ADVANCED_FACE('',(#923,#934),#912,.F.);
#936=CARTESIAN_POINT('',(-90.0,253.59999999999988,958.7819890360895));
#937=DIRECTION('',(0.0,0.0,-1.0));
#938=DIRECTION('',(-1.0,0.0,0.0));
#939=AXIS2_PLACEMENT_3D('',#936,#937,#938);
#940=CYLINDRICAL_SURFACE('',#939,4.0);
#941=CARTESIAN_POINT('',(-86.0,253.59999999999988,19.050000000000011));
#942=VERTEX_POINT('',#941);
#943=CARTESIAN_POINT('',(-90.0,253.59999999999988,19.050000000000011));
#944=DIRECTION('',(0.0,0.0,-1.0));
#945=DIRECTION('',(-1.0,0.0,0.0));
#946=AXIS2_PLACEMENT_3D('',#943,#944,#945);
#947=CIRCLE('',#946,4.0);
#948=EDGE_CURVE('',#942,#942,#947,.T.);
#949=ORIENTED_EDGE('',*,*,#948,.F.);
#950=EDGE_LOOP('',(#949));
#951=FACE_OUTER_BOUND('',#950,.T.);
#952=CARTESIAN_POINT('',(-94.0,253.59999999999988,0.0));
#953=VERTEX_POINT('',#952);
#954=CARTESIAN_POINT('',(-90.0,253.59999999999988,0.0));
#955=DIRECTION('',(0.0,0.0,1.0));
#956=DIRECTION('',(-1.0,0.0,0.0));
#957=AXIS2_PLACEMENT_3D('',#954,#955,#956);
#958=CIRCLE('',#957,4.0);
#959=EDGE_CURVE('',#953,#953,#958,.T.);
#960=ORIENTED_EDGE('',*,*,#959,.F.);
#961=EDGE_LOOP('',(#960));
#962=FACE_BOUND('',#961,.T.);
#963=ADVANCED_FACE('',(#951,#962),#940,.F.);
#964=CARTESIAN_POINT('',(-90.0,76.399999999999807,958.7819890360895));
#965=DIRECTION('',(0.0,0.0,-1.0));
#966=DIRECTION('',(-1.0,0.0,0.0));
#967=AXIS2_PLACEMENT_3D('',#964,#965,#966);
#968=CYLINDRICAL_SURFACE('',#967,4.0);
#969=CARTESIAN_POINT('',(-86.0,76.399999999999807,19.050000000000011));
#970=VERTEX_POINT('',#969);
#971=CARTESIAN_POINT('',(-90.0,76.399999999999807,19.050000000000011));
#972=DIRECTION('',(0.0,0.0,-1.0));
#973=DIRECTION('',(-1.0,0.0,0.0));
#974=AXIS2_PLACEMENT_3D('',#971,#972,#973);
#975=CIRCLE('',#974,4.0);
#976=EDGE_CURVE('',#970,#970,#975,.T.);
#977=ORIENTED_EDGE('',*,*,#976,.F.);
#978=EDGE_LOOP('',(#977));
#979=FACE_OUTER_BOUND('',#978,.T.);
#980=CARTESIAN_POINT('',(-94.0,76.399999999999807,0.0));
#981=VERTEX_POINT('',#980);
#982=CARTESIAN_POINT('',(-90.0,76.399999999999807,0.0));
#983=DIRECTION('',(0.0,0.0,1.0));
#984=DIRECTION('',(-1.0,0.0,0.0));
#985=AXIS2_PLACEMENT_3D('',#982,#983,#984);
#986=CIRCLE('',#985,4.0);
#987=EDGE_CURVE('',#981,#981,#986,.T.);
#988=ORIENTED_EDGE('',*,*,#987,.F.);
#989=EDGE_LOOP('',(#988));
#990=FACE_BOUND('',#989,.T.);
#991=ADVANCED_FACE('',(#979,#990),#968,.F.);
#992=CARTESIAN_POINT('',(-140.0,76.399999999999807,958.7819890360895));
#993=DIRECTION('',(0.0,0.0,-1.0));
#994=DIRECTION('',(-1.0,0.0,0.0));
#995=AXIS2_PLACEMENT_3D('',#992,#993,#994);
#996=CYLINDRICAL_SURFACE('',#995,4.0);
#997=CARTESIAN_POINT('',(-136.0,76.399999999999807,19.050000000000011));
#998=VERTEX_POINT('',#997);
#999=CARTESIAN_POINT('',(-140.0,76.399999999999807,19.050000000000011));
#1000=DIRECTION('',(0.0,0.0,-1.0));
#1001=DIRECTION('',(-1.0,0.0,0.0));
#1002=AXIS2_PLACEMENT_3D('',#999,#1000,#1001);
#1003=CIRCLE('',#1002,4.0);
#1004=EDGE_CURVE('',#998,#998,#1003,.T.);
#1005=ORIENTED_EDGE('',*,*,#1004,.F.);
#1006=EDGE_LOOP('',(#1005));
#1007=FACE_OUTER_BOUND('',#1006,.T.);
#1008=CARTESIAN_POINT('',(-144.0,76.399999999999807,0.0));
#1009=VERTEX_POINT('',#1008);
#1010=CARTESIAN_POINT('',(-140.0,76.399999999999807,0.0));
#1011=DIRECTION('',(0.0,0.0,1.0));
#1012=DIRECTION('',(-1.0,0.0,0.0));
#1013=AXIS2_PLACEMENT_3D('',#1010,#1011,#1012);
#1014=CIRCLE('',#1013,4.0);
#1015=EDGE_CURVE('',#1009,#1009,#1014,.T.);
#1016=ORIENTED_EDGE('',*,*,#1015,.F.);
#1017=EDGE_LOOP('',(#1016));
#1018=FACE_BOUND('',#1017,.T.);
#1019=ADVANCED_FACE('',(#1007,#1018),#996,.F.);
#1020=CARTESIAN_POINT('',(-190.0,76.399999999999821,958.7819890360895));
#1021=DIRECTION('',(0.0,0.0,-1.0));
#1022=DIRECTION('',(-1.0,0.0,0.0));
#1023=AXIS2_PLACEMENT_3D('',#1020,#1021,#1022);
#1024=CYLINDRICAL_SURFACE('',#1023,4.0);
#1025=CARTESIAN_POINT('',(-186.0,76.399999999999821,19.050000000000011));
#1026=VERTEX_POINT('',#1025);
#1027=CARTESIAN_POINT('',(-190.0,76.399999999999821,19.050000000000011));
#1028=DIRECTION('',(0.0,0.0,-1.0));
#1029=DIRECTION('',(-1.0,0.0,0.0));
#1030=AXIS2_PLACEMENT_3D('',#1027,#1028,#1029);
#1031=CIRCLE('',#1030,4.0);
#1032=EDGE_CURVE('',#1026,#1026,#1031,.T.);
#1033=ORIENTED_EDGE('',*,*,#1032,.F.);
#1034=EDGE_LOOP('',(#1033));
#1035=FACE_OUTER_BOUND('',#1034,.T.);
#1036=CARTESIAN_POINT('',(-194.0,76.399999999999821,0.0));
#1037=VERTEX_POINT('',#1036);
#1038=CARTESIAN_POINT('',(-190.0,76.399999999999821,0.0));
#1039=DIRECTION('',(0.0,0.0,1.0));
#1040=DIRECTION('',(-1.0,0.0,0.0));
#1041=AXIS2_PLACEMENT_3D('',#1038,#1039,#1040);
#1042=CIRCLE('',#1041,4.0);
#1043=EDGE_CURVE('',#1037,#1037,#1042,.T.);
#1044=ORIENTED_EDGE('',*,*,#1043,.F.);
#1045=EDGE_LOOP('',(#1044));
#1046=FACE_BOUND('',#1045,.T.);
#1047=ADVANCED_FACE('',(#1035,#1046),#1024,.F.);
#1048=CARTESIAN_POINT('',(-240.0,76.399999999999821,958.7819890360895));
#1049=DIRECTION('',(0.0,0.0,-1.0));
#1050=DIRECTION('',(-1.0,0.0,0.0));
#1051=AXIS2_PLACEMENT_3D('',#1048,#1049,#1050);
#1052=CYLINDRICAL_SURFACE('',#1051,4.0);
#1053=CARTESIAN_POINT('',(-236.0,76.399999999999821,19.050000000000011));
#1054=VERTEX_POINT('',#1053);
#1055=CARTESIAN_POINT('',(-240.0,76.399999999999821,19.050000000000011));
#1056=DIRECTION('',(0.0,0.0,-1.0));
#1057=DIRECTION('',(-1.0,0.0,0.0));
#1058=AXIS2_PLACEMENT_3D('',#1055,#1056,#1057);
#1059=CIRCLE('',#1058,4.0);
#1060=EDGE_CURVE('',#1054,#1054,#1059,.T.);
#1061=ORIENTED_EDGE('',*,*,#1060,.F.);
#1062=EDGE_LOOP('',(#1061));
#1063=FACE_OUTER_BOUND('',#1062,.T.);
#1064=CARTESIAN_POINT('',(-244.0,76.399999999999821,0.0));
#1065=VERTEX_POINT('',#1064);
#1066=CARTESIAN_POINT('',(-240.0,76.399999999999821,0.0));
#1067=DIRECTION('',(0.0,0.0,1.0));
#1068=DIRECTION('',(-1.0,0.0,0.0));
#1069=AXIS2_PLACEMENT_3D('',#1066,#1067,#1068);
#1070=CIRCLE('',#1069,4.0);
#1071=EDGE_CURVE('',#1065,#1065,#1070,.T.);
#1072=ORIENTED_EDGE('',*,*,#1071,.F.);
#1073=EDGE_LOOP('',(#1072));
#1074=FACE_BOUND('',#1073,.T.);
#1075=ADVANCED_FACE('',(#1063,#1074),#1052,.F.);
#1076=CARTESIAN_POINT('',(-290.0,76.399999999999821,958.7819890360895));
#1077=DIRECTION('',(0.0,0.0,-1.0));
#1078=DIRECTION('',(-1.0,0.0,0.0));
#1079=AXIS2_PLACEMENT_3D('',#1076,#1077,#1078);
#1080=CYLINDRICAL_SURFACE('',#1079,4.0);
#1081=CARTESIAN_POINT('',(-286.0,76.399999999999821,19.050000000000011));
#1082=VERTEX_POINT('',#1081);
#1083=CARTESIAN_POINT('',(-290.0,76.399999999999821,19.050000000000011));
#1084=DIRECTION('',(0.0,0.0,-1.0));
#1085=DIRECTION('',(-1.0,0.0,0.0));
#1086=AXIS2_PLACEMENT_3D('',#1083,#1084,#1085);
#1087=CIRCLE('',#1086,4.0);
#1088=EDGE_CURVE('',#1082,#1082,#1087,.T.);
#1089=ORIENTED_EDGE('',*,*,#1088,.F.);
#1090=EDGE_LOOP('',(#1089));
#1091=FACE_OUTER_BOUND('',#1090,.T.);
#1092=CARTESIAN_POINT('',(-294.0,76.399999999999821,0.0));
#1093=VERTEX_POINT('',#1092);
#1094=CARTESIAN_POINT('',(-290.0,76.399999999999821,0.0));
#1095=DIRECTION('',(0.0,0.0,1.0));
#1096=DIRECTION('',(-1.0,0.0,0.0));
#1097=AXIS2_PLACEMENT_3D('',#1094,#1095,#1096);
#1098=CIRCLE('',#1097,4.0);
#1099=EDGE_CURVE('',#1093,#1093,#1098,.T.);
#1100=ORIENTED_EDGE('',*,*,#1099,.F.);
#1101=EDGE_LOOP('',(#1100));
#1102=FACE_BOUND('',#1101,.T.);
#1103=ADVANCED_FACE('',(#1091,#1102),#1080,.F.);
#1104=CARTESIAN_POINT('',(-340.0,76.399999999999835,958.7819890360895));
#1105=DIRECTION('',(0.0,0.0,-1.0));
#1106=DIRECTION('',(-1.0,0.0,0.0));
#1107=AXIS2_PLACEMENT_3D('',#1104,#1105,#1106);
#1108=CYLINDRICAL_SURFACE('',#1107,4.0);
#1109=CARTESIAN_POINT('',(-336.0,76.399999999999835,19.050000000000011));
#1110=VERTEX_POINT('',#1109);
#1111=CARTESIAN_POINT('',(-340.0,76.399999999999835,19.050000000000011));
#1112=DIRECTION('',(0.0,0.0,-1.0));
#1113=DIRECTION('',(-1.0,0.0,0.0));
#1114=AXIS2_PLACEMENT_3D('',#1111,#1112,#1113);
#1115=CIRCLE('',#1114,4.0);
#1116=EDGE_CURVE('',#1110,#1110,#1115,.T.);
#1117=ORIENTED_EDGE('',*,*,#1116,.F.);
#1118=EDGE_LOOP('',(#1117));
#1119=FACE_OUTER_BOUND('',#1118,.T.);
#1120=CARTESIAN_POINT('',(-344.0,76.399999999999835,0.0));
#1121=VERTEX_POINT('',#1120);
#1122=CARTESIAN_POINT('',(-340.0,76.399999999999835,0.0));
#1123=DIRECTION('',(0.0,0.0,1.0));
#1124=DIRECTION('',(-1.0,0.0,0.0));
#1125=AXIS2_PLACEMENT_3D('',#1122,#1123,#1124);
#1126=CIRCLE('',#1125,4.0);
#1127=EDGE_CURVE('',#1121,#1121,#1126,.T.);
#1128=ORIENTED_EDGE('',*,*,#1127,.F.);
#1129=EDGE_LOOP('',(#1128));
#1130=FACE_BOUND('',#1129,.T.);
#1131=ADVANCED_FACE('',(#1119,#1130),#1108,.F.);
#1132=CARTESIAN_POINT('',(-390.0,76.399999999999835,958.7819890360895));
#1133=DIRECTION('',(0.0,0.0,-1.0));
#1134=DIRECTION('',(-1.0,0.0,0.0));
#1135=AXIS2_PLACEMENT_3D('',#1132,#1133,#1134);
#1136=CYLINDRICAL_SURFACE('',#1135,4.0);
#1137=CARTESIAN_POINT('',(-386.0,76.399999999999835,19.050000000000011));
#1138=VERTEX_POINT('',#1137);
#1139=CARTESIAN_POINT('',(-390.0,76.399999999999835,19.050000000000011));
#1140=DIRECTION('',(0.0,0.0,-1.0));
#1141=DIRECTION('',(-1.0,0.0,0.0));
#1142=AXIS2_PLACEMENT_3D('',#1139,#1140,#1141);
#1143=CIRCLE('',#1142,4.0);
#1144=EDGE_CURVE('',#1138,#1138,#1143,.T.);
#1145=ORIENTED_EDGE('',*,*,#1144,.F.);
#1146=EDGE_LOOP('',(#1145));
#1147=FACE_OUTER_BOUND('',#1146,.T.);
#1148=CARTESIAN_POINT('',(-394.0,76.399999999999835,0.0));
#1149=VERTEX_POINT('',#1148);
#1150=CARTESIAN_POINT('',(-390.0,76.399999999999835,0.0));
#1151=DIRECTION('',(0.0,0.0,1.0));
#1152=DIRECTION('',(-1.0,0.0,0.0));
#1153=AXIS2_PLACEMENT_3D('',#1150,#1151,#1152);
#1154=CIRCLE('',#1153,4.0);
#1155=EDGE_CURVE('',#1149,#1149,#1154,.T.);
#1156=ORIENTED_EDGE('',*,*,#1155,.F.);
#1157=EDGE_LOOP('',(#1156));
#1158=FACE_BOUND('',#1157,.T.);
#1159=ADVANCED_FACE('',(#1147,#1158),#1136,.F.);
#1160=CARTESIAN_POINT('',(-440.0,76.399999999999835,958.7819890360895));
#1161=DIRECTION('',(0.0,0.0,-1.0));
#1162=DIRECTION('',(-1.0,0.0,0.0));
#1163=AXIS2_PLACEMENT_3D('',#1160,#1161,#1162);
#1164=CYLINDRICAL_SURFACE('',#1163,4.0);
#1165=CARTESIAN_POINT('',(-436.0,76.399999999999835,19.050000000000011));
#1166=VERTEX_POINT('',#1165);
#1167=CARTESIAN_POINT('',(-440.0,76.399999999999835,19.050000000000011));
#1168=DIRECTION('',(0.0,0.0,-1.0));
#1169=DIRECTION('',(-1.0,0.0,0.0));
#1170=AXIS2_PLACEMENT_3D('',#1167,#1168,#1169);
#1171=CIRCLE('',#1170,4.0);
#1172=EDGE_CURVE('',#1166,#1166,#1171,.T.);
#1173=ORIENTED_EDGE('',*,*,#1172,.F.);
#1174=EDGE_LOOP('',(#1173));
#1175=FACE_OUTER_BOUND('',#1174,.T.);
#1176=CARTESIAN_POINT('',(-444.0,76.399999999999835,0.0));
#1177=VERTEX_POINT('',#1176);
#1178=CARTESIAN_POINT('',(-440.0,76.399999999999835,0.0));
#1179=DIRECTION('',(0.0,0.0,1.0));
#1180=DIRECTION('',(-1.0,0.0,0.0));
#1181=AXIS2_PLACEMENT_3D('',#1178,#1179,#1180);
#1182=CIRCLE('',#1181,4.0);
#1183=EDGE_CURVE('',#1177,#1177,#1182,.T.);
#1184=ORIENTED_EDGE('',*,*,#1183,.F.);
#1185=EDGE_LOOP('',(#1184));
#1186=FACE_BOUND('',#1185,.T.);
#1187=ADVANCED_FACE('',(#1175,#1186),#1164,.F.);
#1188=CARTESIAN_POINT('',(-490.0,76.399999999999835,958.7819890360895));
#1189=DIRECTION('',(0.0,0.0,-1.0));
#1190=DIRECTION('',(-1.0,0.0,0.0));
#1191=AXIS2_PLACEMENT_3D('',#1188,#1189,#1190);
#1192=CYLINDRICAL_SURFACE('',#1191,4.0);
#1193=CARTESIAN_POINT('',(-486.0,76.399999999999835,19.050000000000011));
#1194=VERTEX_POINT('',#1193);
#1195=CARTESIAN_POINT('',(-490.0,76.399999999999835,19.050000000000011));
#1196=DIRECTION('',(0.0,0.0,-1.0));
#1197=DIRECTION('',(-1.0,0.0,0.0));
#1198=AXIS2_PLACEMENT_3D('',#1195,#1196,#1197);
#1199=CIRCLE('',#1198,4.0);
#1200=EDGE_CURVE('',#1194,#1194,#1199,.T.);
#1201=ORIENTED_EDGE('',*,*,#1200,.F.);
#1202=EDGE_LOOP('',(#1201));
#1203=FACE_OUTER_BOUND('',#1202,.T.);
#1204=CARTESIAN_POINT('',(-494.0,76.399999999999835,0.0));
#1205=VERTEX_POINT('',#1204);
#1206=CARTESIAN_POINT('',(-490.0,76.399999999999835,0.0));
#1207=DIRECTION('',(0.0,0.0,1.0));
#1208=DIRECTION('',(-1.0,0.0,0.0));
#1209=AXIS2_PLACEMENT_3D('',#1206,#1207,#1208);
#1210=CIRCLE('',#1209,4.0);
#1211=EDGE_CURVE('',#1205,#1205,#1210,.T.);
#1212=ORIENTED_EDGE('',*,*,#1211,.F.);
#1213=EDGE_LOOP('',(#1212));
#1214=FACE_BOUND('',#1213,.T.);
#1215=ADVANCED_FACE('',(#1203,#1214),#1192,.F.);
#1216=CARTESIAN_POINT('',(-540.0,76.399999999999835,958.7819890360895));
#1217=DIRECTION('',(0.0,0.0,-1.0));
#1218=DIRECTION('',(-1.0,0.0,0.0));
#1219=AXIS2_PLACEMENT_3D('',#1216,#1217,#1218);
#1220=CYLINDRICAL_SURFACE('',#1219,4.0);
#1221=CARTESIAN_POINT('',(-536.0,76.399999999999835,19.050000000000011));
#1222=VERTEX_POINT('',#1221);
#1223=CARTESIAN_POINT('',(-540.0,76.399999999999835,19.050000000000011));
#1224=DIRECTION('',(0.0,0.0,-1.0));
#1225=DIRECTION('',(-1.0,0.0,0.0));
#1226=AXIS2_PLACEMENT_3D('',#1223,#1224,#1225);
#1227=CIRCLE('',#1226,4.0);
#1228=EDGE_CURVE('',#1222,#1222,#1227,.T.);
#1229=ORIENTED_EDGE('',*,*,#1228,.F.);
#1230=EDGE_LOOP('',(#1229));
#1231=FACE_OUTER_BOUND('',#1230,.T.);
#1232=CARTESIAN_POINT('',(-544.0,76.399999999999835,0.0));
#1233=VERTEX_POINT('',#1232);
#1234=CARTESIAN_POINT('',(-540.0,76.399999999999835,0.0));
#1235=DIRECTION('',(0.0,0.0,1.0));
#1236=DIRECTION('',(-1.0,0.0,0.0));
#1237=AXIS2_PLACEMENT_3D('',#1234,#1235,#1236);
#1238=CIRCLE('',#1237,4.0);
#1239=EDGE_CURVE('',#1233,#1233,#1238,.T.);
#1240=ORIENTED_EDGE('',*,*,#1239,.F.);
#1241=EDGE_LOOP('',(#1240));
#1242=FACE_BOUND('',#1241,.T.);
#1243=ADVANCED_FACE('',(#1231,#1242),#1220,.F.);
#1244=CARTESIAN_POINT('',(-590.0,76.399999999999835,958.7819890360895));
#1245=DIRECTION('',(0.0,0.0,-1.0));
#1246=DIRECTION('',(-1.0,0.0,0.0));
#1247=AXIS2_PLACEMENT_3D('',#1244,#1245,#1246);
#1248=CYLINDRICAL_SURFACE('',#1247,4.0);
#1249=CARTESIAN_POINT('',(-586.0,76.399999999999835,19.050000000000011));
#1250=VERTEX_POINT('',#1249);
#1251=CARTESIAN_POINT('',(-590.0,76.399999999999835,19.050000000000011));
#1252=DIRECTION('',(0.0,0.0,-1.0));
#1253=DIRECTION('',(-1.0,0.0,0.0));
#1254=AXIS2_PLACEMENT_3D('',#1251,#1252,#1253);
#1255=CIRCLE('',#1254,4.0);
#1256=EDGE_CURVE('',#1250,#1250,#1255,.T.);
#1257=ORIENTED_EDGE('',*,*,#1256,.F.);
#1258=EDGE_LOOP('',(#1257));
#1259=FACE_OUTER_BOUND('',#1258,.T.);
#1260=CARTESIAN_POINT('',(-594.0,76.399999999999835,0.0));
#1261=VERTEX_POINT('',#1260);
#1262=CARTESIAN_POINT('',(-590.0,76.399999999999835,0.0));
#1263=DIRECTION('',(0.0,0.0,1.0));
#1264=DIRECTION('',(-1.0,0.0,0.0));
#1265=AXIS2_PLACEMENT_3D('',#1262,#1263,#1264);
#1266=CIRCLE('',#1265,4.0);
#1267=EDGE_CURVE('',#1261,#1261,#1266,.T.);
#1268=ORIENTED_EDGE('',*,*,#1267,.F.);
#1269=EDGE_LOOP('',(#1268));
#1270=FACE_BOUND('',#1269,.T.);
#1271=ADVANCED_FACE('',(#1259,#1270),#1248,.F.);
#1272=CARTESIAN_POINT('',(-640.0,76.399999999999849,958.7819890360895));
#1273=DIRECTION('',(0.0,0.0,-1.0));
#1274=DIRECTION('',(-1.0,0.0,0.0));
#1275=AXIS2_PLACEMENT_3D('',#1272,#1273,#1274);
#1276=CYLINDRICAL_SURFACE('',#1275,4.0);
#1277=CARTESIAN_POINT('',(-636.0,76.399999999999849,19.050000000000011));
#1278=VERTEX_POINT('',#1277);
#1279=CARTESIAN_POINT('',(-640.0,76.399999999999849,19.050000000000011));
#1280=DIRECTION('',(0.0,0.0,-1.0));
#1281=DIRECTION('',(-1.0,0.0,0.0));
#1282=AXIS2_PLACEMENT_3D('',#1279,#1280,#1281);
#1283=CIRCLE('',#1282,4.0);
#1284=EDGE_CURVE('',#1278,#1278,#1283,.T.);
#1285=ORIENTED_EDGE('',*,*,#1284,.F.);
#1286=EDGE_LOOP('',(#1285));
#1287=FACE_OUTER_BOUND('',#1286,.T.);
#1288=CARTESIAN_POINT('',(-644.0,76.399999999999849,0.0));
#1289=VERTEX_POINT('',#1288);
#1290=CARTESIAN_POINT('',(-640.0,76.399999999999849,0.0));
#1291=DIRECTION('',(0.0,0.0,1.0));
#1292=DIRECTION('',(-1.0,0.0,0.0));
#1293=AXIS2_PLACEMENT_3D('',#1290,#1291,#1292);
#1294=CIRCLE('',#1293,4.0);
#1295=EDGE_CURVE('',#1289,#1289,#1294,.T.);
#1296=ORIENTED_EDGE('',*,*,#1295,.F.);
#1297=EDGE_LOOP('',(#1296));
#1298=FACE_BOUND('',#1297,.T.);
#1299=ADVANCED_FACE('',(#1287,#1298),#1276,.F.);
#1300=CARTESIAN_POINT('',(-690.0,76.399999999999849,958.7819890360895));
#1301=DIRECTION('',(0.0,0.0,-1.0));
#1302=DIRECTION('',(-1.0,0.0,0.0));
#1303=AXIS2_PLACEMENT_3D('',#1300,#1301,#1302);
#1304=CYLINDRICAL_SURFACE('',#1303,4.0);
#1305=CARTESIAN_POINT('',(-686.0,76.399999999999849,19.050000000000011));
#1306=VERTEX_POINT('',#1305);
#1307=CARTESIAN_POINT('',(-690.0,76.399999999999849,19.050000000000011));
#1308=DIRECTION('',(0.0,0.0,-1.0));
#1309=DIRECTION('',(-1.0,0.0,0.0));
#1310=AXIS2_PLACEMENT_3D('',#1307,#1308,#1309);
#1311=CIRCLE('',#1310,4.0);
#1312=EDGE_CURVE('',#1306,#1306,#1311,.T.);
#1313=ORIENTED_EDGE('',*,*,#1312,.F.);
#1314=EDGE_LOOP('',(#1313));
#1315=FACE_OUTER_BOUND('',#1314,.T.);
#1316=CARTESIAN_POINT('',(-694.0,76.399999999999849,0.0));
#1317=VERTEX_POINT('',#1316);
#1318=CARTESIAN_POINT('',(-690.0,76.399999999999849,0.0));
#1319=DIRECTION('',(0.0,0.0,1.0));
#1320=DIRECTION('',(-1.0,0.0,0.0));
#1321=AXIS2_PLACEMENT_3D('',#1318,#1319,#1320);
#1322=CIRCLE('',#1321,4.0);
#1323=EDGE_CURVE('',#1317,#1317,#1322,.T.);
#1324=ORIENTED_EDGE('',*,*,#1323,.F.);
#1325=EDGE_LOOP('',(#1324));
#1326=FACE_BOUND('',#1325,.T.);
#1327=ADVANCED_FACE('',(#1315,#1326),#1304,.F.);
#1328=CARTESIAN_POINT('',(-740.0,76.399999999999849,958.7819890360895));
#1329=DIRECTION('',(0.0,0.0,-1.0));
#1330=DIRECTION('',(-1.0,0.0,0.0));
#1331=AXIS2_PLACEMENT_3D('',#1328,#1329,#1330);
#1332=CYLINDRICAL_SURFACE('',#1331,4.0);
#1333=CARTESIAN_POINT('',(-736.0,76.399999999999849,19.050000000000011));
#1334=VERTEX_POINT('',#1333);
#1335=CARTESIAN_POINT('',(-740.0,76.399999999999849,19.050000000000011));
#1336=DIRECTION('',(0.0,0.0,-1.0));
#1337=DIRECTION('',(-1.0,0.0,0.0));
#1338=AXIS2_PLACEMENT_3D('',#1335,#1336,#1337);
#1339=CIRCLE('',#1338,4.0);
#1340=EDGE_CURVE('',#1334,#1334,#1339,.T.);
#1341=ORIENTED_EDGE('',*,*,#1340,.F.);
#1342=EDGE_LOOP('',(#1341));
#1343=FACE_OUTER_BOUND('',#1342,.T.);
#1344=CARTESIAN_POINT('',(-744.0,76.399999999999849,0.0));
#1345=VERTEX_POINT('',#1344);
#1346=CARTESIAN_POINT('',(-740.0,76.399999999999849,0.0));
#1347=DIRECTION('',(0.0,0.0,1.0));
#1348=DIRECTION('',(-1.0,0.0,0.0));
#1349=AXIS2_PLACEMENT_3D('',#1346,#1347,#1348);
#1350=CIRCLE('',#1349,4.0);
#1351=EDGE_CURVE('',#1345,#1345,#1350,.T.);
#1352=ORIENTED_EDGE('',*,*,#1351,.F.);
#1353=EDGE_LOOP('',(#1352));
#1354=FACE_BOUND('',#1353,.T.);
#1355=ADVANCED_FACE('',(#1343,#1354),#1332,.F.);
#1356=CARTESIAN_POINT('',(-790.0,76.399999999999849,958.7819890360895));
#1357=DIRECTION('',(0.0,0.0,-1.0));
#1358=DIRECTION('',(-1.0,0.0,0.0));
#1359=AXIS2_PLACEMENT_3D('',#1356,#1357,#1358);
#1360=CYLINDRICAL_SURFACE('',#1359,4.0);
#1361=CARTESIAN_POINT('',(-786.0,76.399999999999849,19.050000000000011));
#1362=VERTEX_POINT('',#1361);
#1363=CARTESIAN_POINT('',(-790.0,76.399999999999849,19.050000000000011));
#1364=DIRECTION('',(0.0,0.0,-1.0));
#1365=DIRECTION('',(-1.0,0.0,0.0));
#1366=AXIS2_PLACEMENT_3D('',#1363,#1364,#1365);
#1367=CIRCLE('',#1366,4.0);
#1368=EDGE_CURVE('',#1362,#1362,#1367,.T.);
#1369=ORIENTED_EDGE('',*,*,#1368,.F.);
#1370=EDGE_LOOP('',(#1369));
#1371=FACE_OUTER_BOUND('',#1370,.T.);
#1372=CARTESIAN_POINT('',(-794.0,76.399999999999849,0.0));
#1373=VERTEX_POINT('',#1372);
#1374=CARTESIAN_POINT('',(-790.0,76.399999999999849,0.0));
#1375=DIRECTION('',(0.0,0.0,1.0));
#1376=DIRECTION('',(-1.0,0.0,0.0));
#1377=AXIS2_PLACEMENT_3D('',#1374,#1375,#1376);
#1378=CIRCLE('',#1377,4.0);
#1379=EDGE_CURVE('',#1373,#1373,#1378,.T.);
#1380=ORIENTED_EDGE('',*,*,#1379,.F.);
#1381=EDGE_LOOP('',(#1380));
#1382=FACE_BOUND('',#1381,.T.);
#1383=ADVANCED_FACE('',(#1371,#1382),#1360,.F.);
#1384=CARTESIAN_POINT('',(-840.0,76.399999999999849,958.7819890360895));
#1385=DIRECTION('',(0.0,0.0,-1.0));
#1386=DIRECTION('',(-1.0,0.0,0.0));
#1387=AXIS2_PLACEMENT_3D('',#1384,#1385,#1386);
#1388=CYLINDRICAL_SURFACE('',#1387,4.0);
#1389=CARTESIAN_POINT('',(-836.0,76.399999999999849,19.050000000000011));
#1390=VERTEX_POINT('',#1389);
#1391=CARTESIAN_POINT('',(-840.0,76.399999999999849,19.050000000000011));
#1392=DIRECTION('',(0.0,0.0,-1.0));
#1393=DIRECTION('',(-1.0,0.0,0.0));
#1394=AXIS2_PLACEMENT_3D('',#1391,#1392,#1393);
#1395=CIRCLE('',#1394,4.0);
#1396=EDGE_CURVE('',#1390,#1390,#1395,.T.);
#1397=ORIENTED_EDGE('',*,*,#1396,.F.);
#1398=EDGE_LOOP('',(#1397));
#1399=FACE_OUTER_BOUND('',#1398,.T.);
#1400=CARTESIAN_POINT('',(-844.0,76.399999999999849,0.0));
#1401=VERTEX_POINT('',#1400);
#1402=CARTESIAN_POINT('',(-840.0,76.399999999999849,0.0));
#1403=DIRECTION('',(0.0,0.0,1.0));
#1404=DIRECTION('',(-1.0,0.0,0.0));
#1405=AXIS2_PLACEMENT_3D('',#1402,#1403,#1404);
#1406=CIRCLE('',#1405,4.0);
#1407=EDGE_CURVE('',#1401,#1401,#1406,.T.);
#1408=ORIENTED_EDGE('',*,*,#1407,.F.);
#1409=EDGE_LOOP('',(#1408));
#1410=FACE_BOUND('',#1409,.T.);
#1411=ADVANCED_FACE('',(#1399,#1410),#1388,.F.);
#1412=CARTESIAN_POINT('',(-825.0,112.9999999999999,0.0));
#1413=DIRECTION('',(0.707106781186549,0.0,-0.707106781186546));
#1414=DIRECTION('',(-0.707106781186546,0.0,-0.707106781186549));
#1415=AXIS2_PLACEMENT_3D('',#1412,#1413,#1414);
#1416=PLANE('',#1415);
#1417=CARTESIAN_POINT('',(-818.65000000000009,216.99999999999989,6.35));
#1418=VERTEX_POINT('',#1417);
#1419=CARTESIAN_POINT('',(-825.0,216.99999999999977,0.0));
#1420=VERTEX_POINT('',#1419);
#1421=CARTESIAN_POINT('',(-818.65000000000009,216.99999999999977,6.349999999999962));
#1422=DIRECTION('',(-0.707106781186544,0.0,-0.707106781186551));
#1423=VECTOR('',#1422,8.980256121069065);
#1424=LINE('',#1421,#1423);
#1425=EDGE_CURVE('',#1418,#1420,#1424,.T.);
#1426=ORIENTED_EDGE('',*,*,#1425,.F.);
#1427=CARTESIAN_POINT('',(-818.65000000000009,112.9999999999999,6.35));
#1428=VERTEX_POINT('',#1427);
#1429=CARTESIAN_POINT('',(-818.65000000000009,112.9999999999999,6.35));
#1430=DIRECTION('',(0.0,1.0,0.0));
#1431=VECTOR('',#1430,103.99999999999999);
#1432=LINE('',#1429,#1431);
#1433=EDGE_CURVE('',#1428,#1418,#1432,.T.);
#1434=ORIENTED_EDGE('',*,*,#1433,.F.);
#1435=CARTESIAN_POINT('',(-825.0,112.9999999999999,0.0));
#1436=VERTEX_POINT('',#1435);
#1437=CARTESIAN_POINT('',(-825.0,112.9999999999999,0.0));
#1438=DIRECTION('',(0.707106781186551,0.0,0.707106781186544));
#1439=VECTOR('',#1438,8.980256121069145);
#1440=LINE('',#1437,#1439);
#1441=EDGE_CURVE('',#1436,#1428,#1440,.T.);
#1442=ORIENTED_EDGE('',*,*,#1441,.F.);
#1443=CARTESIAN_POINT('',(-825.0,216.99999999999977,0.0));
#1444=DIRECTION('',(0.0,-1.0,0.0));
#1445=VECTOR('',#1444,103.99999999999987);
#1446=LINE('',#1443,#1445);
#1447=EDGE_CURVE('',#1420,#1436,#1446,.T.);
#1448=ORIENTED_EDGE('',*,*,#1447,.F.);
#1449=EDGE_LOOP('',(#1426,#1434,#1442,#1448));
#1450=FACE_OUTER_BOUND('',#1449,.T.);
#1451=ADVANCED_FACE('',(#1450),#1416,.T.);
#1452=CARTESIAN_POINT('',(-75.0,112.99999999999997,6.35));
#1453=DIRECTION('',(-0.707106781186539,-6.038817E-017,0.707106781186556));
#1454=DIRECTION('',(0.707106781186556,0.0,0.707106781186539));
#1455=AXIS2_PLACEMENT_3D('',#1452,#1453,#1454);
#1456=PLANE('',#1455);
#1457=CARTESIAN_POINT('',(-81.350000000000193,216.99999999999994,-3.219647E-014));
#1458=VERTEX_POINT('',#1457);
#1459=CARTESIAN_POINT('',(-75.000000000000071,217.0,6.35));
#1460=VERTEX_POINT('',#1459);
#1461=CARTESIAN_POINT('',(-81.350000000000222,217.0,-5.684342E-014));
#1462=DIRECTION('',(0.707106781186555,0.0,0.70710678118654));
#1463=VECTOR('',#1462,8.980256121069326);
#1464=LINE('',#1461,#1463);
#1465=EDGE_CURVE('',#1458,#1460,#1464,.T.);
#1466=ORIENTED_EDGE('',*,*,#1465,.F.);
#1467=CARTESIAN_POINT('',(-81.350000000000193,112.99999999999997,-3.219647E-014));
#1468=VERTEX_POINT('',#1467);
#1469=CARTESIAN_POINT('',(-81.350000000000193,112.99999999999997,-3.219647E-014));
#1470=DIRECTION('',(0.0,1.0,0.0));
#1471=VECTOR('',#1470,103.99999999999997);
#1472=LINE('',#1469,#1471);
#1473=EDGE_CURVE('',#1468,#1458,#1472,.T.);
#1474=ORIENTED_EDGE('',*,*,#1473,.F.);
#1475=CARTESIAN_POINT('',(-75.0,112.99999999999997,6.35));
#1476=VERTEX_POINT('',#1475);
#1477=CARTESIAN_POINT('',(-75.0,112.99999999999997,6.350000000000001));
#1478=DIRECTION('',(-0.707106781186557,0.0,-0.707106781186539));
#1479=VECTOR('',#1478,8.980256121069312);
#1480=LINE('',#1477,#1479);
#1481=EDGE_CURVE('',#1476,#1468,#1480,.T.);
#1482=ORIENTED_EDGE('',*,*,#1481,.F.);
#1483=CARTESIAN_POINT('',(-75.000000000000043,217.0,6.35));
#1484=DIRECTION('',(0.0,-1.0,0.0));
#1485=VECTOR('',#1484,104.00000000000003);
#1486=LINE('',#1483,#1485);
#1487=EDGE_CURVE('',#1460,#1476,#1486,.T.);
#1488=ORIENTED_EDGE('',*,*,#1487,.F.);
#1489=EDGE_LOOP('',(#1466,#1474,#1482,#1488));
#1490=FACE_OUTER_BOUND('',#1489,.T.);
#1491=ADVANCED_FACE('',(#1490),#1456,.T.);
#1492=CARTESIAN_POINT('',(-900.0,241.99999999999983,6.349999999999919));
#1493=DIRECTION('',(0.0,-1.0,0.0));
#1494=DIRECTION('',(0.0,0.0,-1.0));
#1495=AXIS2_PLACEMENT_3D('',#1492,#1493,#1494);
#1496=PLANE('',#1495);
#1497=CARTESIAN_POINT('',(0.0,241.99999999999983,6.349999999999919));
#1498=VERTEX_POINT('',#1497);
#1499=CARTESIAN_POINT('',(0.0,241.99999999999983,19.050000000000004));
#1500=VERTEX_POINT('',#1499);
#1501=CARTESIAN_POINT('',(0.0,241.99999999999983,6.34999999999992));
#1502=DIRECTION('',(0.0,0.0,1.0));
#1503=VECTOR('',#1502,12.700000000000085);
#1504=LINE('',#1501,#1503);
#1505=EDGE_CURVE('',#1498,#1500,#1504,.T.);
#1506=ORIENTED_EDGE('',*,*,#1505,.T.);
#1507=CARTESIAN_POINT('',(-900.0,241.99999999999983,19.050000000000004));
#1508=VERTEX_POINT('',#1507);
#1509=CARTESIAN_POINT('',(-900.0,241.99999999999983,19.050000000000004));
#1510=DIRECTION('',(1.0,0.0,0.0));
#1511=VECTOR('',#1510,900.0);
#1512=LINE('',#1509,#1511);
#1513=EDGE_CURVE('',#1508,#1500,#1512,.T.);
#1514=ORIENTED_EDGE('',*,*,#1513,.F.);
#1515=CARTESIAN_POINT('',(-900.0,241.99999999999983,6.349999999999919));
#1516=VERTEX_POINT('',#1515);
#1517=CARTESIAN_POINT('',(-900.0,241.99999999999983,6.34999999999992));
#1518=DIRECTION('',(0.0,0.0,1.0));
#1519=VECTOR('',#1518,12.700000000000085);
#1520=LINE('',#1517,#1519);
#1521=EDGE_CURVE('',#1516,#1508,#1520,.T.);
#1522=ORIENTED_EDGE('',*,*,#1521,.F.);
#1523=CARTESIAN_POINT('',(0.0,241.99999999999983,6.35));
#1524=DIRECTION('',(-1.0,0.0,0.0));
#1525=VECTOR('',#1524,900.0);
#1526=LINE('',#1523,#1525);
#1527=EDGE_CURVE('',#1498,#1516,#1526,.T.);
#1528=ORIENTED_EDGE('',*,*,#1527,.F.);
#1529=EDGE_LOOP('',(#1506,#1514,#1522,#1528));
#1530=FACE_OUTER_BOUND('',#1529,.T.);
#1531=ADVANCED_FACE('',(#1530),#1496,.T.);
#1532=CARTESIAN_POINT('',(-900.0,241.99999999999983,19.050000000000004));
#1533=DIRECTION('',(0.0,0.0,1.0));
#1534=DIRECTION('',(1.0,0.0,0.0));
#1535=AXIS2_PLACEMENT_3D('',#1532,#1533,#1534);
#1536=PLANE('',#1535);
#1537=CARTESIAN_POINT('',(0.0,329.99999999999977,19.050000000000001));
#1538=VERTEX_POINT('',#1537);
#1539=CARTESIAN_POINT('',(0.0,241.9999999999998,19.050000000000004));
#1540=DIRECTION('',(0.0,1.0,0.0));
#1541=VECTOR('',#1540,87.999999999999972);
#1542=LINE('',#1539,#1541);
#1543=EDGE_CURVE('',#1500,#1538,#1542,.T.);
#1544=ORIENTED_EDGE('',*,*,#1543,.T.);
#1545=CARTESIAN_POINT('',(-900.0,329.99999999999977,19.050000000000001));
#1546=VERTEX_POINT('',#1545);
#1547=CARTESIAN_POINT('',(-900.0,329.99999999999977,19.050000000000001));
#1548=DIRECTION('',(1.0,0.0,0.0));
#1549=VECTOR('',#1548,900.0);
#1550=LINE('',#1547,#1549);
#1551=EDGE_CURVE('',#1546,#1538,#1550,.T.);
#1552=ORIENTED_EDGE('',*,*,#1551,.F.);
#1553=CARTESIAN_POINT('',(-900.0,241.9999999999998,19.050000000000004));
#1554=DIRECTION('',(0.0,1.0,0.0));
#1555=VECTOR('',#1554,87.999999999999972);
#1556=LINE('',#1553,#1555);
#1557=EDGE_CURVE('',#1508,#1546,#1556,.T.);
#1558=ORIENTED_EDGE('',*,*,#1557,.F.);
#1559=ORIENTED_EDGE('',*,*,#1513,.T.);
#1560=EDGE_LOOP('',(#1544,#1552,#1558,#1559));
#1561=FACE_OUTER_BOUND('',#1560,.T.);
#1562=ORIENTED_EDGE('',*,*,#248,.T.);
#1563=EDGE_LOOP('',(#1562));
#1564=FACE_BOUND('',#1563,.T.);
#1565=ORIENTED_EDGE('',*,*,#276,.T.);
#1566=EDGE_LOOP('',(#1565));
#1567=FACE_BOUND('',#1566,.T.);
#1568=ORIENTED_EDGE('',*,*,#304,.T.);
#1569=EDGE_LOOP('',(#1568));
#1570=FACE_BOUND('',#1569,.T.);
#1571=ORIENTED_EDGE('',*,*,#332,.T.);
#1572=EDGE_LOOP('',(#1571));
#1573=FACE_BOUND('',#1572,.T.);
#1574=ORIENTED_EDGE('',*,*,#360,.T.);
#1575=EDGE_LOOP('',(#1574));
#1576=FACE_BOUND('',#1575,.T.);
#1577=ORIENTED_EDGE('',*,*,#388,.T.);
#1578=EDGE_LOOP('',(#1577));
#1579=FACE_BOUND('',#1578,.T.);
#1580=ORIENTED_EDGE('',*,*,#416,.T.);
#1581=EDGE_LOOP('',(#1580));
#1582=FACE_BOUND('',#1581,.T.);
#1583=ORIENTED_EDGE('',*,*,#444,.T.);
#1584=EDGE_LOOP('',(#1583));
#1585=FACE_BOUND('',#1584,.T.);
#1586=ORIENTED_EDGE('',*,*,#528,.T.);
#1587=EDGE_LOOP('',(#1586));
#1588=FACE_BOUND('',#1587,.T.);
#1589=ORIENTED_EDGE('',*,*,#556,.T.);
#1590=EDGE_LOOP('',(#1589));
#1591=FACE_BOUND('',#1590,.T.);
#1592=ORIENTED_EDGE('',*,*,#584,.T.);
#1593=EDGE_LOOP('',(#1592));
#1594=FACE_BOUND('',#1593,.T.);
#1595=ORIENTED_EDGE('',*,*,#612,.T.);
#1596=EDGE_LOOP('',(#1595));
#1597=FACE_BOUND('',#1596,.T.);
#1598=ORIENTED_EDGE('',*,*,#640,.T.);
#1599=EDGE_LOOP('',(#1598));
#1600=FACE_BOUND('',#1599,.T.);
#1601=ORIENTED_EDGE('',*,*,#668,.T.);
#1602=EDGE_LOOP('',(#1601));
#1603=FACE_BOUND('',#1602,.T.);
#1604=ORIENTED_EDGE('',*,*,#696,.T.);
#1605=EDGE_LOOP('',(#1604));
#1606=FACE_BOUND('',#1605,.T.);
#1607=ORIENTED_EDGE('',*,*,#724,.T.);
#1608=EDGE_LOOP('',(#1607));
#1609=FACE_BOUND('',#1608,.T.);
#1610=ORIENTED_EDGE('',*,*,#752,.T.);
#1611=EDGE_LOOP('',(#1610));
#1612=FACE_BOUND('',#1611,.T.);
#1613=ORIENTED_EDGE('',*,*,#780,.T.);
#1614=EDGE_LOOP('',(#1613));
#1615=FACE_BOUND('',#1614,.T.);
#1616=ORIENTED_EDGE('',*,*,#808,.T.);
#1617=EDGE_LOOP('',(#1616));
#1618=FACE_BOUND('',#1617,.T.);
#1619=ORIENTED_EDGE('',*,*,#836,.T.);
#1620=EDGE_LOOP('',(#1619));
#1621=FACE_BOUND('',#1620,.T.);
#1622=ORIENTED_EDGE('',*,*,#864,.T.);
#1623=EDGE_LOOP('',(#1622));
#1624=FACE_BOUND('',#1623,.T.);
#1625=ORIENTED_EDGE('',*,*,#892,.T.);
#1626=EDGE_LOOP('',(#1625));
#1627=FACE_BOUND('',#1626,.T.);
#1628=ORIENTED_EDGE('',*,*,#920,.T.);
#1629=EDGE_LOOP('',(#1628));
#1630=FACE_BOUND('',#1629,.T.);
#1631=ORIENTED_EDGE('',*,*,#948,.T.);
#1632=EDGE_LOOP('',(#1631));
#1633=FACE_BOUND('',#1632,.T.);
#1634=ADVANCED_FACE('',(#1561,#1564,#1567,#1570,#1573,#1576,#1579,#1582,#1585,#1588,#1591,#1594,#1597,#1600,#1603,#1606,#1609,#1612,#1615,#1618,#1621,#1624,#1627,#1630,#1633),#1536,.T.);
#1635=CARTESIAN_POINT('',(-900.0,-1.099121E-013,19.050000000000001));
#1636=DIRECTION('',(0.0,0.0,1.0));
#1637=DIRECTION('',(1.0,0.0,0.0));
#1638=AXIS2_PLACEMENT_3D('',#1635,#1636,#1637);
#1639=PLANE('',#1638);
#1640=CARTESIAN_POINT('',(0.0,-1.099121E-013,19.050000000000001));
#1641=VERTEX_POINT('',#1640);
#1642=CARTESIAN_POINT('',(0.0,87.999999999999815,19.049999999999983));
#1643=VERTEX_POINT('',#1642);
#1644=CARTESIAN_POINT('',(0.0,-1.099121E-013,19.050000000000001));
#1645=DIRECTION('',(0.0,1.0,0.0));
#1646=VECTOR('',#1645,87.999999999999915);
#1647=LINE('',#1644,#1646);
#1648=EDGE_CURVE('',#1641,#1643,#1647,.T.);
#1649=ORIENTED_EDGE('',*,*,#1648,.T.);
#1650=CARTESIAN_POINT('',(-900.0,87.999999999999815,19.049999999999983));
#1651=VERTEX_POINT('',#1650);
#1652=CARTESIAN_POINT('',(-900.0,87.999999999999815,19.049999999999983));
#1653=DIRECTION('',(1.0,0.0,0.0));
#1654=VECTOR('',#1653,900.0);
#1655=LINE('',#1652,#1654);
#1656=EDGE_CURVE('',#1651,#1643,#1655,.T.);
#1657=ORIENTED_EDGE('',*,*,#1656,.F.);
#1658=CARTESIAN_POINT('',(-900.0,-1.099121E-013,19.050000000000001));
#1659=VERTEX_POINT('',#1658);
#1660=CARTESIAN_POINT('',(-900.0,-1.099121E-013,19.050000000000001));
#1661=DIRECTION('',(0.0,1.0,0.0));
#1662=VECTOR('',#1661,87.999999999999915);
#1663=LINE('',#1660,#1662);
#1664=EDGE_CURVE('',#1659,#1651,#1663,.T.);
#1665=ORIENTED_EDGE('',*,*,#1664,.F.);
#1666=CARTESIAN_POINT('',(-900.0,-1.099121E-013,19.050000000000001));
#1667=DIRECTION('',(1.0,0.0,0.0));
#1668=VECTOR('',#1667,900.0);
#1669=LINE('',#1666,#1668);
#1670=EDGE_CURVE('',#1659,#1641,#1669,.T.);
#1671=ORIENTED_EDGE('',*,*,#1670,.T.);
#1672=EDGE_LOOP('',(#1649,#1657,#1665,#1671));
#1673=FACE_OUTER_BOUND('',#1672,.T.);
#1674=ORIENTED_EDGE('',*,*,#80,.T.);
#1675=EDGE_LOOP('',(#1674));
#1676=FACE_BOUND('',#1675,.T.);
#1677=ORIENTED_EDGE('',*,*,#108,.T.);
#1678=EDGE_LOOP('',(#1677));
#1679=FACE_BOUND('',#1678,.T.);
#1680=ORIENTED_EDGE('',*,*,#136,.T.);
#1681=EDGE_LOOP('',(#1680));
#1682=FACE_BOUND('',#1681,.T.);
#1683=ORIENTED_EDGE('',*,*,#164,.T.);
#1684=EDGE_LOOP('',(#1683));
#1685=FACE_BOUND('',#1684,.T.);
#1686=ORIENTED_EDGE('',*,*,#192,.T.);
#1687=EDGE_LOOP('',(#1686));
#1688=FACE_BOUND('',#1687,.T.);
#1689=ORIENTED_EDGE('',*,*,#220,.T.);
#1690=EDGE_LOOP('',(#1689));
#1691=FACE_BOUND('',#1690,.T.);
#1692=ORIENTED_EDGE('',*,*,#472,.T.);
#1693=EDGE_LOOP('',(#1692));
#1694=FACE_BOUND('',#1693,.T.);
#1695=ORIENTED_EDGE('',*,*,#500,.T.);
#1696=EDGE_LOOP('',(#1695));
#1697=FACE_BOUND('',#1696,.T.);
#1698=ORIENTED_EDGE('',*,*,#976,.T.);
#1699=EDGE_LOOP('',(#1698));
#1700=FACE_BOUND('',#1699,.T.);
#1701=ORIENTED_EDGE('',*,*,#1004,.T.);
#1702=EDGE_LOOP('',(#1701));
#1703=FACE_BOUND('',#1702,.T.);
#1704=ORIENTED_EDGE('',*,*,#1032,.T.);
#1705=EDGE_LOOP('',(#1704));
#1706=FACE_BOUND('',#1705,.T.);
#1707=ORIENTED_EDGE('',*,*,#1060,.T.);
#1708=EDGE_LOOP('',(#1707));
#1709=FACE_BOUND('',#1708,.T.);
#1710=ORIENTED_EDGE('',*,*,#1088,.T.);
#1711=EDGE_LOOP('',(#1710));
#1712=FACE_BOUND('',#1711,.T.);
#1713=ORIENTED_EDGE('',*,*,#1116,.T.);
#1714=EDGE_LOOP('',(#1713));
#1715=FACE_BOUND('',#1714,.T.);
#1716=ORIENTED_EDGE('',*,*,#1144,.T.);
#1717=EDGE_LOOP('',(#1716));
#1718=FACE_BOUND('',#1717,.T.);
#1719=ORIENTED_EDGE('',*,*,#1172,.T.);
#1720=EDGE_LOOP('',(#1719));
#1721=FACE_BOUND('',#1720,.T.);
#1722=ORIENTED_EDGE('',*,*,#1200,.T.);
#1723=EDGE_LOOP('',(#1722));
#1724=FACE_BOUND('',#1723,.T.);
#1725=ORIENTED_EDGE('',*,*,#1228,.T.);
#1726=EDGE_LOOP('',(#1725));
#1727=FACE_BOUND('',#1726,.T.);
#1728=ORIENTED_EDGE('',*,*,#1256,.T.);
#1729=EDGE_LOOP('',(#1728));
#1730=FACE_BOUND('',#1729,.T.);
#1731=ORIENTED_EDGE('',*,*,#1284,.T.);
#1732=EDGE_LOOP('',(#1731));
#1733=FACE_BOUND('',#1732,.T.);
#1734=ORIENTED_EDGE('',*,*,#1312,.T.);
#1735=EDGE_LOOP('',(#1734));
#1736=FACE_BOUND('',#1735,.T.);
#1737=ORIENTED_EDGE('',*,*,#1340,.T.);
#1738=EDGE_LOOP('',(#1737));
#1739=FACE_BOUND('',#1738,.T.);
#1740=ORIENTED_EDGE('',*,*,#1368,.T.);
#1741=EDGE_LOOP('',(#1740));
#1742=FACE_BOUND('',#1741,.T.);
#1743=ORIENTED_EDGE('',*,*,#1396,.T.);
#1744=EDGE_LOOP('',(#1743));
#1745=FACE_BOUND('',#1744,.T.);
#1746=ADVANCED_FACE('',(#1673,#1676,#1679,#1682,#1685,#1688,#1691,#1694,#1697,#1700,#1703,#1706,#1709,#1712,#1715,#1718,#1721,#1724,#1727,#1730,#1733,#1736,#1739,#1742,#1745),#1639,.T.);
#1747=CARTESIAN_POINT('',(-900.0,87.999999999999815,19.049999999999983));
#1748=DIRECTION('',(0.0,1.0,0.0));
#1749=DIRECTION('',(0.0,0.0,1.0));
#1750=AXIS2_PLACEMENT_3D('',#1747,#1748,#1749);
#1751=PLANE('',#1750);
#1752=CARTESIAN_POINT('',(0.0,87.999999999999815,6.349999999999973));
#1753=VERTEX_POINT('',#1752);
#1754=CARTESIAN_POINT('',(0.0,87.999999999999815,19.049999999999983));
#1755=DIRECTION('',(0.0,0.0,-1.0));
#1756=VECTOR('',#1755,12.70000000000001);
#1757=LINE('',#1754,#1756);
#1758=EDGE_CURVE('',#1643,#1753,#1757,.T.);
#1759=ORIENTED_EDGE('',*,*,#1758,.T.);
#1760=CARTESIAN_POINT('',(-900.0,87.999999999999815,6.349999999999973));
#1761=VERTEX_POINT('',#1760);
#1762=CARTESIAN_POINT('',(-900.0,87.999999999999829,6.35));
#1763=DIRECTION('',(1.0,0.0,0.0));
#1764=VECTOR('',#1763,900.0);
#1765=LINE('',#1762,#1764);
#1766=EDGE_CURVE('',#1761,#1753,#1765,.T.);
#1767=ORIENTED_EDGE('',*,*,#1766,.F.);
#1768=CARTESIAN_POINT('',(-900.0,87.999999999999815,19.049999999999983));
#1769=DIRECTION('',(0.0,0.0,-1.0));
#1770=VECTOR('',#1769,12.70000000000001);
#1771=LINE('',#1768,#1770);
#1772=EDGE_CURVE('',#1651,#1761,#1771,.T.);
#1773=ORIENTED_EDGE('',*,*,#1772,.F.);
#1774=ORIENTED_EDGE('',*,*,#1656,.T.);
#1775=EDGE_LOOP('',(#1759,#1767,#1773,#1774));
#1776=FACE_OUTER_BOUND('',#1775,.T.);
#1777=ADVANCED_FACE('',(#1776),#1751,.T.);
#1778=CARTESIAN_POINT('',(-449.99999999999994,164.99999999999994,6.35));
#1779=DIRECTION('',(0.0,0.0,1.0));
#1780=DIRECTION('',(1.0,0.0,0.0));
#1781=AXIS2_PLACEMENT_3D('',#1778,#1779,#1780);
#1782=PLANE('',#1781);
#1783=ORIENTED_EDGE('',*,*,#1527,.T.);
#1784=CARTESIAN_POINT('',(-900.0,87.999999999999801,6.35));
#1785=DIRECTION('',(0.0,1.0,0.0));
#1786=VECTOR('',#1785,154.0);
#1787=LINE('',#1784,#1786);
#1788=EDGE_CURVE('',#1761,#1516,#1787,.T.);
#1789=ORIENTED_EDGE('',*,*,#1788,.F.);
#1790=ORIENTED_EDGE('',*,*,#1766,.T.);
#1791=CARTESIAN_POINT('',(-7.409113E-014,241.99999999999983,6.35));
#1792=DIRECTION('',(0.0,-1.0,0.0));
#1793=VECTOR('',#1792,154.0);
#1794=LINE('',#1791,#1793);
#1795=EDGE_CURVE('',#1498,#1753,#1794,.T.);
#1796=ORIENTED_EDGE('',*,*,#1795,.F.);
#1797=EDGE_LOOP('',(#1783,#1789,#1790,#1796));
#1798=FACE_OUTER_BOUND('',#1797,.T.);
#1799=CARTESIAN_POINT('',(-818.65000000000009,216.9999999999998,6.35));
#1800=DIRECTION('',(1.0,0.0,0.0));
#1801=VECTOR('',#1800,743.64999999999998);
#1802=LINE('',#1799,#1801);
#1803=EDGE_CURVE('',#1418,#1460,#1802,.T.);
#1804=ORIENTED_EDGE('',*,*,#1803,.T.);
#1805=ORIENTED_EDGE('',*,*,#1487,.T.);
#1806=CARTESIAN_POINT('',(-74.999999999999972,112.99999999999997,6.35));
#1807=DIRECTION('',(-1.0,0.0,0.0));
#1808=VECTOR('',#1807,743.65000000000009);
#1809=LINE('',#1806,#1808);
#1810=EDGE_CURVE('',#1476,#1428,#1809,.T.);
#1811=ORIENTED_EDGE('',*,*,#1810,.T.);
#1812=ORIENTED_EDGE('',*,*,#1433,.T.);
#1813=EDGE_LOOP('',(#1804,#1805,#1811,#1812));
#1814=FACE_BOUND('',#1813,.T.);
#1815=ADVANCED_FACE('',(#1798,#1814),#1782,.T.);
#1816=CARTESIAN_POINT('',(-825.0,216.99999999999977,0.0));
#1817=DIRECTION('',(0.0,1.0,0.0));
#1818=DIRECTION('',(0.0,0.0,1.0));
#1819=AXIS2_PLACEMENT_3D('',#1816,#1817,#1818);
#1820=PLANE('',#1819);
#1821=ORIENTED_EDGE('',*,*,#1425,.T.);
#1822=CARTESIAN_POINT('',(-81.350000000000136,217.00000000000003,0.0));
#1823=DIRECTION('',(-1.0,0.0,0.0));
#1824=VECTOR('',#1823,743.64999999999986);
#1825=LINE('',#1822,#1824);
#1826=EDGE_CURVE('',#1458,#1420,#1825,.T.);
#1827=ORIENTED_EDGE('',*,*,#1826,.F.);
#1828=ORIENTED_EDGE('',*,*,#1465,.T.);
#1829=ORIENTED_EDGE('',*,*,#1803,.F.);
#1830=EDGE_LOOP('',(#1821,#1827,#1828,#1829));
#1831=FACE_OUTER_BOUND('',#1830,.T.);
#1832=ADVANCED_FACE('',(#1831),#1820,.F.);
#1833=CARTESIAN_POINT('',(-75.0,112.99999999999997,0.0));
#1834=DIRECTION('',(0.0,-1.0,0.0));
#1835=DIRECTION('',(0.0,0.0,-1.0));
#1836=AXIS2_PLACEMENT_3D('',#1833,#1834,#1835);
#1837=PLANE('',#1836);
#1838=ORIENTED_EDGE('',*,*,#1441,.T.);
#1839=ORIENTED_EDGE('',*,*,#1810,.F.);
#1840=ORIENTED_EDGE('',*,*,#1481,.T.);
#1841=CARTESIAN_POINT('',(-825.0,112.9999999999999,0.0));
#1842=DIRECTION('',(1.0,0.0,0.0));
#1843=VECTOR('',#1842,743.64999999999986);
#1844=LINE('',#1841,#1843);
#1845=EDGE_CURVE('',#1436,#1468,#1844,.T.);
#1846=ORIENTED_EDGE('',*,*,#1845,.F.);
#1847=EDGE_LOOP('',(#1838,#1839,#1840,#1846));
#1848=FACE_OUTER_BOUND('',#1847,.T.);
#1849=ADVANCED_FACE('',(#1848),#1837,.F.);
#1850=CARTESIAN_POINT('',(-900.0,-1.099121E-013,0.0));
#1851=DIRECTION('',(-1.0,0.0,0.0));
#1852=DIRECTION('',(0.0,0.0,1.0));
#1853=AXIS2_PLACEMENT_3D('',#1850,#1851,#1852);
#1854=PLANE('',#1853);
#1855=ORIENTED_EDGE('',*,*,#1788,.T.);
#1856=ORIENTED_EDGE('',*,*,#1521,.T.);
#1857=ORIENTED_EDGE('',*,*,#1557,.T.);
#1858=CARTESIAN_POINT('',(-900.0,329.99999999999977,0.0));
#1859=VERTEX_POINT('',#1858);
#1860=CARTESIAN_POINT('',(-900.0,329.99999999999977,0.0));
#1861=DIRECTION('',(0.0,0.0,1.0));
#1862=VECTOR('',#1861,19.050000000000001);
#1863=LINE('',#1860,#1862);
#1864=EDGE_CURVE('',#1859,#1546,#1863,.T.);
#1865=ORIENTED_EDGE('',*,*,#1864,.F.);
#1866=CARTESIAN_POINT('',(-900.0,-1.099121E-013,0.0));
#1867=VERTEX_POINT('',#1866);
#1868=CARTESIAN_POINT('',(-900.0,-1.099121E-013,0.0));
#1869=DIRECTION('',(0.0,1.0,0.0));
#1870=VECTOR('',#1869,329.99999999999994);
#1871=LINE('',#1868,#1870);
#1872=EDGE_CURVE('',#1867,#1859,#1871,.T.);
#1873=ORIENTED_EDGE('',*,*,#1872,.F.);
#1874=CARTESIAN_POINT('',(-900.0,-1.099121E-013,0.0));
#1875=DIRECTION('',(0.0,0.0,1.0));
#1876=VECTOR('',#1875,19.050000000000001);
#1877=LINE('',#1874,#1876);
#1878=EDGE_CURVE('',#1867,#1659,#1877,.T.);
#1879=ORIENTED_EDGE('',*,*,#1878,.T.);
#1880=ORIENTED_EDGE('',*,*,#1664,.T.);
#1881=ORIENTED_EDGE('',*,*,#1772,.T.);
#1882=EDGE_LOOP('',(#1855,#1856,#1857,#1865,#1873,#1879,#1880,#1881));
#1883=FACE_OUTER_BOUND('',#1882,.T.);
#1884=ADVANCED_FACE('',(#1883),#1854,.T.);
#1885=CARTESIAN_POINT('',(-900.0,329.99999999999977,0.0));
#1886=DIRECTION('',(0.0,1.0,0.0));
#1887=DIRECTION('',(0.0,0.0,1.0));
#1888=AXIS2_PLACEMENT_3D('',#1885,#1886,#1887);
#1889=PLANE('',#1888);
#1890=CARTESIAN_POINT('',(-1.010334E-013,330.0,0.0));
#1891=VERTEX_POINT('',#1890);
#1892=CARTESIAN_POINT('',(-1.010334E-013,330.0,0.0));
#1893=DIRECTION('',(0.0,0.0,1.0));
#1894=VECTOR('',#1893,19.050000000000001);
#1895=LINE('',#1892,#1894);
#1896=EDGE_CURVE('',#1891,#1538,#1895,.T.);
#1897=ORIENTED_EDGE('',*,*,#1896,.F.);
#1898=CARTESIAN_POINT('',(-900.0,329.99999999999977,0.0));
#1899=DIRECTION('',(1.0,0.0,0.0));
#1900=VECTOR('',#1899,899.99999999999989);
#1901=LINE('',#1898,#1900);
#1902=EDGE_CURVE('',#1859,#1891,#1901,.T.);
#1903=ORIENTED_EDGE('',*,*,#1902,.F.);
#1904=ORIENTED_EDGE('',*,*,#1864,.T.);
#1905=ORIENTED_EDGE('',*,*,#1551,.T.);
#1906=EDGE_LOOP('',(#1897,#1903,#1904,#1905));
#1907=FACE_OUTER_BOUND('',#1906,.T.);
#1908=ADVANCED_FACE('',(#1907),#1889,.T.);
#1909=CARTESIAN_POINT('',(-1.010334E-013,330.0,0.0));
#1910=DIRECTION('',(1.0,0.0,0.0));
#1911=DIRECTION('',(0.0,0.0,-1.0));
#1912=AXIS2_PLACEMENT_3D('',#1909,#1910,#1911);
#1913=PLANE('',#1912);
#1914=ORIENTED_EDGE('',*,*,#1795,.T.);
#1915=ORIENTED_EDGE('',*,*,#1758,.F.);
#1916=ORIENTED_EDGE('',*,*,#1648,.F.);
#1917=CARTESIAN_POINT('',(0.0,0.0,0.0));
#1918=VERTEX_POINT('',#1917);
#1919=CARTESIAN_POINT('',(0.0,0.0,0.0));
#1920=DIRECTION('',(0.0,0.0,1.0));
#1921=VECTOR('',#1920,19.050000000000001);
#1922=LINE('',#1919,#1921);
#1923=EDGE_CURVE('',#1918,#1641,#1922,.T.);
#1924=ORIENTED_EDGE('',*,*,#1923,.F.);
#1925=CARTESIAN_POINT('',(-1.010334E-013,330.0,0.0));
#1926=DIRECTION('',(0.0,-1.0,0.0));
#1927=VECTOR('',#1926,330.0);
#1928=LINE('',#1925,#1927);
#1929=EDGE_CURVE('',#1891,#1918,#1928,.T.);
#1930=ORIENTED_EDGE('',*,*,#1929,.F.);
#1931=ORIENTED_EDGE('',*,*,#1896,.T.);
#1932=ORIENTED_EDGE('',*,*,#1543,.F.);
#1933=ORIENTED_EDGE('',*,*,#1505,.F.);
#1934=EDGE_LOOP('',(#1914,#1915,#1916,#1924,#1930,#1931,#1932,#1933));
#1935=FACE_OUTER_BOUND('',#1934,.T.);
#1936=ADVANCED_FACE('',(#1935),#1913,.T.);
#1937=CARTESIAN_POINT('',(0.0,0.0,0.0));
#1938=DIRECTION('',(0.0,-1.0,0.0));
#1939=DIRECTION('',(0.0,0.0,-1.0));
#1940=AXIS2_PLACEMENT_3D('',#1937,#1938,#1939);
#1941=PLANE('',#1940);
#1942=ORIENTED_EDGE('',*,*,#1878,.F.);
#1943=CARTESIAN_POINT('',(0.0,0.0,0.0));
#1944=DIRECTION('',(-1.0,0.0,0.0));
#1945=VECTOR('',#1944,900.0);
#1946=LINE('',#1943,#1945);
#1947=EDGE_CURVE('',#1918,#1867,#1946,.T.);
#1948=ORIENTED_EDGE('',*,*,#1947,.F.);
#1949=ORIENTED_EDGE('',*,*,#1923,.T.);
#1950=ORIENTED_EDGE('',*,*,#1670,.F.);
#1951=EDGE_LOOP('',(#1942,#1948,#1949,#1950));
#1952=FACE_OUTER_BOUND('',#1951,.T.);
#1953=ADVANCED_FACE('',(#1952),#1941,.T.);
#1954=CARTESIAN_POINT('',(-450.0,164.99999999999994,0.0));
#1955=DIRECTION('',(0.0,0.0,1.0));
#1956=DIRECTION('',(1.0,0.0,0.0));
#1957=AXIS2_PLACEMENT_3D('',#1954,#1955,#1956);
#1958=PLANE('',#1957);
#1959=ORIENTED_EDGE('',*,*,#1947,.T.);
#1960=ORIENTED_EDGE('',*,*,#1872,.T.);
#1961=ORIENTED_EDGE('',*,*,#1902,.T.);
#1962=ORIENTED_EDGE('',*,*,#1929,.T.);
#1963=EDGE_LOOP('',(#1959,#1960,#1961,#1962));
#1964=FACE_OUTER_BOUND('',#1963,.T.);
#1965=ORIENTED_EDGE('',*,*,#91,.T.);
#1966=EDGE_LOOP('',(#1965));
#1967=FACE_BOUND('',#1966,.T.);
#1968=ORIENTED_EDGE('',*,*,#119,.T.);
#1969=EDGE_LOOP('',(#1968));
#1970=FACE_BOUND('',#1969,.T.);
#1971=ORIENTED_EDGE('',*,*,#147,.T.);
#1972=EDGE_LOOP('',(#1971));
#1973=FACE_BOUND('',#1972,.T.);
#1974=ORIENTED_EDGE('',*,*,#175,.T.);
#1975=EDGE_LOOP('',(#1974));
#1976=FACE_BOUND('',#1975,.T.);
#1977=ORIENTED_EDGE('',*,*,#203,.T.);
#1978=EDGE_LOOP('',(#1977));
#1979=FACE_BOUND('',#1978,.T.);
#1980=ORIENTED_EDGE('',*,*,#231,.T.);
#1981=EDGE_LOOP('',(#1980));
#1982=FACE_BOUND('',#1981,.T.);
#1983=ORIENTED_EDGE('',*,*,#259,.T.);
#1984=EDGE_LOOP('',(#1983));
#1985=FACE_BOUND('',#1984,.T.);
#1986=ORIENTED_EDGE('',*,*,#287,.T.);
#1987=EDGE_LOOP('',(#1986));
#1988=FACE_BOUND('',#1987,.T.);
#1989=ORIENTED_EDGE('',*,*,#315,.T.);
#1990=EDGE_LOOP('',(#1989));
#1991=FACE_BOUND('',#1990,.T.);
#1992=ORIENTED_EDGE('',*,*,#343,.T.);
#1993=EDGE_LOOP('',(#1992));
#1994=FACE_BOUND('',#1993,.T.);
#1995=ORIENTED_EDGE('',*,*,#371,.T.);
#1996=EDGE_LOOP('',(#1995));
#1997=FACE_BOUND('',#1996,.T.);
#1998=ORIENTED_EDGE('',*,*,#399,.T.);
#1999=EDGE_LOOP('',(#1998));
#2000=FACE_BOUND('',#1999,.T.);
#2001=ORIENTED_EDGE('',*,*,#427,.T.);
#2002=EDGE_LOOP('',(#2001));
#2003=FACE_BOUND('',#2002,.T.);
#2004=ORIENTED_EDGE('',*,*,#455,.T.);
#2005=EDGE_LOOP('',(#2004));
#2006=FACE_BOUND('',#2005,.T.);
#2007=ORIENTED_EDGE('',*,*,#483,.T.);
#2008=EDGE_LOOP('',(#2007));
#2009=FACE_BOUND('',#2008,.T.);
#2010=ORIENTED_EDGE('',*,*,#511,.T.);
#2011=EDGE_LOOP('',(#2010));
#2012=FACE_BOUND('',#2011,.T.);
#2013=ORIENTED_EDGE('',*,*,#539,.T.);
#2014=EDGE_LOOP('',(#2013));
#2015=FACE_BOUND('',#2014,.T.);
#2016=ORIENTED_EDGE('',*,*,#567,.T.);
#2017=EDGE_LOOP('',(#2016));
#2018=FACE_BOUND('',#2017,.T.);
#2019=ORIENTED_EDGE('',*,*,#595,.T.);
#2020=EDGE_LOOP('',(#2019));
#2021=FACE_BOUND('',#2020,.T.);
#2022=ORIENTED_EDGE('',*,*,#623,.T.);
#2023=EDGE_LOOP('',(#2022));
#2024=FACE_BOUND('',#2023,.T.);
#2025=ORIENTED_EDGE('',*,*,#651,.T.);
#2026=EDGE_LOOP('',(#2025));
#2027=FACE_BOUND('',#2026,.T.);
#2028=ORIENTED_EDGE('',*,*,#679,.T.);
#2029=EDGE_LOOP('',(#2028));
#2030=FACE_BOUND('',#2029,.T.);
#2031=ORIENTED_EDGE('',*,*,#707,.T.);
#2032=EDGE_LOOP('',(#2031));
#2033=FACE_BOUND('',#2032,.T.);
#2034=ORIENTED_EDGE('',*,*,#735,.T.);
#2035=EDGE_LOOP('',(#2034));
#2036=FACE_BOUND('',#2035,.T.);
#2037=ORIENTED_EDGE('',*,*,#763,.T.);
#2038=EDGE_LOOP('',(#2037));
#2039=FACE_BOUND('',#2038,.T.);
#2040=ORIENTED_EDGE('',*,*,#791,.T.);
#2041=EDGE_LOOP('',(#2040));
#2042=FACE_BOUND('',#2041,.T.);
#2043=ORIENTED_EDGE('',*,*,#819,.T.);
#2044=EDGE_LOOP('',(#2043));
#2045=FACE_BOUND('',#2044,.T.);
#2046=ORIENTED_EDGE('',*,*,#847,.T.);
#2047=EDGE_LOOP('',(#2046));
#2048=FACE_BOUND('',#2047,.T.);
#2049=ORIENTED_EDGE('',*,*,#875,.T.);
#2050=EDGE_LOOP('',(#2049));
#2051=FACE_BOUND('',#2050,.T.);
#2052=ORIENTED_EDGE('',*,*,#903,.T.);
#2053=EDGE_LOOP('',(#2052));
#2054=FACE_BOUND('',#2053,.T.);
#2055=ORIENTED_EDGE('',*,*,#931,.T.);
#2056=EDGE_LOOP('',(#2055));
#2057=FACE_BOUND('',#2056,.T.);
#2058=ORIENTED_EDGE('',*,*,#959,.T.);
#2059=EDGE_LOOP('',(#2058));
#2060=FACE_BOUND('',#2059,.T.);
#2061=ORIENTED_EDGE('',*,*,#987,.T.);
#2062=EDGE_LOOP('',(#2061));
#2063=FACE_BOUND('',#2062,.T.);
#2064=ORIENTED_EDGE('',*,*,#1015,.T.);
#2065=EDGE_LOOP('',(#2064));
#2066=FACE_BOUND('',#2065,.T.);
#2067=ORIENTED_EDGE('',*,*,#1043,.T.);
#2068=EDGE_LOOP('',(#2067));
#2069=FACE_BOUND('',#2068,.T.);
#2070=ORIENTED_EDGE('',*,*,#1071,.T.);
#2071=EDGE_LOOP('',(#2070));
#2072=FACE_BOUND('',#2071,.T.);
#2073=ORIENTED_EDGE('',*,*,#1099,.T.);
#2074=EDGE_LOOP('',(#2073));
#2075=FACE_BOUND('',#2074,.T.);
#2076=ORIENTED_EDGE('',*,*,#1127,.T.);
#2077=EDGE_LOOP('',(#2076));
#2078=FACE_BOUND('',#2077,.T.);
#2079=ORIENTED_EDGE('',*,*,#1155,.T.);
#2080=EDGE_LOOP('',(#2079));
#2081=FACE_BOUND('',#2080,.T.);
#2082=ORIENTED_EDGE('',*,*,#1183,.T.);
#2083=EDGE_LOOP('',(#2082));
#2084=FACE_BOUND('',#2083,.T.);
#2085=ORIENTED_EDGE('',*,*,#1211,.T.);
#2086=EDGE_LOOP('',(#2085));
#2087=FACE_BOUND('',#2086,.T.);
#2088=ORIENTED_EDGE('',*,*,#1239,.T.);
#2089=EDGE_LOOP('',(#2088));
#2090=FACE_BOUND('',#2089,.T.);
#2091=ORIENTED_EDGE('',*,*,#1267,.T.);
#2092=EDGE_LOOP('',(#2091));
#2093=FACE_BOUND('',#2092,.T.);
#2094=ORIENTED_EDGE('',*,*,#1295,.T.);
#2095=EDGE_LOOP('',(#2094));
#2096=FACE_BOUND('',#2095,.T.);
#2097=ORIENTED_EDGE('',*,*,#1323,.T.);
#2098=EDGE_LOOP('',(#2097));
#2099=FACE_BOUND('',#2098,.T.);
#2100=ORIENTED_EDGE('',*,*,#1351,.T.);
#2101=EDGE_LOOP('',(#2100));
#2102=FACE_BOUND('',#2101,.T.);
#2103=ORIENTED_EDGE('',*,*,#1379,.T.);
#2104=EDGE_LOOP('',(#2103));
#2105=FACE_BOUND('',#2104,.T.);
#2106=ORIENTED_EDGE('',*,*,#1407,.T.);
#2107=EDGE_LOOP('',(#2106));
#2108=FACE_BOUND('',#2107,.T.);
#2109=ORIENTED_EDGE('',*,*,#1447,.T.);
#2110=ORIENTED_EDGE('',*,*,#1845,.T.);
#2111=ORIENTED_EDGE('',*,*,#1473,.T.);
#2112=ORIENTED_EDGE('',*,*,#1826,.T.);
#2113=EDGE_LOOP('',(#2109,#2110,#2111,#2112));
#2114=FACE_BOUND('',#2113,.T.);
#2115=ADVANCED_FACE('',(#1964,#1967,#1970,#1973,#1976,#1979,#1982,#1985,#1988,#1991,#1994,#1997,#2000,#2003,#2006,#2009,#2012,#2015,#2018,#2021,#2024,#2027,#2030,#2033,#2036,#2039,#2042,#2045,#2048,#2051,#2054,#2057,#2060,#2063,#2066,#2069,#2072,#2075,#2078,#2081,#2084,#2087,#2090,#2093,#2096,#2099,#2102,#2105,#2108,#2114),#1958,.F.);
#2116=CLOSED_SHELL('',(#95,#123,#151,#179,#207,#235,#263,#291,#319,#347,#375,#403,#431,#459,#487,#515,#543,#571,#599,#627,#655,#683,#711,#739,#767,#795,#823,#851,#879,#907,#935,#963,#991,#1019,#1047,#1075,#1103,#1131,#1159,#1187,#1215,#1243,#1271,#1299,#1327,#1355,#1383,#1411,#1451,#1491,#1531,#1634,#1746,#1777,#1815,#1832,#1849,#1884,#1908,#1936,#1953,#2115));
#2117=MANIFOLD_SOLID_BREP('Solid1',#2116);
#2118=COLOUR_RGB('Default',0.75,0.75,0.75);
#2119=FILL_AREA_STYLE_COLOUR('Default',#2118);
#2120=FILL_AREA_STYLE('Default',(#2119));
#2121=SURFACE_STYLE_FILL_AREA(#2120);
#2122=SURFACE_SIDE_STYLE('Default',(#2121));
#2123=SURFACE_STYLE_USAGE(.BOTH.,#2122);
#2124=PRESENTATION_STYLE_ASSIGNMENT((#2123));
#2125=STYLED_ITEM('',(#2124),#2117);
#2126=MECHANICAL_DESIGN_GEOMETRIC_PRESENTATION_REPRESENTATION('',(#2125),#36);
#2127=ADVANCED_BREP_SHAPE_REPRESENTATION('ABSR',(#2117),#36);
#2128=SHAPE_REPRESENTATION_RELATIONSHIP('SRR','None',#2127,#41);
#2129=GROUP('Sketch1',$);
#2130=APPLIED_GROUP_ASSIGNMENT(#2129,(#2160,#2199,#2231,#2263,#2295,#2327,#2359,#2391));
#2136=(NAMED_UNIT(*)PLANE_ANGLE_UNIT()SI_UNIT($,.RADIAN.));
#2137=DIMENSIONAL_EXPONENTS(0.0,0.0,0.0,0.0,0.0,0.0,0.0);
#2138=PLANE_ANGLE_MEASURE_WITH_UNIT(PLANE_ANGLE_MEASURE(0.0174532925),#2136);
#2142=(CONVERSION_BASED_UNIT('DEGREE',#2138)NAMED_UNIT(#2137)PLANE_ANGLE_UNIT());
#2146=(NAMED_UNIT(*)SI_UNIT($,.STERADIAN.)SOLID_ANGLE_UNIT());
#2150=(LENGTH_UNIT()NAMED_UNIT(*)SI_UNIT(.MILLI.,.METRE.));
#2152=UNCERTAINTY_MEASURE_WITH_UNIT(LENGTH_MEASURE(0.000001),#2150,'DISTANCE_ACCURACY_VALUE','');
#2154=(GEOMETRIC_REPRESENTATION_CONTEXT(3)GLOBAL_UNCERTAINTY_ASSIGNED_CONTEXT((#2152))GLOBAL_UNIT_ASSIGNED_CONTEXT((#2142,#2146,#2150))REPRESENTATION_CONTEXT('','3D'));
#2155=CARTESIAN_POINT('',(-75.000000000000071,217.0,0.0));
#2156=DIRECTION('',(0.0,-1.0,0.0));
#2157=VECTOR('',#2156,104.00000000000003);
#2158=LINE('',#2155,#2157);
#2159=CARTESIAN_POINT('',(-75.0,112.99999999999997,0.0));
#2160=TRIMMED_CURVE('',#2158,(PARAMETER_VALUE(0.0),#2155),(PARAMETER_VALUE(1.0),#2159),.T.,.PARAMETER.);
#2161=COLOUR_RGB('',0.200000002980232,0.0,0.5);
#2162=DRAUGHTING_PRE_DEFINED_CURVE_FONT('continuous');
#2163=CURVE_STYLE('',#2162,POSITIVE_LENGTH_MEASURE(0.1),#2161);
#2164=PRESENTATION_STYLE_ASSIGNMENT((#2163));
#2165=STYLED_ITEM('',(#2164),#2160);
#2166=MECHANICAL_DESIGN_GEOMETRIC_PRESENTATION_REPRESENTATION('',(#2165),#2154);
#2167=GEOMETRIC_SET('GEOSET',(#2160,#2199,#2231,#2263,#2295,#2327,#2359,#2391));
#2168=GEOMETRICALLY_BOUNDED_SURFACE_SHAPE_REPRESENTATION('GBSSR',(#2167),#36);
#2169=SHAPE_REPRESENTATION_RELATIONSHIP('SRR','None',#2168,#41);
#2175=(NAMED_UNIT(*)PLANE_ANGLE_UNIT()SI_UNIT($,.RADIAN.));
#2176=DIMENSIONAL_EXPONENTS(0.0,0.0,0.0,0.0,0.0,0.0,0.0);
#2177=PLANE_ANGLE_MEASURE_WITH_UNIT(PLANE_ANGLE_MEASURE(0.0174532925),#2175);
#2181=(CONVERSION_BASED_UNIT('DEGREE',#2177)NAMED_UNIT(#2176)PLANE_ANGLE_UNIT());
#2185=(NAMED_UNIT(*)SI_UNIT($,.STERADIAN.)SOLID_ANGLE_UNIT());
#2189=(LENGTH_UNIT()NAMED_UNIT(*)SI_UNIT(.MILLI.,.METRE.));
#2191=UNCERTAINTY_MEASURE_WITH_UNIT(LENGTH_MEASURE(0.000001),#2189,'DISTANCE_ACCURACY_VALUE','');
#2193=(GEOMETRIC_REPRESENTATION_CONTEXT(3)GLOBAL_UNCERTAINTY_ASSIGNED_CONTEXT((#2191))GLOBAL_UNIT_ASSIGNED_CONTEXT((#2181,#2185,#2189))REPRESENTATION_CONTEXT('','3D'));
#2194=CARTESIAN_POINT('',(-825.0,216.99999999999977,0.0));
#2195=DIRECTION('',(1.0,0.0,0.0));
#2196=VECTOR('',#2195,750.0);
#2197=LINE('',#2194,#2196);
#2198=CARTESIAN_POINT('',(-75.0,217.0,0.0));
#2199=TRIMMED_CURVE('',#2197,(PARAMETER_VALUE(0.0),#2194),(PARAMETER_VALUE(1.0),#2198),.T.,.PARAMETER.);
#2200=STYLED_ITEM('',(#2164),#2199);
#2201=MECHANICAL_DESIGN_GEOMETRIC_PRESENTATION_REPRESENTATION('',(#2200),#2193);
#2207=(NAMED_UNIT(*)PLANE_ANGLE_UNIT()SI_UNIT($,.RADIAN.));
#2208=DIMENSIONAL_EXPONENTS(0.0,0.0,0.0,0.0,0.0,0.0,0.0);
#2209=PLANE_ANGLE_MEASURE_WITH_UNIT(PLANE_ANGLE_MEASURE(0.0174532925),#2207);
#2213=(CONVERSION_BASED_UNIT('DEGREE',#2209)NAMED_UNIT(#2208)PLANE_ANGLE_UNIT());
#2217=(NAMED_UNIT(*)SI_UNIT($,.STERADIAN.)SOLID_ANGLE_UNIT());
#2221=(LENGTH_UNIT()NAMED_UNIT(*)SI_UNIT(.MILLI.,.METRE.));
#2223=UNCERTAINTY_MEASURE_WITH_UNIT(LENGTH_MEASURE(0.000001),#2221,'DISTANCE_ACCURACY_VALUE','');
#2225=(GEOMETRIC_REPRESENTATION_CONTEXT(3)GLOBAL_UNCERTAINTY_ASSIGNED_CONTEXT((#2223))GLOBAL_UNIT_ASSIGNED_CONTEXT((#2213,#2217,#2221))REPRESENTATION_CONTEXT('','3D'));
#2226=CARTESIAN_POINT('',(-825.0,112.9999999999999,0.0));
#2227=DIRECTION('',(0.0,1.0,0.0));
#2228=VECTOR('',#2227,103.99999999999987);
#2229=LINE('',#2226,#2228);
#2230=CARTESIAN_POINT('',(-825.0,216.99999999999977,0.0));
#2231=TRIMMED_CURVE('',#2229,(PARAMETER_VALUE(0.0),#2226),(PARAMETER_VALUE(1.0),#2230),.T.,.PARAMETER.);
#2232=STYLED_ITEM('',(#2164),#2231);
#2233=MECHANICAL_DESIGN_GEOMETRIC_PRESENTATION_REPRESENTATION('',(#2232),#2225);
#2239=(NAMED_UNIT(*)PLANE_ANGLE_UNIT()SI_UNIT($,.RADIAN.));
#2240=DIMENSIONAL_EXPONENTS(0.0,0.0,0.0,0.0,0.0,0.0,0.0);
#2241=PLANE_ANGLE_MEASURE_WITH_UNIT(PLANE_ANGLE_MEASURE(0.0174532925),#2239);
#2245=(CONVERSION_BASED_UNIT('DEGREE',#2241)NAMED_UNIT(#2240)PLANE_ANGLE_UNIT());
#2249=(NAMED_UNIT(*)SI_UNIT($,.STERADIAN.)SOLID_ANGLE_UNIT());
#2253=(LENGTH_UNIT()NAMED_UNIT(*)SI_UNIT(.MILLI.,.METRE.));
#2255=UNCERTAINTY_MEASURE_WITH_UNIT(LENGTH_MEASURE(0.000001),#2253,'DISTANCE_ACCURACY_VALUE','');
#2257=(GEOMETRIC_REPRESENTATION_CONTEXT(3)GLOBAL_UNCERTAINTY_ASSIGNED_CONTEXT((#2255))GLOBAL_UNIT_ASSIGNED_CONTEXT((#2245,#2249,#2253))REPRESENTATION_CONTEXT('','3D'));
#2258=CARTESIAN_POINT('',(-75.0,112.99999999999997,0.0));
#2259=DIRECTION('',(-1.0,0.0,0.0));
#2260=VECTOR('',#2259,750.0);
#2261=LINE('',#2258,#2260);
#2262=CARTESIAN_POINT('',(-825.0,112.9999999999999,0.0));
#2263=TRIMMED_CURVE('',#2261,(PARAMETER_VALUE(0.0),#2258),(PARAMETER_VALUE(1.0),#2262),.T.,.PARAMETER.);
#2264=STYLED_ITEM('',(#2164),#2263);
#2265=MECHANICAL_DESIGN_GEOMETRIC_PRESENTATION_REPRESENTATION('',(#2264),#2257);
#2271=(NAMED_UNIT(*)PLANE_ANGLE_UNIT()SI_UNIT($,.RADIAN.));
#2272=DIMENSIONAL_EXPONENTS(0.0,0.0,0.0,0.0,0.0,0.0,0.0);
#2273=PLANE_ANGLE_MEASURE_WITH_UNIT(PLANE_ANGLE_MEASURE(0.0174532925),#2271);
#2277=(CONVERSION_BASED_UNIT('DEGREE',#2273)NAMED_UNIT(#2272)PLANE_ANGLE_UNIT());
#2281=(NAMED_UNIT(*)SI_UNIT($,.STERADIAN.)SOLID_ANGLE_UNIT());
#2285=(LENGTH_UNIT()NAMED_UNIT(*)SI_UNIT(.MILLI.,.METRE.));
#2287=UNCERTAINTY_MEASURE_WITH_UNIT(LENGTH_MEASURE(0.000001),#2285,'DISTANCE_ACCURACY_VALUE','');
#2289=(GEOMETRIC_REPRESENTATION_CONTEXT(3)GLOBAL_UNCERTAINTY_ASSIGNED_CONTEXT((#2287))GLOBAL_UNIT_ASSIGNED_CONTEXT((#2277,#2281,#2285))REPRESENTATION_CONTEXT('','3D'));
#2290=CARTESIAN_POINT('',(-1.010334E-013,330.0,0.0));
#2291=DIRECTION('',(0.0,-1.0,0.0));
#2292=VECTOR('',#2291,330.0);
#2293=LINE('',#2290,#2292);
#2294=CARTESIAN_POINT('',(0.0,0.0,0.0));
#2295=TRIMMED_CURVE('',#2293,(PARAMETER_VALUE(0.0),#2290),(PARAMETER_VALUE(1.0),#2294),.T.,.PARAMETER.);
#2296=STYLED_ITEM('',(#2164),#2295);
#2297=MECHANICAL_DESIGN_GEOMETRIC_PRESENTATION_REPRESENTATION('',(#2296),#2289);
#2303=(NAMED_UNIT(*)PLANE_ANGLE_UNIT()SI_UNIT($,.RADIAN.));
#2304=DIMENSIONAL_EXPONENTS(0.0,0.0,0.0,0.0,0.0,0.0,0.0);
#2305=PLANE_ANGLE_MEASURE_WITH_UNIT(PLANE_ANGLE_MEASURE(0.0174532925),#2303);
#2309=(CONVERSION_BASED_UNIT('DEGREE',#2305)NAMED_UNIT(#2304)PLANE_ANGLE_UNIT());
#2313=(NAMED_UNIT(*)SI_UNIT($,.STERADIAN.)SOLID_ANGLE_UNIT());
#2317=(LENGTH_UNIT()NAMED_UNIT(*)SI_UNIT(.MILLI.,.METRE.));
#2319=UNCERTAINTY_MEASURE_WITH_UNIT(LENGTH_MEASURE(0.000001),#2317,'DISTANCE_ACCURACY_VALUE','');
#2321=(GEOMETRIC_REPRESENTATION_CONTEXT(3)GLOBAL_UNCERTAINTY_ASSIGNED_CONTEXT((#2319))GLOBAL_UNIT_ASSIGNED_CONTEXT((#2309,#2313,#2317))REPRESENTATION_CONTEXT('','3D'));
#2322=CARTESIAN_POINT('',(-900.0,329.99999999999977,0.0));
#2323=DIRECTION('',(1.0,0.0,0.0));
#2324=VECTOR('',#2323,899.99999999999989);
#2325=LINE('',#2322,#2324);
#2326=CARTESIAN_POINT('',(-1.136868E-013,330.0,0.0));
#2327=TRIMMED_CURVE('',#2325,(PARAMETER_VALUE(0.0),#2322),(PARAMETER_VALUE(1.0),#2326),.T.,.PARAMETER.);
#2328=STYLED_ITEM('',(#2164),#2327);
#2329=MECHANICAL_DESIGN_GEOMETRIC_PRESENTATION_REPRESENTATION('',(#2328),#2321);
#2335=(NAMED_UNIT(*)PLANE_ANGLE_UNIT()SI_UNIT($,.RADIAN.));
#2336=DIMENSIONAL_EXPONENTS(0.0,0.0,0.0,0.0,0.0,0.0,0.0);
#2337=PLANE_ANGLE_MEASURE_WITH_UNIT(PLANE_ANGLE_MEASURE(0.0174532925),#2335);
#2341=(CONVERSION_BASED_UNIT('DEGREE',#2337)NAMED_UNIT(#2336)PLANE_ANGLE_UNIT());
#2345=(NAMED_UNIT(*)SI_UNIT($,.STERADIAN.)SOLID_ANGLE_UNIT());
#2349=(LENGTH_UNIT()NAMED_UNIT(*)SI_UNIT(.MILLI.,.METRE.));
#2351=UNCERTAINTY_MEASURE_WITH_UNIT(LENGTH_MEASURE(0.000001),#2349,'DISTANCE_ACCURACY_VALUE','');
#2353=(GEOMETRIC_REPRESENTATION_CONTEXT(3)GLOBAL_UNCERTAINTY_ASSIGNED_CONTEXT((#2351))GLOBAL_UNIT_ASSIGNED_CONTEXT((#2341,#2345,#2349))REPRESENTATION_CONTEXT('','3D'));
#2354=CARTESIAN_POINT('',(-900.0,-1.099121E-013,0.0));
#2355=DIRECTION('',(0.0,1.0,0.0));
#2356=VECTOR('',#2355,329.99999999999994);
#2357=LINE('',#2354,#2356);
#2358=CARTESIAN_POINT('',(-900.0,329.99999999999983,0.0));
#2359=TRIMMED_CURVE('',#2357,(PARAMETER_VALUE(0.0),#2354),(PARAMETER_VALUE(1.0),#2358),.T.,.PARAMETER.);
#2360=STYLED_ITEM('',(#2164),#2359);
#2361=MECHANICAL_DESIGN_GEOMETRIC_PRESENTATION_REPRESENTATION('',(#2360),#2353);
#2367=(NAMED_UNIT(*)PLANE_ANGLE_UNIT()SI_UNIT($,.RADIAN.));
#2368=DIMENSIONAL_EXPONENTS(0.0,0.0,0.0,0.0,0.0,0.0,0.0);
#2369=PLANE_ANGLE_MEASURE_WITH_UNIT(PLANE_ANGLE_MEASURE(0.0174532925),#2367);
#2373=(CONVERSION_BASED_UNIT('DEGREE',#2369)NAMED_UNIT(#2368)PLANE_ANGLE_UNIT());
#2377=(NAMED_UNIT(*)SI_UNIT($,.STERADIAN.)SOLID_ANGLE_UNIT());
#2381=(LENGTH_UNIT()NAMED_UNIT(*)SI_UNIT(.MILLI.,.METRE.));
#2383=UNCERTAINTY_MEASURE_WITH_UNIT(LENGTH_MEASURE(0.000001),#2381,'DISTANCE_ACCURACY_VALUE','');
#2385=(GEOMETRIC_REPRESENTATION_CONTEXT(3)GLOBAL_UNCERTAINTY_ASSIGNED_CONTEXT((#2383))GLOBAL_UNIT_ASSIGNED_CONTEXT((#2373,#2377,#2381))REPRESENTATION_CONTEXT('','3D'));
#2386=CARTESIAN_POINT('',(0.0,0.0,0.0));
#2387=DIRECTION('',(-1.0,0.0,0.0));
#2388=VECTOR('',#2387,900.0);
#2389=LINE('',#2386,#2388);
#2390=CARTESIAN_POINT('',(-900.0,-1.099121E-013,0.0));
#2391=TRIMMED_CURVE('',#2389,(PARAMETER_VALUE(0.0),#2386),(PARAMETER_VALUE(1.0),#2390),.T.,.PARAMETER.);
#2392=STYLED_ITEM('',(#2164),#2391);
#2393=MECHANICAL_DESIGN_GEOMETRIC_PRESENTATION_REPRESENTATION('',(#2392),#2385);
ENDSEC;
END-ISO-10303-21;
