ISO-10303-21;
HEADER;
/****************************************************************
 * Generated by software with PDElib inside                    *
 * PDElib Version v51a, created Wed 11/30/2011                  *
 * ITI Transcendata (http://www.transcendata.com/)              *
 ****************************************************************/
FILE_DESCRIPTION((''),'2;1');
FILE_NAME('J:\\converted\\vane_sliding_plate_cap.stp','2014-01-21T13:44:08',('univ2521'),(''),'Autodesk Inventor 2013','Autodesk Inventor 2013','');
FILE_SCHEMA(('AUTOMOTIVE_DESIGN { 1 0 10303 214 1 1 1 1 }'));
ENDSEC;
DATA;
#5=APPLICATION_CONTEXT('automotive design');
#6=APPLICATION_PROTOCOL_DEFINITION('International Standard','automotive_design',2001,#5);
#7=PRODUCT_CONTEXT('',#5,'mechanical');
#8=PRODUCT('vane_sliding_plate_cap','vane_sliding_plate_cap',$,(#7));
#9=PRODUCT_RELATED_PRODUCT_CATEGORY('part',$,(#8));
#10=PRODUCT_DEFINITION_FORMATION('',$,#8);
#11=PRODUCT_DEFINITION_CONTEXT('part definition',#5,'design');
#12=PRODUCT_DEFINITION('',$,#10,#11);
#18=(NAMED_UNIT(*)PLANE_ANGLE_UNIT()SI_UNIT($,.RADIAN.));
#19=DIMENSIONAL_EXPONENTS(0.0,0.0,0.0,0.0,0.0,0.0,0.0);
#20=PLANE_ANGLE_MEASURE_WITH_UNIT(PLANE_ANGLE_MEASURE(0.0174532925),#18);
#24=(CONVERSION_BASED_UNIT('DEGREE',#20)NAMED_UNIT(#19)PLANE_ANGLE_UNIT());
#28=(NAMED_UNIT(*)SI_UNIT($,.STERADIAN.)SOLID_ANGLE_UNIT());
#32=(LENGTH_UNIT()NAMED_UNIT(*)SI_UNIT(.MILLI.,.METRE.));
#34=UNCERTAINTY_MEASURE_WITH_UNIT(LENGTH_MEASURE(0.01),#32,'DISTANCE_ACCURACY_VALUE','');
#36=(GEOMETRIC_REPRESENTATION_CONTEXT(3)GLOBAL_UNCERTAINTY_ASSIGNED_CONTEXT((#34))GLOBAL_UNIT_ASSIGNED_CONTEXT((#24,#28,#32))REPRESENTATION_CONTEXT('None','None'));
#37=AXIS2_PLACEMENT_3D('',#38,#39,#40);
#38=CARTESIAN_POINT('',(0.0,0.0,0.0));
#39=DIRECTION('',(0.0,0.0,1.0));
#40=DIRECTION('',(1.0,0.0,0.0));
#41=SHAPE_REPRESENTATION('',(#37),#36);
#42=PRODUCT_DEFINITION_SHAPE('','',#12);
#43=SHAPE_DEFINITION_REPRESENTATION(#42,#41);
#49=(NAMED_UNIT(*)PLANE_ANGLE_UNIT()SI_UNIT($,.RADIAN.));
#50=DIMENSIONAL_EXPONENTS(0.0,0.0,0.0,0.0,0.0,0.0,0.0);
#51=PLANE_ANGLE_MEASURE_WITH_UNIT(PLANE_ANGLE_MEASURE(0.0174532925),#49);
#55=(CONVERSION_BASED_UNIT('DEGREE',#51)NAMED_UNIT(#50)PLANE_ANGLE_UNIT());
#59=(NAMED_UNIT(*)SI_UNIT($,.STERADIAN.)SOLID_ANGLE_UNIT());
#63=(LENGTH_UNIT()NAMED_UNIT(*)SI_UNIT(.MILLI.,.METRE.));
#65=UNCERTAINTY_MEASURE_WITH_UNIT(LENGTH_MEASURE(0.000001),#63,'DISTANCE_ACCURACY_VALUE','');
#67=(GEOMETRIC_REPRESENTATION_CONTEXT(3)GLOBAL_UNCERTAINTY_ASSIGNED_CONTEXT((#65))GLOBAL_UNIT_ASSIGNED_CONTEXT((#55,#59,#63))REPRESENTATION_CONTEXT('','3D'));
#68=CARTESIAN_POINT('',(-9.000000000000005,12.500000000000002,47.549973711874962));
#69=DIRECTION('',(0.0,0.0,-1.0));
#70=DIRECTION('',(-1.0,0.0,0.0));
#71=AXIS2_PLACEMENT_3D('',#68,#69,#70);
#72=CYLINDRICAL_SURFACE('',#71,3.0);
#73=CARTESIAN_POINT('',(-6.000000000000004,12.500000000000002,5.999999999999996));
#74=VERTEX_POINT('',#73);
#75=CARTESIAN_POINT('',(-9.000000000000005,12.500000000000002,5.999999999999996));
#76=DIRECTION('',(0.0,0.0,-1.0));
#77=DIRECTION('',(-1.0,0.0,0.0));
#78=AXIS2_PLACEMENT_3D('',#75,#76,#77);
#79=CIRCLE('',#78,3.0);
#80=EDGE_CURVE('',#74,#74,#79,.T.);
#81=ORIENTED_EDGE('',*,*,#80,.F.);
#82=EDGE_LOOP('',(#81));
#83=FACE_OUTER_BOUND('',#82,.T.);
#84=CARTESIAN_POINT('',(-12.000000000000007,12.500000000000002,0.0));
#85=VERTEX_POINT('',#84);
#86=CARTESIAN_POINT('',(-9.000000000000005,12.500000000000002,0.0));
#87=DIRECTION('',(0.0,0.0,1.0));
#88=DIRECTION('',(-1.0,0.0,0.0));
#89=AXIS2_PLACEMENT_3D('',#86,#87,#88);
#90=CIRCLE('',#89,3.0);
#91=EDGE_CURVE('',#85,#85,#90,.T.);
#92=ORIENTED_EDGE('',*,*,#91,.F.);
#93=EDGE_LOOP('',(#92));
#94=FACE_BOUND('',#93,.T.);
#95=ADVANCED_FACE('',(#83,#94),#72,.F.);
#96=CARTESIAN_POINT('',(-31.0,12.499999999999996,47.549973711874962));
#97=DIRECTION('',(0.0,0.0,-1.0));
#98=DIRECTION('',(-1.0,0.0,0.0));
#99=AXIS2_PLACEMENT_3D('',#96,#97,#98);
#100=CYLINDRICAL_SURFACE('',#99,3.0);
#101=CARTESIAN_POINT('',(-28.0,12.499999999999996,5.999999999999996));
#102=VERTEX_POINT('',#101);
#103=CARTESIAN_POINT('',(-31.0,12.499999999999996,5.999999999999996));
#104=DIRECTION('',(0.0,0.0,-1.0));
#105=DIRECTION('',(-1.0,0.0,0.0));
#106=AXIS2_PLACEMENT_3D('',#103,#104,#105);
#107=CIRCLE('',#106,3.0);
#108=EDGE_CURVE('',#102,#102,#107,.T.);
#109=ORIENTED_EDGE('',*,*,#108,.F.);
#110=EDGE_LOOP('',(#109));
#111=FACE_OUTER_BOUND('',#110,.T.);
#112=CARTESIAN_POINT('',(-34.0,12.499999999999996,0.0));
#113=VERTEX_POINT('',#112);
#114=CARTESIAN_POINT('',(-31.0,12.499999999999996,0.0));
#115=DIRECTION('',(0.0,0.0,1.0));
#116=DIRECTION('',(-1.0,0.0,0.0));
#117=AXIS2_PLACEMENT_3D('',#114,#115,#116);
#118=CIRCLE('',#117,3.0);
#119=EDGE_CURVE('',#113,#113,#118,.T.);
#120=ORIENTED_EDGE('',*,*,#119,.F.);
#121=EDGE_LOOP('',(#120));
#122=FACE_BOUND('',#121,.T.);
#123=ADVANCED_FACE('',(#111,#122),#100,.F.);
#124=CARTESIAN_POINT('',(-20.0,-2.449294E-015,0.0));
#125=DIRECTION('',(-1.184238E-016,1.0,0.0));
#126=DIRECTION('',(-1.0,0.0,0.0));
#127=AXIS2_PLACEMENT_3D('',#124,#125,#126);
#128=CYLINDRICAL_SURFACE('',#127,2.0);
#129=CARTESIAN_POINT('',(-18.0,-2.204364E-015,2.449294E-016));
#130=VERTEX_POINT('',#129);
#131=CARTESIAN_POINT('',(-18.000000000000004,25.0,0.0));
#132=VERTEX_POINT('',#131);
#133=CARTESIAN_POINT('',(-18.0,-2.204364E-015,0.0));
#134=DIRECTION('',(0.0,1.0,0.0));
#135=VECTOR('',#134,25.0);
#136=LINE('',#133,#135);
#137=EDGE_CURVE('',#130,#132,#136,.T.);
#138=ORIENTED_EDGE('',*,*,#137,.F.);
#139=CARTESIAN_POINT('',(-22.0,-2.694223E-015,0.0));
#140=VERTEX_POINT('',#139);
#141=CARTESIAN_POINT('',(-20.0,-2.368476E-015,0.0));
#142=DIRECTION('',(0.0,1.0,0.0));
#143=DIRECTION('',(-1.0,0.0,0.0));
#144=AXIS2_PLACEMENT_3D('',#141,#142,#143);
#145=CIRCLE('',#144,2.0);
#146=EDGE_CURVE('',#140,#130,#145,.T.);
#147=ORIENTED_EDGE('',*,*,#146,.F.);
#148=CARTESIAN_POINT('',(-22.000000000000007,25.0,0.0));
#149=VERTEX_POINT('',#148);
#150=CARTESIAN_POINT('',(-22.000000000000004,25.0,0.0));
#151=DIRECTION('',(0.0,-1.0,0.0));
#152=VECTOR('',#151,25.000000000000004);
#153=LINE('',#150,#152);
#154=EDGE_CURVE('',#149,#140,#153,.T.);
#155=ORIENTED_EDGE('',*,*,#154,.F.);
#156=CARTESIAN_POINT('',(-20.000000000000004,25.0,0.0));
#157=DIRECTION('',(0.0,-1.0,0.0));
#158=DIRECTION('',(-1.0,0.0,0.0));
#159=AXIS2_PLACEMENT_3D('',#156,#157,#158);
#160=CIRCLE('',#159,2.0);
#161=EDGE_CURVE('',#132,#149,#160,.T.);
#162=ORIENTED_EDGE('',*,*,#161,.F.);
#163=EDGE_LOOP('',(#138,#147,#155,#162));
#164=FACE_OUTER_BOUND('',#163,.T.);
#165=ADVANCED_FACE('',(#164),#128,.F.);
#166=CARTESIAN_POINT('',(-40.0,24.999999999999996,0.0));
#167=DIRECTION('',(0.0,1.0,0.0));
#168=DIRECTION('',(0.0,0.0,1.0));
#169=AXIS2_PLACEMENT_3D('',#166,#167,#168);
#170=PLANE('',#169);
#171=ORIENTED_EDGE('',*,*,#161,.T.);
#172=CARTESIAN_POINT('',(-40.0,24.999999999999996,0.0));
#173=VERTEX_POINT('',#172);
#174=CARTESIAN_POINT('',(-40.0,24.999999999999996,0.0));
#175=DIRECTION('',(1.0,0.0,0.0));
#176=VECTOR('',#175,17.999999999999993);
#177=LINE('',#174,#176);
#178=EDGE_CURVE('',#173,#149,#177,.T.);
#179=ORIENTED_EDGE('',*,*,#178,.F.);
#180=CARTESIAN_POINT('',(-40.0,24.999999999999996,6.000000000000001));
#181=VERTEX_POINT('',#180);
#182=CARTESIAN_POINT('',(-40.0,24.999999999999996,0.0));
#183=DIRECTION('',(0.0,0.0,1.0));
#184=VECTOR('',#183,6.000000000000001);
#185=LINE('',#182,#184);
#186=EDGE_CURVE('',#173,#181,#185,.T.);
#187=ORIENTED_EDGE('',*,*,#186,.T.);
#188=CARTESIAN_POINT('',(-7.771561E-015,25.000000000000004,6.000000000000001));
#189=VERTEX_POINT('',#188);
#190=CARTESIAN_POINT('',(-40.0,24.999999999999996,6.000000000000001));
#191=DIRECTION('',(1.0,0.0,0.0));
#192=VECTOR('',#191,39.999999999999993);
#193=LINE('',#190,#192);
#194=EDGE_CURVE('',#181,#189,#193,.T.);
#195=ORIENTED_EDGE('',*,*,#194,.T.);
#196=CARTESIAN_POINT('',(-7.771561E-015,25.000000000000004,0.0));
#197=VERTEX_POINT('',#196);
#198=CARTESIAN_POINT('',(-7.771561E-015,25.000000000000004,0.0));
#199=DIRECTION('',(0.0,0.0,1.0));
#200=VECTOR('',#199,6.000000000000001);
#201=LINE('',#198,#200);
#202=EDGE_CURVE('',#197,#189,#201,.T.);
#203=ORIENTED_EDGE('',*,*,#202,.F.);
#204=CARTESIAN_POINT('',(-18.000000000000004,25.0,0.0));
#205=DIRECTION('',(1.0,0.0,0.0));
#206=VECTOR('',#205,17.999999999999996);
#207=LINE('',#204,#206);
#208=EDGE_CURVE('',#132,#197,#207,.T.);
#209=ORIENTED_EDGE('',*,*,#208,.F.);
#210=EDGE_LOOP('',(#171,#179,#187,#195,#203,#209));
#211=FACE_OUTER_BOUND('',#210,.T.);
#212=ADVANCED_FACE('',(#211),#170,.T.);
#213=CARTESIAN_POINT('',(-20.0,12.499999999999996,0.0));
#214=DIRECTION('',(0.0,0.0,1.0));
#215=DIRECTION('',(1.0,0.0,0.0));
#216=AXIS2_PLACEMENT_3D('',#213,#214,#215);
#217=PLANE('',#216);
#218=ORIENTED_EDGE('',*,*,#154,.T.);
#219=CARTESIAN_POINT('',(-40.0,-4.898587E-015,0.0));
#220=VERTEX_POINT('',#219);
#221=CARTESIAN_POINT('',(-22.0,-2.694223E-015,0.0));
#222=DIRECTION('',(-1.0,0.0,0.0));
#223=VECTOR('',#222,18.0);
#224=LINE('',#221,#223);
#225=EDGE_CURVE('',#140,#220,#224,.T.);
#226=ORIENTED_EDGE('',*,*,#225,.T.);
#227=CARTESIAN_POINT('',(-40.0,-4.898587E-015,0.0));
#228=DIRECTION('',(0.0,1.0,0.0));
#229=VECTOR('',#228,25.0);
#230=LINE('',#227,#229);
#231=EDGE_CURVE('',#220,#173,#230,.T.);
#232=ORIENTED_EDGE('',*,*,#231,.T.);
#233=ORIENTED_EDGE('',*,*,#178,.T.);
#234=EDGE_LOOP('',(#218,#226,#232,#233));
#235=FACE_OUTER_BOUND('',#234,.T.);
#236=ORIENTED_EDGE('',*,*,#119,.T.);
#237=EDGE_LOOP('',(#236));
#238=FACE_BOUND('',#237,.T.);
#239=ADVANCED_FACE('',(#235,#238),#217,.F.);
#240=CARTESIAN_POINT('',(-40.0,-4.898587E-015,0.0));
#241=DIRECTION('',(-1.0,0.0,0.0));
#242=DIRECTION('',(0.0,0.0,1.0));
#243=AXIS2_PLACEMENT_3D('',#240,#241,#242);
#244=PLANE('',#243);
#245=CARTESIAN_POINT('',(-40.0,-4.898587E-015,6.000000000000001));
#246=VERTEX_POINT('',#245);
#247=CARTESIAN_POINT('',(-40.0,-4.898587E-015,6.000000000000001));
#248=DIRECTION('',(0.0,1.0,0.0));
#249=VECTOR('',#248,25.0);
#250=LINE('',#247,#249);
#251=EDGE_CURVE('',#246,#181,#250,.T.);
#252=ORIENTED_EDGE('',*,*,#251,.T.);
#253=ORIENTED_EDGE('',*,*,#186,.F.);
#254=ORIENTED_EDGE('',*,*,#231,.F.);
#255=CARTESIAN_POINT('',(-40.0,-4.898587E-015,0.0));
#256=DIRECTION('',(0.0,0.0,1.0));
#257=VECTOR('',#256,6.000000000000001);
#258=LINE('',#255,#257);
#259=EDGE_CURVE('',#220,#246,#258,.T.);
#260=ORIENTED_EDGE('',*,*,#259,.T.);
#261=EDGE_LOOP('',(#252,#253,#254,#260));
#262=FACE_OUTER_BOUND('',#261,.T.);
#263=ADVANCED_FACE('',(#262),#244,.T.);
#264=CARTESIAN_POINT('',(-7.771561E-015,25.000000000000004,0.0));
#265=DIRECTION('',(1.0,0.0,0.0));
#266=DIRECTION('',(0.0,0.0,-1.0));
#267=AXIS2_PLACEMENT_3D('',#264,#265,#266);
#268=PLANE('',#267);
#269=CARTESIAN_POINT('',(0.0,0.0,6.000000000000001));
#270=VERTEX_POINT('',#269);
#271=CARTESIAN_POINT('',(-7.771561E-015,25.000000000000004,6.000000000000001));
#272=DIRECTION('',(0.0,-1.0,0.0));
#273=VECTOR('',#272,25.000000000000004);
#274=LINE('',#271,#273);
#275=EDGE_CURVE('',#189,#270,#274,.T.);
#276=ORIENTED_EDGE('',*,*,#275,.T.);
#277=CARTESIAN_POINT('',(0.0,0.0,0.0));
#278=VERTEX_POINT('',#277);
#279=CARTESIAN_POINT('',(0.0,0.0,0.0));
#280=DIRECTION('',(0.0,0.0,1.0));
#281=VECTOR('',#280,6.000000000000001);
#282=LINE('',#279,#281);
#283=EDGE_CURVE('',#278,#270,#282,.T.);
#284=ORIENTED_EDGE('',*,*,#283,.F.);
#285=CARTESIAN_POINT('',(-7.771561E-015,25.000000000000004,0.0));
#286=DIRECTION('',(0.0,-1.0,0.0));
#287=VECTOR('',#286,25.000000000000004);
#288=LINE('',#285,#287);
#289=EDGE_CURVE('',#197,#278,#288,.T.);
#290=ORIENTED_EDGE('',*,*,#289,.F.);
#291=ORIENTED_EDGE('',*,*,#202,.T.);
#292=EDGE_LOOP('',(#276,#284,#290,#291));
#293=FACE_OUTER_BOUND('',#292,.T.);
#294=ADVANCED_FACE('',(#293),#268,.T.);
#295=CARTESIAN_POINT('',(0.0,0.0,0.0));
#296=DIRECTION('',(0.0,-1.0,0.0));
#297=DIRECTION('',(0.0,0.0,-1.0));
#298=AXIS2_PLACEMENT_3D('',#295,#296,#297);
#299=PLANE('',#298);
#300=ORIENTED_EDGE('',*,*,#146,.T.);
#301=CARTESIAN_POINT('',(0.0,0.0,0.0));
#302=DIRECTION('',(-1.0,0.0,0.0));
#303=VECTOR('',#302,18.0);
#304=LINE('',#301,#303);
#305=EDGE_CURVE('',#278,#130,#304,.T.);
#306=ORIENTED_EDGE('',*,*,#305,.F.);
#307=ORIENTED_EDGE('',*,*,#283,.T.);
#308=CARTESIAN_POINT('',(0.0,0.0,6.000000000000001));
#309=DIRECTION('',(-1.0,0.0,0.0));
#310=VECTOR('',#309,40.0);
#311=LINE('',#308,#310);
#312=EDGE_CURVE('',#270,#246,#311,.T.);
#313=ORIENTED_EDGE('',*,*,#312,.T.);
#314=ORIENTED_EDGE('',*,*,#259,.F.);
#315=ORIENTED_EDGE('',*,*,#225,.F.);
#316=EDGE_LOOP('',(#300,#306,#307,#313,#314,#315));
#317=FACE_OUTER_BOUND('',#316,.T.);
#318=ADVANCED_FACE('',(#317),#299,.T.);
#319=CARTESIAN_POINT('',(-20.0,12.499999999999998,6.000000000000001));
#320=DIRECTION('',(0.0,0.0,1.0));
#321=DIRECTION('',(1.0,0.0,0.0));
#322=AXIS2_PLACEMENT_3D('',#319,#320,#321);
#323=PLANE('',#322);
#324=ORIENTED_EDGE('',*,*,#251,.F.);
#325=ORIENTED_EDGE('',*,*,#312,.F.);
#326=ORIENTED_EDGE('',*,*,#275,.F.);
#327=ORIENTED_EDGE('',*,*,#194,.F.);
#328=EDGE_LOOP('',(#324,#325,#326,#327));
#329=FACE_OUTER_BOUND('',#328,.T.);
#330=ORIENTED_EDGE('',*,*,#80,.T.);
#331=EDGE_LOOP('',(#330));
#332=FACE_BOUND('',#331,.T.);
#333=ORIENTED_EDGE('',*,*,#108,.T.);
#334=EDGE_LOOP('',(#333));
#335=FACE_BOUND('',#334,.T.);
#336=ADVANCED_FACE('',(#329,#332,#335),#323,.T.);
#337=CARTESIAN_POINT('',(-20.0,12.499999999999996,0.0));
#338=DIRECTION('',(0.0,0.0,1.0));
#339=DIRECTION('',(1.0,0.0,0.0));
#340=AXIS2_PLACEMENT_3D('',#337,#338,#339);
#341=PLANE('',#340);
#342=ORIENTED_EDGE('',*,*,#137,.T.);
#343=ORIENTED_EDGE('',*,*,#208,.T.);
#344=ORIENTED_EDGE('',*,*,#289,.T.);
#345=ORIENTED_EDGE('',*,*,#305,.T.);
#346=EDGE_LOOP('',(#342,#343,#344,#345));
#347=FACE_OUTER_BOUND('',#346,.T.);
#348=ORIENTED_EDGE('',*,*,#91,.T.);
#349=EDGE_LOOP('',(#348));
#350=FACE_BOUND('',#349,.T.);
#351=ADVANCED_FACE('',(#347,#350),#341,.F.);
#352=CLOSED_SHELL('',(#95,#123,#165,#212,#239,#263,#294,#318,#336,#351));
#353=MANIFOLD_SOLID_BREP('Solid1',#352);
#354=COLOUR_RGB('Default',0.75,0.75,0.75);
#355=FILL_AREA_STYLE_COLOUR('Default',#354);
#356=FILL_AREA_STYLE('Default',(#355));
#357=SURFACE_STYLE_FILL_AREA(#356);
#358=SURFACE_SIDE_STYLE('Default',(#357));
#359=SURFACE_STYLE_USAGE(.BOTH.,#358);
#360=PRESENTATION_STYLE_ASSIGNMENT((#359));
#361=STYLED_ITEM('',(#360),#353);
#362=MECHANICAL_DESIGN_GEOMETRIC_PRESENTATION_REPRESENTATION('',(#361),#36);
#363=ADVANCED_BREP_SHAPE_REPRESENTATION('ABSR',(#353),#36);
#364=SHAPE_REPRESENTATION_RELATIONSHIP('SRR','None',#363,#41);
ENDSEC;
END-ISO-10303-21;
