# ICEM CFD Project Settings
# Saved by engs1478 on engs-24050 on Fri Nov 11 16:48:36 GMT Standard Time 2016
# ICEM CFD - version 16.1 - Release date: Mar 16 2015

array set file_name {
    catia_dir {C:/Users/engs1478/Google Drive/OU Sandbox/Projects/C003/CFD}
    parts_dir {C:/Users/engs1478/Google Drive/OU Sandbox/Projects/C003/CFD/parts}
    domain_loaded 1
    cart_file_loaded 0
    cart_file {}
    domain_saved {C003 ICM.uns}
    archive {}
    med_replay {}
    topology_dir {C:/Users/engs1478/Google Drive/OU Sandbox/Projects/C003/CFD}
    ugparts_dir {C:/Users/engs1478/Google Drive/OU Sandbox/Projects/C003/CFD}
    icons {{$env(ICEM_ACN)/lib/ai_env/icons} {$env(ICEM_ACN)/lib/va/EZCAD/icons} {$env(ICEM_ACN)/lib/icons} {$env(ICEM_ACN)/lib/va/CABIN/icons}}
    tetin {}
    family_boco {C003 ICM.fbc}
    prism_params {}
    iges_dir {C:/Users/engs1478/Google Drive/OU Sandbox/Projects/C003/CFD}
    solver_params_loaded 1
    attributes_loaded 0
    project_lock {}
    attributes {C003 ICM.atr}
    domain {C003 ICM.uns}
    domains_dir {C:/Users/engs1478/Google Drive/OU Sandbox/Projects/C003/CFD}
    settings_loaded 0
    settings {C003 ICM.prj}
    blocking {}
    hexa_replay {}
    transfer_dir {C:/Users/engs1478/Google Drive/OU Sandbox/Projects/C003/CFD}
    mesh_dir {C:/Users/engs1478/Google Drive/OU Sandbox/Projects/C003/CFD}
    family_topo {}
    gemsparts_dir {C:/Users/engs1478/Google Drive/OU Sandbox/Projects/C003/CFD}
    family_boco_loaded 1
    tetin_loaded 0
    project_dir {C:/Users/engs1478/Google Drive/OU Sandbox/Projects/C003/CFD}
    topo_mulcad_out {}
    solver_params {}
}
array set options {
    expert 1
    remote_path {}
    tree_disp_quad 2
    tree_disp_pyra 0
    evaluate_diagnostic 0
    histo_show_default 1
    select_toggle_corners 0
    remove_all 0
    keep_existing_file_names 0
    record_journal 0
    edit_wait 0
    face_mode all
    select_mode all
    med_save_emergency_tetin 1
    user_name engs1478
    diag_which all
    uns_warn_if_display 500000
    bubble_delay 1000
    external_num 1
    tree_disp_tri 2
    apply_all 0
    temporary_directory C:/Users/engs1478/AppData/Local/Temp
    flood_select_angle 0
    home_after_load 1
    project_active 0
    histo_color_by_quality_default 1
    undo_logging 1
    tree_disp_hexa 0
    histo_solid_default 1
    host_name engs-24050
    xhidden_full 1
    editor notepad
    mouse_color orange
    clear_undo 1
    remote_acn {}
    remote_sh csh
    tree_disp_penta 0
    n_processors 4
    remote_host {}
    save_to_new 0
    quality_info Quality
    tree_disp_node 0
    med_save_emergency_mesh 1
    redtext_color red
    tree_disp_line 0
    select_edge_mode 0
    use_dlremote 0
    max_mesh_map_size 1024
    show_tris 1
    remote_user {}
    enable_idle 0
    auto_save_views 1
    max_cad_map_size 512
    display_origin 0
    uns_warn_user_if_display 1000000
    detail_info 0
    win_java_help 0
    show_factor 1
    boundary_mode all
    clean_up_tmp_files 1
    auto_fix_uncovered_faces 1
    med_save_emergency_blocking 1
    max_binary_tetin 0
    tree_disp_tetra 0
}
array set disp_options {
    uns_dualmesh 0
    uns_warn_if_display 500000
    uns_normals_colored 0
    uns_icons 0
    uns_locked_elements 0
    uns_shrink_npos 0
    uns_node_type None
    uns_icons_normals_vol 0
    uns_bcfield 0
    backup Wire
    uns_nodes 0
    uns_only_edges 0
    uns_surf_bounds 0
    uns_wide_lines 0
    uns_vol_bounds 0
    uns_displ_orient Triad
    uns_orientation 0
    uns_directions 0
    uns_thickness 0
    uns_shell_diagnostic 0
    uns_normals 0
    uns_couplings 0
    uns_periodicity 0
    uns_single_surfaces 0
    uns_midside_nodes 1
    uns_shrink 100
    uns_multiple_surfaces 0
    uns_no_inner 0
    uns_enums 0
    uns_disp Wire
    uns_bcfield_name {}
    uns_color_by_quality 0
    uns_changes 0
    uns_cut_delay_count 1000
}
set icon_size1 24
set icon_size2 35
set thickness_defined 0
set solver_type 1
set solver_setup -1
array set prism_values {
    n_triangle_smoothing_steps 5
    min_smoothing_steps 6
    first_layer_smoothing_steps 1
    new_volume {}
    height {}
    prism_height_limit {}
    interpolate_heights 0
    n_tetra_smoothing_steps 10
    do_checks {}
    delete_standalone 1
    ortho_weight 0.50
    max_aspect_ratio {}
    ratio_max {}
    total_height {}
    use_prism_v10 0
    intermediate_write 1
    delete_base_triangles {}
    ratio_multiplier {}
    refine_prism_boundary 1
    max_size_ratio {}
    triangle_quality {}
    max_prism_angle 180
    tetra_smooth_limit 0.3
    max_jump_factor 5
    use_existing_quad_layers 0
    layers 3
    fillet 0.10
    into_orphan 0
    init_dir_from_prev {}
    blayer_2d 0
    do_not_allow_sticking {}
    top_family {}
    law exponential
    min_smoothing_val 0.1
    auto_reduction 0
    stop_columns 1
    stair_step 1
    smoothing_steps 12
    side_family {}
    min_prism_quality 0.01
    ratio 1.2
}
set aie_current_flavor {}
array set vid_options {
    wb_import_tritol 0.001
    wb_import_mix_res_line 0
    wb_import_cad_att_pre {SDFEA;DDM}
    wb_import_surface_bodies 1
    wb_NS_to_subset 0
    wb_import_mat_points 0
    auxiliary 0
    wb_import_mix_res_surface 0
    wb_import_mix_res -1
    wb_import_cad_att_trans 1
    show_name 0
    wb_import_delete_solids 0
    wb_import_solid_bodies 1
    wb_import_save_pmdb {}
    wb_import_mix_res_solid 0
    inherit 0
    default_part GEOM
    new_srf_topo 1
    wb_import_associativity_model_name {}
    DelPerFlag 0
    wb_import_save_partfile 0
    wb_import_line_bodies 0
    show_item_name 0
    wb_import_analysis_type 3
    composite_tolerance 1.0
    wb_import_en_sym_proc 1
    wb_NS_to_entity_parts 0
    wb_run_mesher tetra
    wb_import_work_points 0
    wb_import_sel_proc 1
    wb_import_geom 1
    wb_NS_only 0
    wb_import_pluginname {}
    wb_import_mix_res_point 0
    wb_import_refresh_pmdb 0
    wb_import_create_solids 0
    wb_import_load_pmdb {}
    wb_import_scale_geo 0
    wb_import_sel_pre {}
    replace 0
    wb_import_cad_associativity 0
    same_pnt_tol 1e-4
    tdv_axes 1
    wb_import_mesh 0
    vid_mode 0
    DelBlkPerFlag 0
}
array set map_tetin_sizes {
    densities 1
    msurfaces 1
    ppoint 1
    thincuts 1
    tetin {}
    psurfaces 1
    mcurves 1
    mpoint 1
    doit 0
    pcurves 1
    global 1
    subsets 1
    family 1
}
array set import_model_options {
    from_source 0
    always_convert 0
    named_sel_only 0
    always_import 0
    convert_to {}
}
set savedTreeVisibility {meshNode 1 mesh_subsetNode 2 meshShellNode 2 meshQuadNode 2 meshVolumeNode 0 meshHexaNode 0 partNode 2 part-INLET 2 part-OUTLET 2 part-S1 2 part-S1-BLADE 2 part-S1-HUB 2 part-S1-TIP 2 part-S1-TO-S1-PERIODIC-1-SIDE-1 2 part-S1-TO-S1-PERIODIC-1-SIDE-2 2 part-S1-TO-S1-PERIODIC-2-SIDE-1 2 part-S1-TO-S1-PERIODIC-2-SIDE-2 2 part-S1-TO-S1-PERIODIC-3-SIDE-1 2 part-S1-TO-S1-PERIODIC-3-SIDE-2 2 part-S1-TO-S1-PERIODIC-4-SIDE-1 2 part-S1-TO-S1-PERIODIC-4-SIDE-2 2}
set last_view {rot {0.339408954595 -0.37407391692 -0.577297291302 0.641559119363} scale {5832.51009052 5832.51009052 5832.51009052} center {0.021461 -0.00304715 0.319312} pos {-42.3125118987 63.6436489551 0}}
array set cut_info {
    active 0
}
array set hex_option {
    default_bunching_ratio 2.0
    floating_grid 0
    project_to_topo 0
    n_tetra_smoothing_steps 20
    sketching_mode 0
    trfDeg 1
    wr_hexa7 0
    smooth_ogrid 0
    find_worst 1-3
    hexa_verbose_mode 0
    old_eparams 0
    uns_face_mesh_method uniform_quad
    multigrid_level 0
    uns_face_mesh one_tri
    check_blck 0
    proj_limit 0
    check_inv 0
    project_bspline 0
    hexa_update_mode 1
    default_bunching_law BiGeometric
}
array set saved_views {
    views {}
}

#------------- DEZ Data ------------------

namespace eval ::AIEnv::GUIManagement::DEZ {
    array set meshPrismDEZ_data {
        this meshPrismDEZ
        type DEZ
        n_triangle_smoothing_steps 5
        triangle_quality {}
        __meshPrismTriQuality_Last_Index 0
        n_tetra_smoothing_steps 10
        smoothing_steps 12
        first_layer_smoothing_steps 1
        loadmesh 0
    }
}
