SolidWorks IGES file using analytic representation for surfaces         S      1
1H,,1H;,54HC003-17001-300-05 R 1 Transition Side Wall BOTH.SLDPRT,114HW:G      1
\Projects\C003\CAD\Models\Working Section\Transition Section\C003-17001-G      2
300-05 R 1 Transition Side Wall BOTH.IGS,15HSolidWorks 2016,15HSolidWorkG      3
s 2016,32,308,15,308,15,54HC003-17001-300-05 R 1 Transition Side Wall BOG      4
TH.SLDPRT,1.,2,2HMM,50,0.125,13H170613.115113,1E-008,499990.,8Hengs1478,G      5
,11,0,13H170613.115113;                                                 G      6
     124       1       0       0       0                        00000000D      1
     124       0       0       1       0                               0D      2
     110       2       0       0       0               1        00020000D      3
     110       0       0       1       0                               0D      4
     110       3       0       0       0               1        00020000D      5
     110       0       0       1       0                               0D      6
     110       4       0       0       0               1        00020000D      7
     110       0       0       1       0                               0D      8
     110       5       0       0       0               1        00020000D      9
     110       0       0       1       0                               0D     10
     110       6       0       0       0               1        00020000D     11
     110       0       0       1       0                               0D     12
     110       7       0       0       0               1        00020000D     13
     110       0       0       1       0                               0D     14
     116       8       0       0       0               1        00020000D     15
     116       0       0       1       0                               0D     16
     402       9       0       0       0                        00000000D     17
     402       0       0       1      16                2DSKETCH       1D     18
     124      10       0       0       0                        00000000D     19
     124       0       0       1       0                               0D     20
     110      11       0       0       0              19        00020000D     21
     110       0       0       1       0                               0D     22
     110      12       0       0       0              19        00020000D     23
     110       0       0       1       0                               0D     24
     110      13       0       0       0              19        00020000D     25
     110       0       0       1       0                               0D     26
     116      14       0       0       0              19        00020000D     27
     116       0       0       1       0                               0D     28
     116      15       0       0       0              19        00020000D     29
     116       0       0       1       0                               0D     30
     116      16       0       0       0              19        00020000D     31
     116       0       0       1       0                               0D     32
     116      17       0       0       0              19        00020000D     33
     116       0       0       1       0                               0D     34
     116      18       0       0       0              19        00020000D     35
     116       0       0       1       0                               0D     36
     116      19       0       0       0              19        00020000D     37
     116       0       0       1       0                               0D     38
     116      20       0       0       0              19        00020000D     39
     116       0       0       1       0                               0D     40
     402      21       0       0       0                        00000000D     41
     402       0       0       1      16                2DSKETCH       2D     42
     124      22       0       0       0                        00000000D     43
     124       0       0       1       0                               0D     44
     110      23       0       0       0              43        00020000D     45
     110       0       0       1       0                               0D     46
     110      24       0       0       0              43        00020000D     47
     110       0       0       1       0                               0D     48
     100      25       0       0       0              43        00020000D     49
     100       0       0       2       0                               0D     50
     402      27       0       0       0                        00000000D     51
     402       0       0       1      16                2DSKETCH       3D     52
     124      28       0       0       0                        00000000D     53
     124       0       0       1       0                               0D     54
     110      29       0       0       0              53        00020000D     55
     110       0       0       1       0                               0D     56
     100      30       0       0       0              53        00020000D     57
     100       0       0       2       0                               0D     58
     116      32       0       0       0              53        00020000D     59
     116       0       0       1       0                               0D     60
     402      33       0       0       0                        00000000D     61
     402       0       0       1      16                2DSKETCH       4D     62
     314      34       0       0       0                        00000200D     63
     314       0       8       1       0                               0D     64
     110      35       0       0       0                        00000000D     65
     110       0       0       1       0                               0D     66
     110      36       0       0       0                        00000000D     67
     110       0       0       1       0                               0D     68
     110      37       0       0       0                        00000000D     69
     110       0       0       1       0                               0D     70
     110      38       0       0       0                        00000000D     71
     110       0       0       1       0                               0D     72
     110      39       0       0       0                        00000000D     73
     110       0       0       1       0                               0D     74
     110      40       0       0       0                        00000000D     75
     110       0       0       1       0                               0D     76
     110      41       0       0       0                        00000000D     77
     110       0       0       1       0                               0D     78
     110      42       0       0       0                        00000000D     79
     110       0       0       1       0                               0D     80
     110      43       0       0       0                        00000000D     81
     110       0       0       1       0                               0D     82
     110      44       0       0       0                        00000000D     83
     110       0       0       1       0                               0D     84
     110      45       0       0       0                        00000000D     85
     110       0       0       1       0                               0D     86
     110      46       0       0       0                        00000000D     87
     110       0       0       1       0                               0D     88
     124      47       0       0       0                        00000000D     89
     124       0       0       4       0                               0D     90
     100      51       0       0       0              89        00000000D     91
     100       0       0       1       0                               0D     92
     124      52       0       0       0                        00000000D     93
     124       0       0       4       0                               0D     94
     100      56       0       0       0              93        00000000D     95
     100       0       0       1       0                               0D     96
     124      57       0       0       0                        00000000D     97
     124       0       0       3       0                               0D     98
     100      60       0       0       0              97        00000000D     99
     100       0       0       1       0                               0D    100
     124      61       0       0       0                        00000000D    101
     124       0       0       4       0                               0D    102
     100      65       0       0       0             101        00000000D    103
     100       0       0       1       0                               0D    104
     124      66       0       0       0                        00000000D    105
     124       0       0       4       0                               0D    106
     100      70       0       0       0             105        00000000D    107
     100       0       0       1       0                               0D    108
     124      71       0       0       0                        00000000D    109
     124       0       0       3       0                               0D    110
     100      74       0       0       0             109        00000000D    111
     100       0       0       1       0                               0D    112
     124      75       0       0       0                        00000000D    113
     124       0       0       3       0                               0D    114
     100      78       0       0       0             113        00000000D    115
     100       0       0       1       0                               0D    116
     124      79       0       0       0                        00000000D    117
     124       0       0       3       0                               0D    118
     100      82       0       0       0             117        00000000D    119
     100       0       0       1       0                               0D    120
     124      83       0       0       0                        00000000D    121
     124       0       0       3       0                               0D    122
     100      86       0       0       0             121        00000000D    123
     100       0       0       1       0                               0D    124
     124      87       0       0       0                        00000000D    125
     124       0       0       3       0                               0D    126
     100      90       0       0       0             125        00000000D    127
     100       0       0       1       0                               0D    128
     124      91       0       0       0                        00000000D    129
     124       0       0       3       0                               0D    130
     100      94       0       0       0             129        00000000D    131
     100       0       0       1       0                               0D    132
     124      95       0       0       0                        00000000D    133
     124       0       0       3       0                               0D    134
     100      98       0       0       0             133        00000000D    135
     100       0       0       1       0                               0D    136
     124      99       0       0       0                        00000000D    137
     124       0       0       3       0                               0D    138
     100     102       0       0       0             137        00000000D    139
     100       0       0       1       0                               0D    140
     124     103       0       0       0                        00000000D    141
     124       0       0       3       0                               0D    142
     100     106       0       0       0             141        00000000D    143
     100       0       0       1       0                               0D    144
     124     107       0       0       0                        00000000D    145
     124       0       0       3       0                               0D    146
     100     110       0       0       0             145        00000000D    147
     100       0       0       1       0                               0D    148
     124     111       0       0       0                        00000000D    149
     124       0       0       3       0                               0D    150
     100     114       0       0       0             149        00000000D    151
     100       0       0       1       0                               0D    152
     124     115       0       0       0                        00000000D    153
     124       0       0       3       0                               0D    154
     100     118       0       0       0             153        00000000D    155
     100       0       0       1       0                               0D    156
     124     119       0       0       0                        00000000D    157
     124       0       0       3       0                               0D    158
     100     122       0       0       0             157        00000000D    159
     100       0       0       1       0                               0D    160
     124     123       0       0       0                        00000000D    161
     124       0       0       3       0                               0D    162
     100     126       0       0       0             161        00000000D    163
     100       0       0       1       0                               0D    164
     124     127       0       0       0                        00000000D    165
     124       0       0       3       0                               0D    166
     100     130       0       0       0             165        00000000D    167
     100       0       0       1       0                               0D    168
     124     131       0       0       0                        00000000D    169
     124       0       0       3       0                               0D    170
     100     134       0       0       0             169        00000000D    171
     100       0       0       1       0                               0D    172
     124     135       0       0       0                        00000000D    173
     124       0       0       3       0                               0D    174
     100     138       0       0       0             173        00000000D    175
     100       0       0       1       0                               0D    176
     124     139       0       0       0                        00000000D    177
     124       0       0       3       0                               0D    178
     100     142       0       0       0             177        00000000D    179
     100       0       0       1       0                               0D    180
     124     143       0       0       0                        00000000D    181
     124       0       0       3       0                               0D    182
     100     146       0       0       0             181        00000000D    183
     100       0       0       1       0                               0D    184
     124     147       0       0       0                        00000000D    185
     124       0       0       3       0                               0D    186
     100     150       0       0       0             185        00000000D    187
     100       0       0       1       0                               0D    188
     124     151       0       0       0                        00000000D    189
     124       0       0       4       0                               0D    190
     100     155       0       0       0             189        00000000D    191
     100       0       0       1       0                               0D    192
     124     156       0       0       0                        00000000D    193
     124       0       0       3       0                               0D    194
     100     159       0       0       0             193        00000000D    195
     100       0       0       1       0                               0D    196
     124     160       0       0       0                        00000000D    197
     124       0       0       3       0                               0D    198
     100     163       0       0       0             197        00000000D    199
     100       0       0       1       0                               0D    200
     124     164       0       0       0                        00000000D    201
     124       0       0       3       0                               0D    202
     100     167       0       0       0             201        00000000D    203
     100       0       0       1       0                               0D    204
     124     168       0       0       0                        00000000D    205
     124       0       0       3       0                               0D    206
     100     171       0       0       0             205        00000000D    207
     100       0       0       1       0                               0D    208
     124     172       0       0       0                        00000000D    209
     124       0       0       3       0                               0D    210
     100     175       0       0       0             209        00000000D    211
     100       0       0       1       0                               0D    212
     124     176       0       0       0                        00000000D    213
     124       0       0       3       0                               0D    214
     100     179       0       0       0             213        00000000D    215
     100       0       0       1       0                               0D    216
     124     180       0       0       0                        00000000D    217
     124       0       0       4       0                               0D    218
     100     184       0       0       0             217        00000000D    219
     100       0       0       1       0                               0D    220
     124     185       0       0       0                        00000000D    221
     124       0       0       3       0                               0D    222
     100     188       0       0       0             221        00000000D    223
     100       0       0       1       0                               0D    224
     124     189       0       0       0                        00000000D    225
     124       0       0       3       0                               0D    226
     100     192       0       0       0             225        00000000D    227
     100       0       0       1       0                               0D    228
     124     193       0       0       0                        00000000D    229
     124       0       0       3       0                               0D    230
     100     196       0       0       0             229        00000000D    231
     100       0       0       1       0                               0D    232
     124     197       0       0       0                        00000000D    233
     124       0       0       3       0                               0D    234
     100     200       0       0       0             233        00000000D    235
     100       0       0       1       0                               0D    236
     124     201       0       0       0                        00000000D    237
     124       0       0       3       0                               0D    238
     100     204       0       0       0             237        00000000D    239
     100       0       0       1       0                               0D    240
     124     205       0       0       0                        00000000D    241
     124       0       0       3       0                               0D    242
     100     208       0       0       0             241        00000000D    243
     100       0       0       1       0                               0D    244
     124     209       0       0       0                        00000000D    245
     124       0       0       3       0                               0D    246
     100     212       0       0       0             245        00000000D    247
     100       0       0       1       0                               0D    248
     124     213       0       0       0                        00000000D    249
     124       0       0       3       0                               0D    250
     100     216       0       0       0             249        00000000D    251
     100       0       0       1       0                               0D    252
     124     217       0       0       0                        00000000D    253
     124       0       0       3       0                               0D    254
     100     220       0       0       0             253        00000000D    255
     100       0       0       1       0                               0D    256
     124     221       0       0       0                        00000000D    257
     124       0       0       3       0                               0D    258
     100     224       0       0       0             257        00000000D    259
     100       0       0       1       0                               0D    260
     124     225       0       0       0                        00000000D    261
     124       0       0       3       0                               0D    262
     100     228       0       0       0             261        00000000D    263
     100       0       0       1       0                               0D    264
     124     229       0       0       0                        00000000D    265
     124       0       0       3       0                               0D    266
     100     232       0       0       0             265        00000000D    267
     100       0       0       1       0                               0D    268
     124     233       0       0       0                        00000000D    269
     124       0       0       3       0                               0D    270
     100     236       0       0       0             269        00000000D    271
     100       0       0       1       0                               0D    272
     124     237       0       0       0                        00000000D    273
     124       0       0       3       0                               0D    274
     100     240       0       0       0             273        00000000D    275
     100       0       0       1       0                               0D    276
     124     241       0       0       0                        00000000D    277
     124       0       0       3       0                               0D    278
     100     244       0       0       0             277        00000000D    279
     100       0       0       1       0                               0D    280
     124     245       0       0       0                        00000000D    281
     124       0       0       3       0                               0D    282
     100     248       0       0       0             281        00000000D    283
     100       0       0       1       0                               0D    284
     124     249       0       0       0                        00000000D    285
     124       0       0       3       0                               0D    286
     100     252       0       0       0             285        00000000D    287
     100       0       0       1       0                               0D    288
     124     253       0       0       0                        00000000D    289
     124       0       0       3       0                               0D    290
     100     256       0       0       0             289        00000000D    291
     100       0       0       1       0                               0D    292
     124     257       0       0       0                        00000000D    293
     124       0       0       3       0                               0D    294
     100     260       0       0       0             293        00000000D    295
     100       0       0       1       0                               0D    296
     124     261       0       0       0                        00000000D    297
     124       0       0       3       0                               0D    298
     100     264       0       0       0             297        00000000D    299
     100       0       0       1       0                               0D    300
     124     265       0       0       0                        00000000D    301
     124       0       0       3       0                               0D    302
     100     268       0       0       0             301        00000000D    303
     100       0       0       1       0                               0D    304
     124     269       0       0       0                        00000000D    305
     124       0       0       3       0                               0D    306
     100     272       0       0       0             305        00000000D    307
     100       0       0       1       0                               0D    308
     124     273       0       0       0                        00000000D    309
     124       0       0       3       0                               0D    310
     100     276       0       0       0             309        00000000D    311
     100       0       0       1       0                               0D    312
     124     277       0       0       0                        00000000D    313
     124       0       0       3       0                               0D    314
     100     280       0       0       0             313        00000000D    315
     100       0       0       1       0                               0D    316
     124     281       0       0       0                        00000000D    317
     124       0       0       3       0                               0D    318
     100     284       0       0       0             317        00000000D    319
     100       0       0       1       0                               0D    320
     124     285       0       0       0                        00000000D    321
     124       0       0       3       0                               0D    322
     100     288       0       0       0             321        00000000D    323
     100       0       0       1       0                               0D    324
     124     289       0       0       0                        00000000D    325
     124       0       0       3       0                               0D    326
     100     292       0       0       0             325        00000000D    327
     100       0       0       1       0                               0D    328
     124     293       0       0       0                        00000000D    329
     124       0       0       3       0                               0D    330
     100     296       0       0       0             329        00000000D    331
     100       0       0       1       0                               0D    332
     124     297       0       0       0                        00000000D    333
     124       0       0       3       0                               0D    334
     100     300       0       0       0             333        00000000D    335
     100       0       0       1       0                               0D    336
     124     301       0       0       0                        00000000D    337
     124       0       0       3       0                               0D    338
     100     304       0       0       0             337        00000000D    339
     100       0       0       1       0                               0D    340
     124     305       0       0       0                        00000000D    341
     124       0       0       3       0                               0D    342
     100     308       0       0       0             341        00000000D    343
     100       0       0       1       0                               0D    344
     124     309       0       0       0                        00000000D    345
     124       0       0       3       0                               0D    346
     100     312       0       0       0             345        00000000D    347
     100       0       0       1       0                               0D    348
     124     313       0       0       0                        00000000D    349
     124       0       0       4       0                               0D    350
     100     317       0       0       0             349        00000000D    351
     100       0       0       1       0                               0D    352
     124     318       0       0       0                        00000000D    353
     124       0       0       4       0                               0D    354
     100     322       0       0       0             353        00000000D    355
     100       0       0       1       0                               0D    356
     124     323       0       0       0                        00000000D    357
     124       0       0       3       0                               0D    358
     100     326       0       0       0             357        00000000D    359
     100       0       0       1       0                               0D    360
     124     327       0       0       0                        00000000D    361
     124       0       0       4       0                               0D    362
     100     331       0       0       0             361        00000000D    363
     100       0       0       1       0                               0D    364
     124     332       0       0       0                        00000000D    365
     124       0       0       4       0                               0D    366
     100     336       0       0       0             365        00000000D    367
     100       0       0       1       0                               0D    368
124,-0.,0.,1.,0.,-0.,1.,0.,0.,-1.,0.,0.,0.;                            1P      1
110,-200.,107.,0.,200.,107.,0.;                                        3P      2
110,-200.,107.,0.,-200.,-107.,0.;                                      5P      3
110,-200.,-107.,0.,200.,-107.,0.;                                      7P      4
110,200.,107.,0.,200.,-107.,0.;                                        9P      5
110,-200.,107.,0.,200.,-107.,0.;                                      11P      6
110,-200.,-107.,0.,200.,107.,0.;                                      13P      7
116,0.,0.,0.,;                                                        15P      8
402,1,7,1,3,5,7,9,11,13,15;                                           17P      9
124,0.,0.,1.,20.,0.,1.,0.,0.,-1.,0.,0.,0.;                            19P     10
110,-200.,97.,0.,200.,97.,0.;                                         21P     11
110,-200.,-97.,0.,200.,-97.,0.;                                       23P     12
110,0.,107.,0.,0.,-107.,0.;                                           25P     13
116,-150.,97.,0.,;                                                    27P     14
116,-100.,97.,0.,;                                                    29P     15
116,-50.,97.,0.,;                                                     31P     16
116,0.,97.,0.,;                                                       33P     17
116,50.,97.,0.,;                                                      35P     18
116,100.,97.,0.,;                                                     37P     19
116,150.,97.,0.,;                                                     39P     20
402,1,10,19,21,23,25,27,29,31,33,35,37,39;                            41P     21
124,0.,0.,1.,20.,0.,1.,0.,0.,-1.,0.,0.,0.;                            43P     22
110,-200.,0.,0.,200.,0.,0.;                                           45P     23
110,0.,107.,0.,0.,-107.,0.;                                           47P     24
100,0.,90.,0.,147.378285358,17.542302283,147.378285358,               49P     25
17.542302283;                                                         49P     26
402,1,3,43,45,47,49;                                                  51P     27
124,0.,0.,1.,20.,0.,1.,0.,0.,-1.,0.,0.,0.;                            53P     28
110,90.,67.5,0.,90.,-67.5,0.;                                         55P     29
100,0.,90.,0.,154.550571028,19.735090069,154.550571028,               57P     30
19.735090069;                                                         57P     31
116,90.,67.5,0.,;                                                     59P     32
402,1,3,53,55,57,59;                                                  61P     33
314,79.2156862745098,81.9607843137255,93.3333333333333,;              63P     34
110,0.,-107.,-200.,20.,-107.,-200.;                                   65P     35
110,20.,-107.,-200.,20.,107.,-200.;                                   67P     36
110,20.,107.,-200.,0.,107.,-200.;                                     69P     37
110,0.,107.,-200.,0.,-107.,-200.;                                     71P     38
110,20.,107.,-200.,20.,107.,200.;                                     73P     39
110,20.,107.,200.,0.,107.,200.;                                       75P     40
110,0.,107.,200.,0.,107.,-200.;                                       77P     41
110,20.,107.,200.,20.,-107.,200.;                                     79P     42
110,20.,-107.,200.,0.,-107.,200.;                                     81P     43
110,0.,-107.,200.,0.,107.,200.;                                       83P     44
110,20.,-107.,200.,20.,-107.,-200.;                                   85P     45
110,0.,-107.,-200.,0.,-107.,200.;                                     87P     46
124,-6.12323399573677E-017,4.27583144589696E-031,-1.,                 89P     47
-128.456714755449,-6.98296267768627E-015,-1.,0.,                      89P     48
67.5000000000015,-1.,6.98296267768627E-015,                           89P     49
6.12323399573677E-017,-128.456714755449;                              89P     50
100,-148.456714755,20.,33.75,22.5,33.75,22.5,33.75;                   91P     51
124,-6.12323399573677E-017,4.27583144589696E-031,-1.,                 93P     52
-128.45671475545,-6.98296267768627E-015,-1.,0.,                       93P     53
-67.4999999999988,-1.,6.98296267768627E-015,                          93P     54
6.12323399573677E-017,-128.45671475545;                               93P     55
100,-148.456714755,20.,-33.75,22.5,-33.75,22.5,-33.75;                95P     56
124,-6.12323399573677E-017,4.27583144589696E-031,-1.,-70.,            97P     57
-6.98296267768627E-015,-1.,0.,-135.,-1.,6.98296267768627E-015,        97P     58
6.12323399573677E-017,-69.9999999999995;                              97P     59
100,-90.,20.,-67.5,22.5,-67.5,22.5,-67.5;                             99P     60
124,-6.12323399573677E-017,4.27583144589696E-031,-1.,                101P     61
-11.5432852445505,-6.98296267768627E-015,-1.,0.,                     101P     62
-67.5000000000004,-1.,6.98296267768627E-015,                         101P     63
6.12323399573677E-017,-11.5432852445503;                             101P     64
100,-31.543285245,20.,-33.75,22.5,-33.75,22.5,-33.75;                103P     65
124,-6.12323399573677E-017,4.27583144589696E-031,-1.,                105P     66
-11.5432852445503,-6.98296267768627E-015,-1.,0.,                     105P     67
67.4999999999999,-1.,6.98296267768627E-015,                          105P     68
6.12323399573677E-017,-11.5432852445506;                             105P     69
100,-31.543285245,20.,33.75,22.5,33.75,22.5,33.75;                   107P     70
124,-6.12323399573677E-017,4.27583144589696E-031,-1.,-70.,           109P     71
-6.98296267768627E-015,-1.,0.,135.,-1.,6.98296267768627E-015,        109P     72
6.12323399573677E-017,-70.0000000000005;                             109P     73
100,-90.,20.,67.5,22.5,67.5,22.5,67.5;                               111P     74
124,-6.12323399573677E-017,4.27583144589696E-031,-1.,-70.,           113P     75
-6.98296267768627E-015,-1.,0.,1.39659253553725E-013,-1.,             113P     76
6.98296267768627E-015,6.12323399573677E-017,-70.;                    113P     77
100,-90.,20.,0.,80.,0.,80.,0.;                                       115P     78
124,-6.12323399573677E-017,4.27583144589696E-031,-1.,170.,           117P     79
-6.98296267768627E-015,-1.,0.,-194.,-1.,6.98296267768627E-015,       117P     80
6.12323399573677E-017,170.000000000001;                              117P     81
100,150.,20.,-97.,25.5,-97.,25.5,-97.;                               119P     82
124,-6.12323399573677E-017,4.27583144589696E-031,-1.,120.,           121P     83
-6.98296267768627E-015,-1.,0.,-194.,-1.,6.98296267768627E-015,       121P     84
6.12323399573677E-017,120.000000000001;                              121P     85
100,100.,20.,-97.,25.5,-97.,25.5,-97.;                               123P     86
124,-6.12323399573677E-017,4.27583144589696E-031,-1.,70.,            125P     87
-6.98296267768627E-015,-1.,0.,-194.,-1.,6.98296267768627E-015,       125P     88
6.12323399573677E-017,70.0000000000007;                              125P     89
100,50.,20.,-97.,25.5,-97.,25.5,-97.;                                127P     90
124,-6.12323399573677E-017,4.27583144589696E-031,-1.,20.,            129P     91
-6.98296267768627E-015,-1.,0.,-194.,-1.,6.98296267768627E-015,       129P     92
6.12323399573677E-017,20.0000000000007;                              129P     93
100,0.,20.,-97.,25.5,-97.,25.5,-97.;                                 131P     94
124,-6.12323399573677E-017,4.27583144589696E-031,-1.,-30.,           133P     95
-6.98296267768627E-015,-1.,0.,-194.,-1.,6.98296267768627E-015,       133P     96
6.12323399573677E-017,-29.9999999999993;                             133P     97
100,-50.,20.,-97.,25.5,-97.,25.5,-97.;                               135P     98
124,-6.12323399573677E-017,4.27583144589696E-031,-1.,-80.,           137P     99
-6.98296267768627E-015,-1.,0.,-194.,-1.,6.98296267768627E-015,       137P    100
6.12323399573677E-017,-79.9999999999993;                             137P    101
100,-100.,20.,-97.,25.5,-97.,25.5,-97.;                              139P    102
124,-6.12323399573677E-017,4.27583144589696E-031,-1.,-130.,          141P    103
-6.98296267768627E-015,-1.,0.,-194.,-1.,6.98296267768627E-015,       141P    104
6.12323399573677E-017,-129.999999999999;                             141P    105
100,-150.,20.,-97.,25.5,-97.,25.5,-97.;                              143P    106
124,-6.12323399573677E-017,4.27583144589696E-031,-1.,170.,           145P    107
-6.98296267768627E-015,-1.,0.,194.,-1.,6.98296267768627E-015,        145P    108
6.12323399573677E-017,169.999999999999;                              145P    109
100,150.,20.,97.,25.5,97.,25.5,97.;                                  147P    110
124,-6.12323399573677E-017,4.27583144589696E-031,-1.,120.,           149P    111
-6.98296267768627E-015,-1.,0.,194.,-1.,6.98296267768627E-015,        149P    112
6.12323399573677E-017,119.999999999999;                              149P    113
100,100.,20.,97.,25.5,97.,25.5,97.;                                  151P    114
124,-6.12323399573677E-017,4.27583144589696E-031,-1.,70.,            153P    115
-6.98296267768627E-015,-1.,0.,194.,-1.,6.98296267768627E-015,        153P    116
6.12323399573677E-017,69.9999999999993;                              153P    117
100,50.,20.,97.,25.5,97.,25.5,97.;                                   155P    118
124,-6.12323399573677E-017,4.27583144589696E-031,-1.,20.,            157P    119
-6.98296267768627E-015,-1.,0.,194.,-1.,6.98296267768627E-015,        157P    120
6.12323399573677E-017,19.9999999999993;                              157P    121
100,0.,20.,97.,25.5,97.,25.5,97.;                                    159P    122
124,-6.12323399573677E-017,4.27583144589696E-031,-1.,-30.,           161P    123
-6.98296267768627E-015,-1.,0.,194.,-1.,6.98296267768627E-015,        161P    124
6.12323399573677E-017,-30.0000000000007;                             161P    125
100,-50.,20.,97.,25.5,97.,25.5,97.;                                  163P    126
124,-6.12323399573677E-017,4.27583144589696E-031,-1.,-80.,           165P    127
-6.98296267768627E-015,-1.,0.,194.,-1.,6.98296267768627E-015,        165P    128
6.12323399573677E-017,-80.0000000000007;                             165P    129
100,-100.,20.,97.,25.5,97.,25.5,97.;                                 167P    130
124,-6.12323399573677E-017,4.27583144589696E-031,-1.,-130.,          169P    131
-6.98296267768627E-015,-1.,0.,194.,-1.,6.98296267768627E-015,        169P    132
6.12323399573677E-017,-130.000000000001;                             169P    133
100,-150.,20.,97.,25.5,97.,25.5,97.;                                 171P    134
124,-6.12323399573677E-017,4.27583144589696E-031,-1.,-90.,           173P    135
-6.98296267768627E-015,-1.,0.,0.,-1.,6.98296267768627E-015,          173P    136
6.12323399573677E-017,-90.;                                          173P    137
100,-90.,0.,0.,60.,0.,60.,0.;                                        175P    138
124,-6.12323399573677E-017,4.27583144589696E-031,-1.,150.,           177P    139
-6.98296267768627E-015,-1.,0.,-194.,-1.,6.98296267768627E-015,       177P    140
6.12323399573677E-017,150.000000000001;                              177P    141
100,150.,0.,-97.,3.3,-97.,3.3,-97.;                                  179P    142
124,-6.12323399573677E-017,4.27583144589696E-031,-1.,100.,           181P    143
-6.98296267768627E-015,-1.,0.,-194.,-1.,6.98296267768627E-015,       181P    144
6.12323399573677E-017,100.000000000001;                              181P    145
100,100.,0.,-97.,3.3,-97.,3.3,-97.;                                  183P    146
124,-6.12323399573677E-017,4.27583144589696E-031,-1.,50.,            185P    147
-6.98296267768627E-015,-1.,0.,-194.,-1.,6.98296267768627E-015,       185P    148
6.12323399573677E-017,50.0000000000007;                              185P    149
100,50.,0.,-97.,3.3,-97.,3.3,-97.;                                   187P    150
124,-6.12323399573677E-017,4.27583144589696E-031,-1.,                189P    151
-2.77555756156289E-014,-6.98296267768627E-015,-1.,0.,-194.,-1.,      189P    152
6.98296267768627E-015,6.12323399573677E-017,                         189P    153
6.49591804119939E-013;                                               189P    154
100,0.,0.,-97.,3.3,-97.,3.3,-97.;                                    191P    155
124,-6.12323399573677E-017,4.27583144589696E-031,-1.,-50.,           193P    156
-6.98296267768627E-015,-1.,0.,-194.,-1.,6.98296267768627E-015,       193P    157
6.12323399573677E-017,-49.9999999999993;                             193P    158
100,-50.,0.,-97.,3.3,-97.,3.3,-97.;                                  195P    159
124,-6.12323399573677E-017,4.27583144589696E-031,-1.,-100.,          197P    160
-6.98296267768627E-015,-1.,0.,-194.,-1.,6.98296267768627E-015,       197P    161
6.12323399573677E-017,-99.9999999999993;                             197P    162
100,-100.,0.,-97.,3.3,-97.,3.3,-97.;                                 199P    163
124,-6.12323399573677E-017,4.27583144589696E-031,-1.,-150.,          201P    164
-6.98296267768627E-015,-1.,0.,-194.,-1.,6.98296267768627E-015,       201P    165
6.12323399573677E-017,-149.999999999999;                             201P    166
100,-150.,0.,-97.,3.3,-97.,3.3,-97.;                                 203P    167
124,-6.12323399573677E-017,4.27583144589696E-031,-1.,150.,           205P    168
-6.98296267768627E-015,-1.,0.,194.,-1.,6.98296267768627E-015,        205P    169
6.12323399573677E-017,149.999999999999;                              205P    170
100,150.,0.,97.,3.3,97.,3.3,97.;                                     207P    171
124,-6.12323399573677E-017,4.27583144589696E-031,-1.,100.,           209P    172
-6.98296267768627E-015,-1.,0.,194.,-1.,6.98296267768627E-015,        209P    173
6.12323399573677E-017,99.9999999999993;                              209P    174
100,100.,0.,97.,3.3,97.,3.3,97.;                                     211P    175
124,-6.12323399573677E-017,4.27583144589696E-031,-1.,50.,            213P    176
-6.98296267768627E-015,-1.,0.,194.,-1.,6.98296267768627E-015,        213P    177
6.12323399573677E-017,49.9999999999993;                              213P    178
100,50.,0.,97.,3.3,97.,3.3,97.;                                      215P    179
124,-6.12323399573677E-017,4.27583144589696E-031,-1.,                217P    180
-2.7755575615629E-014,-6.98296267768627E-015,-1.,0.,194.,-1.,        217P    181
6.98296267768627E-015,6.12323399573677E-017,                         217P    182
-7.05102955351197E-013;                                              217P    183
100,0.,0.,97.,3.3,97.,3.3,97.;                                       219P    184
124,-6.12323399573677E-017,4.27583144589696E-031,-1.,-50.,           221P    185
-6.98296267768627E-015,-1.,0.,194.,-1.,6.98296267768627E-015,        221P    186
6.12323399573677E-017,-50.0000000000007;                             221P    187
100,-50.,0.,97.,3.3,97.,3.3,97.;                                     223P    188
124,-6.12323399573677E-017,4.27583144589696E-031,-1.,-100.,          225P    189
-6.98296267768627E-015,-1.,0.,194.,-1.,6.98296267768627E-015,        225P    190
6.12323399573677E-017,-100.000000000001;                             225P    191
100,-100.,0.,97.,3.3,97.,3.3,97.;                                    227P    192
124,-6.12323399573677E-017,4.27583144589696E-031,-1.,-150.,          229P    193
-6.98296267768627E-015,-1.,0.,194.,-1.,6.98296267768627E-015,        229P    194
6.12323399573677E-017,-150.000000000001;                             229P    195
100,-150.,0.,97.,3.3,97.,3.3,97.;                                    231P    196
124,-6.12323399573677E-017,4.27583144589696E-031,-1.,-136.4,         233P    197
-6.98296267768627E-015,-1.,0.,194.,-1.,6.98296267768627E-015,        233P    198
6.12323399573677E-017,-136.400000000001;                             233P    199
100,-150.,13.6,97.,16.9,97.,16.9,97.;                                235P    200
124,-6.12323399573677E-017,4.27583144589696E-031,-1.,-136.4,         237P    201
-6.98296267768627E-015,-1.,0.,194.,-1.,6.98296267768627E-015,        237P    202
6.12323399573677E-017,-136.400000000001;                             237P    203
100,-150.,13.6,97.,19.1,97.,19.1,97.;                                239P    204
124,-6.12323399573677E-017,4.27583144589696E-031,-1.,-86.4,          241P    205
-6.98296267768627E-015,-1.,0.,194.,-1.,6.98296267768627E-015,        241P    206
6.12323399573677E-017,-86.4000000000007;                             241P    207
100,-100.,13.6,97.,16.9,97.,16.9,97.;                                243P    208
124,-6.12323399573677E-017,4.27583144589696E-031,-1.,-86.4,          245P    209
-6.98296267768627E-015,-1.,0.,194.,-1.,6.98296267768627E-015,        245P    210
6.12323399573677E-017,-86.4000000000007;                             245P    211
100,-100.,13.6,97.,19.1,97.,19.1,97.;                                247P    212
124,-6.12323399573677E-017,4.27583144589696E-031,-1.,-36.4,          249P    213
-6.98296267768627E-015,-1.,0.,194.,-1.,6.98296267768627E-015,        249P    214
6.12323399573677E-017,-36.4000000000007;                             249P    215
100,-50.,13.6,97.,16.9,97.,16.9,97.;                                 251P    216
124,-6.12323399573677E-017,4.27583144589696E-031,-1.,-36.4,          253P    217
-6.98296267768627E-015,-1.,0.,194.,-1.,6.98296267768627E-015,        253P    218
6.12323399573677E-017,-36.4000000000007;                             253P    219
100,-50.,13.6,97.,19.1,97.,19.1,97.;                                 255P    220
124,-6.12323399573677E-017,4.27583144589696E-031,-1.,13.6,           257P    221
-6.98296267768627E-015,-1.,0.,194.,-1.,6.98296267768627E-015,        257P    222
6.12323399573677E-017,13.5999999999993;                              257P    223
100,0.,13.6,97.,16.9,97.,16.9,97.;                                   259P    224
124,-6.12323399573677E-017,4.27583144589696E-031,-1.,13.6,           261P    225
-6.98296267768627E-015,-1.,0.,194.,-1.,6.98296267768627E-015,        261P    226
6.12323399573677E-017,13.5999999999993;                              261P    227
100,0.,13.6,97.,19.1,97.,19.1,97.;                                   263P    228
124,-6.12323399573677E-017,4.27583144589696E-031,-1.,63.6,           265P    229
-6.98296267768627E-015,-1.,0.,194.,-1.,6.98296267768627E-015,        265P    230
6.12323399573677E-017,63.5999999999993;                              265P    231
100,50.,13.6,97.,16.9,97.,16.9,97.;                                  267P    232
124,-6.12323399573677E-017,4.27583144589696E-031,-1.,63.6,           269P    233
-6.98296267768627E-015,-1.,0.,194.,-1.,6.98296267768627E-015,        269P    234
6.12323399573677E-017,63.5999999999993;                              269P    235
100,50.,13.6,97.,19.1,97.,19.1,97.;                                  271P    236
124,-6.12323399573677E-017,4.27583144589696E-031,-1.,113.6,          273P    237
-6.98296267768627E-015,-1.,0.,194.,-1.,6.98296267768627E-015,        273P    238
6.12323399573677E-017,113.599999999999;                              273P    239
100,100.,13.6,97.,16.9,97.,16.9,97.;                                 275P    240
124,-6.12323399573677E-017,4.27583144589696E-031,-1.,113.6,          277P    241
-6.98296267768627E-015,-1.,0.,194.,-1.,6.98296267768627E-015,        277P    242
6.12323399573677E-017,113.599999999999;                              277P    243
100,100.,13.6,97.,19.1,97.,19.1,97.;                                 279P    244
124,-6.12323399573677E-017,4.27583144589696E-031,-1.,163.6,          281P    245
-6.98296267768627E-015,-1.,0.,194.,-1.,6.98296267768627E-015,        281P    246
6.12323399573677E-017,163.599999999999;                              281P    247
100,150.,13.6,97.,16.9,97.,16.9,97.;                                 283P    248
124,-6.12323399573677E-017,4.27583144589696E-031,-1.,163.6,          285P    249
-6.98296267768627E-015,-1.,0.,194.,-1.,6.98296267768627E-015,        285P    250
6.12323399573677E-017,163.599999999999;                              285P    251
100,150.,13.6,97.,19.1,97.,19.1,97.;                                 287P    252
124,-6.12323399573677E-017,4.27583144589696E-031,-1.,-136.4,         289P    253
-6.98296267768627E-015,-1.,0.,-194.,-1.,6.98296267768627E-015,       289P    254
6.12323399573677E-017,-136.399999999999;                             289P    255
100,-150.,13.6,-97.,16.9,-97.,16.9,-97.;                             291P    256
124,-6.12323399573677E-017,4.27583144589696E-031,-1.,-136.4,         293P    257
-6.98296267768627E-015,-1.,0.,-194.,-1.,6.98296267768627E-015,       293P    258
6.12323399573677E-017,-136.399999999999;                             293P    259
100,-150.,13.6,-97.,19.1,-97.,19.1,-97.;                             295P    260
124,-6.12323399573677E-017,4.27583144589696E-031,-1.,-86.4,          297P    261
-6.98296267768627E-015,-1.,0.,-194.,-1.,6.98296267768627E-015,       297P    262
6.12323399573677E-017,-86.3999999999993;                             297P    263
100,-100.,13.6,-97.,16.9,-97.,16.9,-97.;                             299P    264
124,-6.12323399573677E-017,4.27583144589696E-031,-1.,-86.4,          301P    265
-6.98296267768627E-015,-1.,0.,-194.,-1.,6.98296267768627E-015,       301P    266
6.12323399573677E-017,-86.3999999999993;                             301P    267
100,-100.,13.6,-97.,19.1,-97.,19.1,-97.;                             303P    268
124,-6.12323399573677E-017,4.27583144589696E-031,-1.,-36.4,          305P    269
-6.98296267768627E-015,-1.,0.,-194.,-1.,6.98296267768627E-015,       305P    270
6.12323399573677E-017,-36.3999999999993;                             305P    271
100,-50.,13.6,-97.,16.9,-97.,16.9,-97.;                              307P    272
124,-6.12323399573677E-017,4.27583144589696E-031,-1.,-36.4,          309P    273
-6.98296267768627E-015,-1.,0.,-194.,-1.,6.98296267768627E-015,       309P    274
6.12323399573677E-017,-36.3999999999993;                             309P    275
100,-50.,13.6,-97.,19.1,-97.,19.1,-97.;                              311P    276
124,-6.12323399573677E-017,4.27583144589696E-031,-1.,13.6,           313P    277
-6.98296267768627E-015,-1.,0.,-194.,-1.,6.98296267768627E-015,       313P    278
6.12323399573677E-017,13.6000000000007;                              313P    279
100,0.,13.6,-97.,16.9,-97.,16.9,-97.;                                315P    280
124,-6.12323399573677E-017,4.27583144589696E-031,-1.,13.6,           317P    281
-6.98296267768627E-015,-1.,0.,-194.,-1.,6.98296267768627E-015,       317P    282
6.12323399573677E-017,13.6000000000007;                              317P    283
100,0.,13.6,-97.,19.1,-97.,19.1,-97.;                                319P    284
124,-6.12323399573677E-017,4.27583144589696E-031,-1.,63.6,           321P    285
-6.98296267768627E-015,-1.,0.,-194.,-1.,6.98296267768627E-015,       321P    286
6.12323399573677E-017,63.6000000000007;                              321P    287
100,50.,13.6,-97.,16.9,-97.,16.9,-97.;                               323P    288
124,-6.12323399573677E-017,4.27583144589696E-031,-1.,63.6,           325P    289
-6.98296267768627E-015,-1.,0.,-194.,-1.,6.98296267768627E-015,       325P    290
6.12323399573677E-017,63.6000000000007;                              325P    291
100,50.,13.6,-97.,19.1,-97.,19.1,-97.;                               327P    292
124,-6.12323399573677E-017,4.27583144589696E-031,-1.,113.6,          329P    293
-6.98296267768627E-015,-1.,0.,-194.,-1.,6.98296267768627E-015,       329P    294
6.12323399573677E-017,113.600000000001;                              329P    295
100,100.,13.6,-97.,16.9,-97.,16.9,-97.;                              331P    296
124,-6.12323399573677E-017,4.27583144589696E-031,-1.,113.6,          333P    297
-6.98296267768627E-015,-1.,0.,-194.,-1.,6.98296267768627E-015,       333P    298
6.12323399573677E-017,113.600000000001;                              333P    299
100,100.,13.6,-97.,19.1,-97.,19.1,-97.;                              335P    300
124,-6.12323399573677E-017,4.27583144589696E-031,-1.,163.6,          337P    301
-6.98296267768627E-015,-1.,0.,-194.,-1.,6.98296267768627E-015,       337P    302
6.12323399573677E-017,163.600000000001;                              337P    303
100,150.,13.6,-97.,16.9,-97.,16.9,-97.;                              339P    304
124,-6.12323399573677E-017,4.27583144589696E-031,-1.,163.6,          341P    305
-6.98296267768627E-015,-1.,0.,-194.,-1.,6.98296267768627E-015,       341P    306
6.12323399573677E-017,163.600000000001;                              341P    307
100,150.,13.6,-97.,19.1,-97.,19.1,-97.;                              343P    308
124,-6.12323399573677E-017,4.27583144589696E-031,-1.,-87.,           345P    309
-6.98296267768627E-015,-1.,0.,135.,-1.,6.98296267768627E-015,        345P    310
6.12323399573677E-017,-87.0000000000005;                             345P    311
100,-90.,3.,67.5,5.5,67.5,5.5,67.5;                                  347P    312
124,-6.12323399573677E-017,4.27583144589696E-031,-1.,                349P    313
-28.5432852445503,-6.98296267768627E-015,-1.,0.,                     349P    314
67.4999999999998,-1.,6.98296267768627E-015,                          349P    315
6.12323399573677E-017,-28.5432852445506;                             349P    316
100,-31.543285245,3.,33.75,5.5,33.75,5.5,33.75;                      351P    317
124,-6.12323399573677E-017,4.27583144589696E-031,-1.,                353P    318
-28.5432852445506,-6.98296267768627E-015,-1.,0.,                     353P    319
-67.5000000000005,-1.,6.98296267768627E-015,                         353P    320
6.12323399573677E-017,-28.5432852445503;                             353P    321
100,-31.543285245,3.,-33.75,5.5,-33.75,5.5,-33.75;                   355P    322
124,-6.12323399573677E-017,4.27583144589696E-031,-1.,-87.,           357P    323
-6.98296267768627E-015,-1.,0.,-135.,-1.,6.98296267768627E-015,       357P    324
6.12323399573677E-017,-86.9999999999995;                             357P    325
100,-90.,3.,-67.5,5.5,-67.5,5.5,-67.5;                               359P    326
124,-6.12323399573677E-017,4.27583144589696E-031,-1.,                361P    327
-145.45671475545,-6.98296267768627E-015,-1.,0.,                      361P    328
-67.4999999999989,-1.,6.98296267768627E-015,                         361P    329
6.12323399573677E-017,-145.45671475545;                              361P    330
100,-148.456714755,3.,-33.75,5.5,-33.75,5.5,-33.75;                  363P    331
124,-6.12323399573677E-017,4.27583144589696E-031,-1.,                365P    332
-145.456714755449,-6.98296267768627E-015,-1.,0.,                     365P    333
67.5000000000014,-1.,6.98296267768627E-015,                          365P    334
6.12323399573677E-017,-145.45671475545;                              365P    335
100,-148.456714755,3.,33.75,5.5,33.75,5.5,33.75;                     367P    336
S      1G      6D    368P    336                                        T      1
