
[Name]
S1 Inlet

[Spatial Fields]
radius

[Data]
radius [ m ],  Total Pressure [ kg m^-1 s^-2 ], Total Temperature [ K ], Velocity u, Velocity v, Velocity w
0.283718, 1590222.0, 1268.00,  0.3917E+02,  -0.5182E-01,  -0.3043E+00
0.284106, 1590222.0, 1287.59,  0.3932E+02,  -0.5933E-01,  -0.3540E+00
0.284401, 1590222.0, 1306.34,  0.3941E+02,  -0.7312E-01,  -0.4563E+00
0.284690, 1590222.0, 1324.37,  0.3950E+02,  -0.8943E-01,  -0.5651E+00
0.285000, 1590222.0, 1341.78,  0.3960E+02,  -0.1066E+00,  -0.6639E+00
0.285344, 1590222.0, 1358.59,  0.3971E+02,  -0.1241E+00,  -0.7528E+00
0.285719, 1590222.0, 1374.71,  0.3981E+02,  -0.1418E+00,  -0.8383E+00
0.286112, 1590222.0, 1389.90,  0.3993E+02,  -0.1595E+00,  -0.9276E+00
0.286515, 1590222.0, 1403.93,  0.4003E+02,  -0.1778E+00,  -0.1028E+01
0.286926, 1590222.0, 1416.61,  0.4014E+02,  -0.1979E+00,  -0.1146E+01
0.287352, 1590222.0, 1427.88,  0.4025E+02,  -0.2199E+00,  -0.1286E+01
0.287801, 1590222.0, 1437.83,  0.4036E+02,  -0.2436E+00,  -0.1448E+01
0.288281, 1590222.0, 1446.62,  0.4047E+02,  -0.2681E+00,  -0.1629E+01
0.288795, 1590222.0, 1454.45,  0.4057E+02,  -0.2926E+00,  -0.1822E+01
0.289343, 1590222.0, 1461.50,  0.4068E+02,  -0.3169E+00,  -0.2024E+01
0.289925, 1590222.0, 1467.92,  0.4078E+02,  -0.3410E+00,  -0.2230E+01
0.290541, 1590222.0, 1473.82,  0.4087E+02,  -0.3653E+00,  -0.2442E+01
0.291192, 1590222.0, 1479.30,  0.4095E+02,  -0.3903E+00,  -0.2661E+01
0.291881, 1590222.0, 1484.44,  0.4103E+02,  -0.4164E+00,  -0.2887E+01
0.292609, 1590222.0, 1489.32,  0.4108E+02,  -0.4438E+00,  -0.3121E+01
0.293377, 1590222.0, 1494.00,  0.4113E+02,  -0.4725E+00,  -0.3364E+01
0.294183, 1590222.0, 1498.54,  0.4116E+02,  -0.5032E+00,  -0.3616E+01
0.295022, 1590222.0, 1502.97,  0.4118E+02,  -0.5352E+00,  -0.3877E+01
0.295888, 1590222.0, 1507.33,  0.4119E+02,  -0.5684E+00,  -0.4148E+01
0.296776, 1590222.0, 1511.58,  0.4119E+02,  -0.6029E+00,  -0.4430E+01
0.297680, 1590222.0, 1515.70,  0.4118E+02,  -0.6382E+00,  -0.4729E+01
0.298599, 1590222.0, 1519.66,  0.4117E+02,  -0.6743E+00,  -0.5041E+01
0.299531, 1590222.0, 1523.43,  0.4114E+02,  -0.7112E+00,  -0.5360E+01
0.300476, 1590222.0, 1526.98,  0.4111E+02,  -0.7490E+00,  -0.5692E+01
0.301435, 1590222.0, 1530.32,  0.4107E+02,  -0.7876E+00,  -0.6033E+01
0.302411, 1590222.0, 1533.44,  0.4102E+02,  -0.8275E+00,  -0.6373E+01
0.303409, 1590222.0, 1536.35,  0.4096E+02,  -0.8678E+00,  -0.6718E+01
0.304435, 1590222.0, 1539.08,  0.4088E+02,  -0.9089E+00,  -0.7054E+01
0.305495, 1590222.0, 1541.64,  0.4079E+02,  -0.9496E+00,  -0.7386E+01
0.306598, 1590222.0, 1544.04,  0.4069E+02,  -0.9894E+00,  -0.7706E+01
0.307749, 1590222.0, 1546.29,  0.4056E+02,  -0.1029E+01,  -0.8013E+01
0.308947, 1590222.0, 1548.40,  0.4042E+02,  -0.1067E+01,  -0.8308E+01
0.310192, 1590222.0, 1550.35,  0.4025E+02,  -0.1105E+01,  -0.8590E+01
0.311477, 1590222.0, 1552.16,  0.4007E+02,  -0.1142E+01,  -0.8860E+01
0.312796, 1590222.0, 1553.81,  0.3987E+02,  -0.1178E+01,  -0.9126E+01
0.314144, 1590222.0, 1555.31,  0.3965E+02,  -0.1214E+01,  -0.9388E+01
0.315516, 1590222.0, 1556.65,  0.3941E+02,  -0.1249E+01,  -0.9649E+01
0.316906, 1590222.0, 1557.84,  0.3915E+02,  -0.1284E+01,  -0.9919E+01
0.318311, 1590222.0, 1558.86,  0.3886E+02,  -0.1318E+01,  -0.1019E+02
0.319725, 1590222.0, 1559.72,  0.3857E+02,  -0.1351E+01,  -0.1046E+02
0.321140, 1590222.0, 1560.43,  0.3826E+02,  -0.1383E+01,  -0.1074E+02
0.322547, 1590222.0, 1560.96,  0.3794E+02,  -0.1413E+01,  -0.1101E+02
0.323936, 1590222.0, 1561.34,  0.3762E+02,  -0.1442E+01,  -0.1128E+02
0.325298, 1590222.0, 1561.54,  0.3728E+02,  -0.1469E+01,  -0.1154E+02
0.326628, 1590222.0, 1561.57,  0.3695E+02,  -0.1494E+01,  -0.1179E+02
0.327924, 1590222.0, 1561.43,  0.3662E+02,  -0.1518E+01,  -0.1203E+02
0.329187, 1590222.0, 1561.13,  0.3629E+02,  -0.1541E+01,  -0.1227E+02
0.330421, 1590222.0, 1560.66,  0.3596E+02,  -0.1563E+01,  -0.1251E+02
0.331632, 1590222.0, 1560.02,  0.3564E+02,  -0.1585E+01,  -0.1273E+02
0.332824, 1590222.0, 1559.22,  0.3531E+02,  -0.1606E+01,  -0.1297E+02
0.333999, 1590222.0, 1558.27,  0.3498E+02,  -0.1626E+01,  -0.1319E+02
0.335156, 1590222.0, 1557.19,  0.3466E+02,  -0.1647E+01,  -0.1342E+02
0.336292, 1590222.0, 1555.97,  0.3434E+02,  -0.1667E+01,  -0.1364E+02
0.337401, 1590222.0, 1554.65,  0.3403E+02,  -0.1687E+01,  -0.1384E+02
0.338478, 1590222.0, 1553.22,  0.3372E+02,  -0.1707E+01,  -0.1404E+02
0.339519, 1590222.0, 1551.71,  0.3343E+02,  -0.1727E+01,  -0.1423E+02
0.340521, 1590222.0, 1550.12,  0.3314E+02,  -0.1746E+01,  -0.1440E+02
0.341483, 1590222.0, 1548.45,  0.3287E+02,  -0.1764E+01,  -0.1456E+02
0.342404, 1590222.0, 1546.72,  0.3260E+02,  -0.1782E+01,  -0.1471E+02
0.343285, 1590222.0, 1544.91,  0.3235E+02,  -0.1798E+01,  -0.1486E+02
0.344124, 1590222.0, 1543.04,  0.3211E+02,  -0.1814E+01,  -0.1500E+02
0.344924, 1590222.0, 1541.11,  0.3187E+02,  -0.1828E+01,  -0.1513E+02
0.345686, 1590222.0, 1539.14,  0.3165E+02,  -0.1840E+01,  -0.1525E+02
0.346414, 1590222.0, 1537.14,  0.3144E+02,  -0.1852E+01,  -0.1537E+02
0.347116, 1590222.0, 1535.12,  0.3124E+02,  -0.1863E+01,  -0.1547E+02
0.347798, 1590222.0, 1533.07,  0.3103E+02,  -0.1872E+01,  -0.1557E+02
0.348471, 1590222.0, 1530.98,  0.3083E+02,  -0.1881E+01,  -0.1565E+02
0.349142, 1590222.0, 1528.84,  0.3063E+02,  -0.1890E+01,  -0.1573E+02
0.349818, 1590222.0, 1526.63,  0.3043E+02,  -0.1897E+01,  -0.1579E+02
0.350501, 1590222.0, 1524.32,  0.3022E+02,  -0.1904E+01,  -0.1585E+02
0.351193, 1590222.0, 1521.92,  0.3001E+02,  -0.1910E+01,  -0.1590E+02
0.351889, 1590222.0, 1519.39,  0.2979E+02,  -0.1916E+01,  -0.1595E+02
0.352582, 1590222.0, 1516.74,  0.2957E+02,  -0.1920E+01,  -0.1600E+02
0.353264, 1590222.0, 1513.97,  0.2936E+02,  -0.1924E+01,  -0.1604E+02
0.353926, 1590222.0, 1511.05,  0.2915E+02,  -0.1927E+01,  -0.1608E+02
0.354562, 1590222.0, 1507.98,  0.2894E+02,  -0.1929E+01,  -0.1612E+02
0.355166, 1590222.0, 1504.74,  0.2874E+02,  -0.1932E+01,  -0.1615E+02
0.355735, 1590222.0, 1501.27,  0.2855E+02,  -0.1933E+01,  -0.1618E+02
0.356271, 1590222.0, 1497.54,  0.2837E+02,  -0.1934E+01,  -0.1621E+02
0.356780, 1590222.0, 1493.48,  0.2820E+02,  -0.1935E+01,  -0.1624E+02
0.357272, 1590222.0, 1489.03,  0.2803E+02,  -0.1936E+01,  -0.1626E+02
0.357761, 1590222.0, 1484.14,  0.2786E+02,  -0.1936E+01,  -0.1629E+02
0.358256, 1590222.0, 1478.78,  0.2768E+02,  -0.1936E+01,  -0.1630E+02
0.358761, 1590222.0, 1472.94,  0.2749E+02,  -0.1936E+01,  -0.1632E+02
0.359268, 1590222.0, 1466.65,  0.2731E+02,  -0.1936E+01,  -0.1633E+02
0.359761, 1590222.0, 1459.94,  0.2713E+02,  -0.1936E+01,  -0.1635E+02
0.360224, 1590222.0, 1452.84,  0.2695E+02,  -0.1936E+01,  -0.1638E+02
0.360646, 1590222.0, 1445.36,  0.2679E+02,  -0.1935E+01,  -0.1643E+02
0.361025, 1590222.0, 1437.52,  0.2665E+02,  -0.1935E+01,  -0.1653E+02
0.361369, 1590222.0, 1429.31,  0.2651E+02,  -0.1935E+01,  -0.1671E+02
0.361690, 1590222.0, 1420.75,  0.2642E+02,  -0.1939E+01,  -0.1697E+02
0.362010, 1590222.0, 1411.78,  0.2639E+02,  -0.1954E+01,  -0.1728E+02
0.362354, 1590222.0, 1402.07,  0.2658E+02,  -0.1993E+01,  -0.1754E+02
0.362743, 1590222.0, 1390.67,  0.2732E+02,  -0.2076E+01,  -0.1769E+02
0.363090, 1590222.0, 1378.00,  0.2907E+02,  -0.2264E+01,  -0.1779E+02
