SolidWorks IGES file using analytic representation for surfaces         S      1
1H,,1H;,59HC003-17001-121-03 REV 2 Vane Holder Exit Hub Endwall.SLDPRT, G      1
107HW:\Projects\C003\CAD\For Manufacturing\Exit Shroud\C003-17001-121-03G      2
 REV 2 Vane Holder Exit Hub Endwall.IGS,15HSolidWorks 2016,15HSolidWorksG      3
 2016,32,308,15,308,15,59HC003-17001-121-03 REV 2 Vane Holder Exit Hub EG      4
ndwall.SLDPRT,1.,2,2HMM,50,0.125,13H170713.112159,1E-008,499990.,8Hengs1G      5
478,,11,0,13H170713.112159;                                             G      6
     124       1       0       0       0                        00000000D      1
     124       0       0       1       0                               0D      2
     110       2       0       0       0               1        00020000D      3
     110       0       0       1       0                               0D      4
     110       3       0       0       0               1        00020000D      5
     110       0       0       1       0                               0D      6
     110       4       0       0       0               1        00020000D      7
     110       0       0       1       0                               0D      8
     110       5       0       0       0               1        00020000D      9
     110       0       0       1       0                               0D     10
     116       6       0       0       0               1        00020000D     11
     116       0       0       1       0                               0D     12
     402       7       0       0       0                        00000000D     13
     402       0       0       1      16                2DSKETCH       1D     14
     124       8       0       0       0                        00000000D     15
     124       0       0       2       0                               0D     16
     110      10       0       0       0              15        00020000D     17
     110       0       0       1       0                               0D     18
     116      11       0       0       0              15        00020000D     19
     116       0       0       1       0                               0D     20
     116      12       0       0       0              15        00020000D     21
     116       0       0       1       0                               0D     22
     116      13       0       0       0              15        00020000D     23
     116       0       0       1       0                               0D     24
     116      14       0       0       0              15        00020000D     25
     116       0       0       1       0                               0D     26
     116      15       0       0       0              15        00020000D     27
     116       0       0       1       0                               0D     28
     116      16       0       0       0              15        00020000D     29
     116       0       0       1       0                               0D     30
     116      17       0       0       0              15        00020000D     31
     116       0       0       1       0                               0D     32
     116      18       0       0       0              15        00020000D     33
     116       0       0       1       0                               0D     34
     116      19       0       0       0              15        00020000D     35
     116       0       0       1       0                               0D     36
     116      20       0       0       0              15        00020000D     37
     116       0       0       1       0                               0D     38
     116      21       0       0       0              15        00020000D     39
     116       0       0       1       0                               0D     40
     402      22       0       0       0                        00000000D     41
     402       0       0       1      16                2DSKETCH       2D     42
     124      23       0       0       0                        00000000D     43
     124       0       0       2       0                               0D     44
     110      25       0       0       0              43        00020000D     45
     110       0       0       1       0                               0D     46
     110      26       0       0       0              43        00020000D     47
     110       0       0       1       0                               0D     48
     110      27       0       0       0              43        00020000D     49
     110       0       0       1       0                               0D     50
     110      28       0       0       0              43        00020000D     51
     110       0       0       1       0                               0D     52
     402      29       0       0       0                        00000000D     53
     402       0       0       1      16                2DSKETCH       3D     54
     124      30       0       0       0                        00000000D     55
     124       0       0       1       0                               0D     56
     110      31       0       0       0              55        00020000D     57
     110       0       0       1       0                               0D     58
     110      32       0       0       0              55        00020000D     59
     110       0       0       1       0                               0D     60
     100      33       0       0       0              55        00020000D     61
     100       0       0       2       0                               0D     62
     100      35       0       0       0              55        00020000D     63
     100       0       0       2       0                               0D     64
     100      37       0       0       0              55        00020000D     65
     100       0       0       2       0                               0D     66
     100      39       0       0       0              55        00020000D     67
     100       0       0       2       0                               0D     68
     100      41       0       0       0              55        00020000D     69
     100       0       0       2       0                               0D     70
     100      43       0       0       0              55        00020000D     71
     100       0       0       2       0                               0D     72
     116      45       0       0       0              55        00020000D     73
     116       0       0       1       0                               0D     74
     116      46       0       0       0              55        00020000D     75
     116       0       0       1       0                               0D     76
     116      47       0       0       0              55        00020000D     77
     116       0       0       1       0                               0D     78
     402      48       0       0       0                        00000000D     79
     402       0       0       1      16                2DSKETCH       4D     80
     314      49       0       0       0                        00000200D     81
     314       0       8       1       0                               0D     82
     110      50       0       0       0                        00000000D     83
     110       0       0       1       0                               0D     84
     110      51       0       0       0                        00000000D     85
     110       0       0       1       0                               0D     86
     110      52       0       0       0                        00000000D     87
     110       0       0       1       0                               0D     88
     110      53       0       0       0                        00000000D     89
     110       0       0       1       0                               0D     90
     100      54       0       0       0                        00000000D     91
     100       0       0       1       0                               0D     92
     100      55       0       0       0                        00000000D     93
     100       0       0       1       0                               0D     94
     110      56       0       0       0                        00000000D     95
     110       0       0       1       0                               0D     96
     110      57       0       0       0                        00000000D     97
     110       0       0       1       0                               0D     98
     110      58       0       0       0                        00000000D     99
     110       0       0       1       0                               0D    100
     110      59       0       0       0                        00000000D    101
     110       0       0       1       0                               0D    102
     110      60       0       0       0                        00000000D    103
     110       0       0       1       0                               0D    104
     110      61       0       0       0                        00000000D    105
     110       0       0       1       0                               0D    106
     110      62       0       0       0                        00000000D    107
     110       0       0       1       0                               0D    108
     110      63       0       0       0                        00000000D    109
     110       0       0       1       0                               0D    110
     110      64       0       0       0                        00000000D    111
     110       0       0       1       0                               0D    112
     110      65       0       0       0                        00000000D    113
     110       0       0       1       0                               0D    114
     110      66       0       0       0                        00000000D    115
     110       0       0       1       0                               0D    116
     110      67       0       0       0                        00000000D    117
     110       0       0       1       0                               0D    118
     100      68       0       0       0                        00000000D    119
     100       0       0       1       0                               0D    120
     100      69       0       0       0                        00000000D    121
     100       0       0       1       0                               0D    122
     100      70       0       0       0                        00000000D    123
     100       0       0       1       0                               0D    124
     100      71       0       0       0                        00000000D    125
     100       0       0       1       0                               0D    126
     100      72       0       0       0                        00000000D    127
     100       0       0       1       0                               0D    128
     100      73       0       0       0                        00000000D    129
     100       0       0       1       0                               0D    130
     100      74       0       0       0                        00000000D    131
     100       0       0       1       0                               0D    132
     100      75       0       0       0                        00000000D    133
     100       0       0       1       0                               0D    134
     100      76       0       0       0                        00000000D    135
     100       0       0       1       0                               0D    136
     110      77       0       0       0                        00000000D    137
     110       0       0       1       0                               0D    138
     124      78       0       0       0                        00000000D    139
     124       0       0       2       0                               0D    140
     100      80       0       0       0             139        00000000D    141
     100       0       0       1       0                               0D    142
     110      81       0       0       0                        00000000D    143
     110       0       0       1       0                               0D    144
     124      82       0       0       0                        00000000D    145
     124       0       0       3       0                               0D    146
     100      85       0       0       0             145        00000000D    147
     100       0       0       1       0                               0D    148
     110      86       0       0       0                        00000000D    149
     110       0       0       1       0                               0D    150
     124      87       0       0       0                        00000000D    151
     124       0       0       2       0                               0D    152
     100      89       0       0       0             151        00000000D    153
     100       0       0       1       0                               0D    154
     124      90       0       0       0                        00000000D    155
     124       0       0       3       0                               0D    156
     100      93       0       0       0             155        00000000D    157
     100       0       0       1       0                               0D    158
     124      94       0       0       0                        00000000D    159
     124       0       0       4       0                               0D    160
     100      98       0       0       0             159        00000000D    161
     100       0       0       2       0                               0D    162
     124     100       0       0       0                        00000000D    163
     124       0       0       4       0                               0D    164
     100     104       0       0       0             163        00000000D    165
     100       0       0       1       0                               0D    166
     124     105       0       0       0                        00000000D    167
     124       0       0       4       0                               0D    168
     100     109       0       0       0             167        00000000D    169
     100       0       0       1       0                               0D    170
     124     110       0       0       0                        00000000D    171
     124       0       0       3       0                               0D    172
     100     113       0       0       0             171        00000000D    173
     100       0       0       1       0                               0D    174
     124     114       0       0       0                        00000000D    175
     124       0       0       3       0                               0D    176
     100     117       0       0       0             175        00000000D    177
     100       0       0       1       0                               0D    178
     110     118       0       0       0                        00000000D    179
     110       0       0       1       0                               0D    180
     124     119       0       0       0                        00000000D    181
     124       0       0       2       0                               0D    182
     100     121       0       0       0             181        00000000D    183
     100       0       0       1       0                               0D    184
     124     122       0       0       0                        00000000D    185
     124       0       0       3       0                               0D    186
     100     125       0       0       0             185        00000000D    187
     100       0       0       1       0                               0D    188
     110     126       0       0       0                        00000000D    189
     110       0       0       1       0                               0D    190
     124     127       0       0       0                        00000000D    191
     124       0       0       2       0                               0D    192
     100     129       0       0       0             191        00000000D    193
     100       0       0       1       0                               0D    194
     110     130       0       0       0                        00000000D    195
     110       0       0       1       0                               0D    196
     124     131       0       0       0                        00000000D    197
     124       0       0       4       0                               0D    198
     100     135       0       0       0             197        00000000D    199
     100       0       0       1       0                               0D    200
     124     136       0       0       0                        00000000D    201
     124       0       0       3       0                               0D    202
     100     139       0       0       0             201        00000000D    203
     100       0       0       1       0                               0D    204
     124     140       0       0       0                        00000000D    205
     124       0       0       4       0                               0D    206
     100     144       0       0       0             205        00000000D    207
     100       0       0       2       0                               0D    208
     124     146       0       0       0                        00000000D    209
     124       0       0       4       0                               0D    210
     100     150       0       0       0             209        00000000D    211
     100       0       0       1       0                               0D    212
     100     151       0       0       0                        00000000D    213
     100       0       0       1       0                               0D    214
     100     152       0       0       0                        00000000D    215
     100       0       0       1       0                               0D    216
     100     153       0       0       0                        00000000D    217
     100       0       0       1       0                               0D    218
     100     154       0       0       0                        00000000D    219
     100       0       0       1       0                               0D    220
     100     155       0       0       0                        00000000D    221
     100       0       0       1       0                               0D    222
     100     156       0       0       0                        00000000D    223
     100       0       0       1       0                               0D    224
     100     157       0       0       0                        00000000D    225
     100       0       0       1       0                               0D    226
     100     158       0       0       0                        00000000D    227
     100       0       0       1       0                               0D    228
     100     159       0       0       0                        00000000D    229
     100       0       0       1       0                               0D    230
     100     160       0       0       0                        00000000D    231
     100       0       0       1       0                               0D    232
     100     161       0       0       0                        00000000D    233
     100       0       0       1       0                               0D    234
     110     162       0       0       0                        00000000D    235
     110       0       0       1       0                               0D    236
     110     163       0       0       0                        00000000D    237
     110       0       0       1       0                               0D    238
     110     164       0       0       0                        00000000D    239
     110       0       0       1       0                               0D    240
     110     165       0       0       0                        00000000D    241
     110       0       0       1       0                               0D    242
     110     166       0       0       0                        00000000D    243
     110       0       0       1       0                               0D    244
     110     167       0       0       0                        00000000D    245
     110       0       0       1       0                               0D    246
     110     168       0       0       0                        00000000D    247
     110       0       0       1       0                               0D    248
     110     169       0       0       0                        00000000D    249
     110       0       0       2       0                               0D    250
     110     171       0       0       0                        00000000D    251
     110       0       0       1       0                               0D    252
     110     172       0       0       0                        00000000D    253
     110       0       0       1       0                               0D    254
124,1.,0.,0.,0.,0.,0.,1.,0.,0.,-1.,0.,0.;                              1P      1
110,-450.,50.,0.,-350.,-50.,0.;                                        3P      2
110,-450.,50.,0.,450.,50.,0.;                                          5P      3
110,-350.,-50.,0.,550.,-50.,0.;                                        7P      4
110,450.,50.,0.,550.,-50.,0.;                                          9P      5
116,0.,0.,0.,;                                                        11P      6
402,1,5,1,3,5,7,9,11;                                                 13P      7
124,-1.,0.,7.70988211545248E-018,3.85494105772624E-016,0.,1.,         15P      8
0.,0.,-7.70988211545248E-018,0.,-1.,-50.;                             15P      9
110,450.,5.,0.,-450.,5.,0.;                                           17P     10
116,420.,5.,0.,;                                                      19P     11
116,380.,5.,0.,;                                                      21P     12
116,400.,5.,0.,;                                                      23P     13
116,360.,5.,0.,;                                                      25P     14
116,340.,5.,0.,;                                                      27P     15
116,320.,5.,0.,;                                                      29P     16
116,300.,5.,0.,;                                                      31P     17
116,280.,5.,0.,;                                                      33P     18
116,260.,5.,0.,;                                                      35P     19
116,-420.,5.,0.,;                                                     37P     20
116,-400.,5.,0.,;                                                     39P     21
402,1,12,15,17,19,21,23,25,27,29,31,33,35,37,39;                      41P     22
124,-1.,0.,7.70988211545248E-018,3.85494105772624E-016,0.,1.,         43P     23
0.,0.,-7.70988211545248E-018,0.,-1.,-50.;                             43P     24
110,-375.,10.,0.,224.,10.,0.;                                         45P     25
110,-375.,10.,0.,-375.,0.,0.;                                         47P     26
110,-375.,0.,0.,224.,0.,0.;                                           49P     27
110,224.,10.,0.,224.,0.,0.;                                           51P     28
402,1,4,43,45,47,49,51;                                               53P     29
124,1.,0.,0.,0.,0.,0.,1.,10.,0.,-1.,0.,0.;                            55P     30
110,279.73,77.91,0.,412.991892152,35.,0.;                             57P     31
110,279.73,77.91,0.,397.345178065,1.971407119,0.;                     59P     32
100,0.,279.73,77.91,397.345178065,1.971407119,412.991892152,          61P     33
35.;                                                                  61P     34
100,0.,279.73,77.91,397.345178065,1.971407119,412.991892152,          63P     35
35.;                                                                  63P     36
100,0.,279.73,77.91,399.025394894,0.886570077,414.895633469,          65P     37
34.387;                                                               65P     38
100,0.,279.73,77.91,395.664961235,3.05624416,411.088150836,           67P     39
35.613;                                                               67P     40
100,0.,397.345178065,1.971407119,395.664961235,3.05624416,            69P     41
399.025394894,0.886570077;                                            69P     42
100,0.,412.991892152,35.,414.895633469,34.387,411.088150836,          71P     43
35.613;                                                               71P     44
116,279.73,77.91,0.,;                                                 73P     45
116,406.250939283,17.972933648,0.,;                                   75P     46
116,406.250939283,17.972933648,0.,;                                   77P     47
402,1,11,55,57,59,61,63,65,67,69,71,73,75,77;                         79P     48
314,79.2156862745098,81.9607843137255,93.3333333333333,;              81P     49
110,450.,0.,-50.,376.,0.,-50.;                                        83P     50
110,376.,0.,-50.,376.,10.,-50.;                                       85P     51
110,376.,10.,-50.,450.,10.,-50.;                                      87P     52
110,450.,10.,-50.,450.,0.,-50.;                                       89P     53
100,-50.,400.,5.,397.9,5.,397.9,5.;                                   91P     54
100,-50.,420.,5.,417.9,5.,417.9,5.;                                   93P     55
110,-450.,0.,-50.,-450.,10.,-50.;                                     95P     56
110,-450.,10.,-50.,-350.,10.,50.;                                     97P     57
110,-350.,10.,50.,-350.,0.,50.;                                       99P     58
110,-350.,0.,50.,-450.,0.,-50.;                                      101P     59
110,-350.,10.,50.,550.,10.,50.;                                      103P     60
110,550.,10.,50.,550.,0.,50.;                                        105P     61
110,550.,0.,50.,-350.,0.,50.;                                        107P     62
110,550.,0.,50.,450.,0.,-50.;                                        109P     63
110,450.,10.,-50.,550.,10.,50.;                                      111P     64
110,-450.,10.,-50.,-225.,10.,-50.;                                   113P     65
110,-225.,10.,-50.,-225.,0.,-50.;                                    115P     66
110,-225.,0.,-50.,-450.,0.,-50.;                                     117P     67
100,-50.,-420.,5.,-422.1,5.,-422.1,5.;                               119P     68
100,-50.,-400.,5.,-402.1,5.,-402.1,5.;                               121P     69
100,-50.,-380.,5.,-382.1,5.,-382.1,5.;                               123P     70
100,-50.,-360.,5.,-362.1,5.,-362.1,5.;                               125P     71
100,-50.,-340.,5.,-342.1,5.,-342.1,5.;                               127P     72
100,-50.,-320.,5.,-322.1,5.,-322.1,5.;                               129P     73
100,-50.,-300.,5.,-302.1,5.,-302.1,5.;                               131P     74
100,-50.,-280.,5.,-282.1,5.,-282.1,5.;                               133P     75
100,-50.,-260.,5.,-262.1,5.,-262.1,5.;                               135P     76
110,375.,10.,-51.,375.,10.,-53.;                                     137P     77
124,1.,0.,0.,0.,0.,6.12323399573677E-017,1.,63.,0.,-1.,              139P     78
6.12323399573677E-017,-43.;                                          139P     79
100,-53.,374.,10.,375.,10.,374.,11.;                                 141P     80
110,374.,10.,-54.,-223.,10.,-54.;                                    143P     81
124,6.12323399573677E-017,-1.,0.,-213.,6.12323399573677E-017,        145P     82
3.74939945665464E-033,1.,63.,-1.,-6.12323399573677E-017,             145P     83
6.12323399573677E-017,-276.;                                         145P     84
100,-53.,-223.,10.,-222.,10.,-223.,11.;                              147P     85
110,-224.,10.,-53.,-224.,10.,-51.;                                   149P     86
124,1.,0.,0.,0.,0.,6.12323399573677E-017,-1.,-41.,0.,1.,             151P     87
6.12323399573677E-017,-61.;                                          151P     88
100,-51.,-225.,10.,-224.,10.,-225.,11.;                              153P     89
124,6.12323399573677E-017,-1.,0.,386.,6.12323399573677E-017,         155P     90
3.74939945665464E-033,-1.,-41.,1.,6.12323399573677E-017,             155P     91
6.12323399573677E-017,-427.;                                         155P     92
100,-51.,376.,10.,377.,10.,376.,11.;                                 157P     93
124,0.840108414747605,-0.542418520581908,0.,68.9563356189737,        159P     94
3.32135552514438E-017,5.14418040528706E-017,-1.,                     159P     95
8.02859288146659,0.542418520581908,0.840108414747605,                159P     96
6.12323399573677E-017,-225.8998749122;                               159P     97
100,-1.971407119,397.345178065,10.,399.345178065,10.,                161P     98
395.345178065,10.;                                                   161P     99
124,0.840108414747616,0.542418520581892,0.,39.3022879368307,         163P    100
-3.32135552514428E-017,5.14418040528712E-017,1.,87.91,               163P    101
0.542418520581892,-0.840108414747616,6.12323399573677E-017,          163P    102
-221.239648614897;                                                   163P    103
100,-77.91,279.73,10.,417.73,10.,413.027764028,45.717028224;         165P    104
124,-0.951870658230407,0.306500000000019,0.,803.04175637905,         167P    105
-1.87677121969343E-017,-5.82852677402076E-017,-1.,                   167P    106
-24.9999999999999,-0.306500000000019,-0.951870658230407,             167P    107
6.12323399573677E-017,101.100721526979;                              167P    108
100,-35.,412.991892152,10.,414.991892152,10.,410.991892152,10.;      169P    109
124,0.951870658230413,-0.3065,0.,16.5282207732065,                   171P    110
1.87677121969332E-017,5.8285267740208E-017,-1.,-67.91,0.3065,        171P    111
0.951870658230413,6.12323399573677E-017,-173.165951582304;           171P    112
100,-77.91,279.73,10.,421.73,10.,416.891467333,46.752304405;         173P    113
124,2.78168079555863E-014,-1.,0.,-222.999999999993,                  175P    114
6.12323399573677E-017,1.70328824126527E-030,1.,53.,-1.,              175P    115
-2.78168079555863E-014,6.12323399573677E-017,-276.;                  175P    116
100,-53.,-223.,0.,-222.,0.,-223.,1.;                                 177P    117
110,-224.,0.,-53.,-224.,0.,-51.;                                     179P    118
124,1.,0.,0.,0.,0.,6.12323399573677E-017,-1.,-51.,0.,1.,             181P    119
6.12323399573677E-017,-51.;                                          181P    120
100,-51.,-225.,0.,-224.,0.,-225.,1.;                                 183P    121
124,5.55723835712152E-014,-1.,0.,375.99999999998,                    185P    122
6.12323399573677E-017,3.40282708307388E-030,-1.,-51.,1.,             185P    123
5.55723835712152E-014,6.12323399573677E-017,-427.;                   185P    124
100,-51.,376.,0.,377.,0.,376.,1.;                                    187P    125
110,375.,0.,-51.,375.,0.,-53.;                                       189P    126
124,1.,0.,0.,0.,0.,6.12323399573677E-017,1.,53.,0.,-1.,              191P    127
6.12323399573677E-017,-53.;                                          191P    128
100,-53.,374.,0.,375.,0.,374.,1.;                                    193P    129
110,374.,0.,-54.,-223.,0.,-54.;                                      195P    130
124,-0.951870658230407,0.306500000000019,0.,806.10675637905,         197P    131
-1.87677121969343E-017,-5.82852677402076E-017,-1.,                   197P    132
-34.9999999999999,-0.306500000000019,-0.951870658230407,             197P    133
6.12323399573677E-017,91.5820149446751;                              197P    134
100,-35.,412.991892152,0.,414.991892152,0.,410.991892152,0.;         199P    135
124,0.951870658230413,-0.3065,0.,13.4632207732065,                   201P    136
1.87677121969332E-017,5.8285267740208E-017,-1.,-77.91,0.3065,        201P    137
0.951870658230413,6.12323399573677E-017,-163.647245;                 201P    138
100,-77.91,279.73,0.,421.73,0.,416.891467333,36.752304405;           203P    139
124,0.840108414747608,-0.542418520581903,0.,63.5321504131533,        205P    140
3.32135552514435E-017,5.14418040528708E-017,-1.,                     205P    141
-1.97140711853341,0.542418520581903,0.840108414747608,               205P    142
6.12323399573677E-017,-217.498790764722;                             205P    143
100,-1.971407119,397.345178065,0.,399.345178065,0.,                  207P    144
395.345178065,0.;                                                    207P    145
124,0.840108414747616,0.542418520581892,0.,44.7264731426496,         209P    146
-3.32135552514428E-017,5.14418040528712E-017,1.,77.91,               209P    147
0.542418520581892,-0.840108414747616,6.12323399573677E-017,          209P    148
-229.640732762373;                                                   209P    149
100,-77.91,279.73,0.,417.73,0.,413.027764028,35.717028224;           211P    150
100,-37.6,-260.,5.,-262.1,5.,-262.1,5.;                              213P    151
100,-37.6,-280.,5.,-282.1,5.,-282.1,5.;                              215P    152
100,-37.6,-300.,5.,-302.1,5.,-302.1,5.;                              217P    153
100,-37.6,-320.,5.,-322.1,5.,-322.1,5.;                              219P    154
100,-37.6,-340.,5.,-342.1,5.,-342.1,5.;                              221P    155
100,-37.6,-360.,5.,-362.1,5.,-362.1,5.;                              223P    156
100,-37.6,-380.,5.,-382.1,5.,-382.1,5.;                              225P    157
100,-37.6,-400.,5.,-402.1,5.,-402.1,5.;                              227P    158
100,-37.6,-420.,5.,-422.1,5.,-422.1,5.;                              229P    159
100,-37.6,400.,5.,397.9,5.,397.9,5.;                                 231P    160
100,-37.6,420.,5.,417.9,5.,417.9,5.;                                 233P    161
110,375.,0.,-51.,375.,10.,-51.;                                      235P    162
110,375.,10.,-53.,375.,0.,-53.;                                      237P    163
110,-224.,10.,-51.,-224.,0.,-51.;                                    239P    164
110,-224.,0.,-53.,-224.,10.,-53.;                                    241P    165
110,374.,10.,-54.,374.,0.,-54.;                                      243P    166
110,-223.,0.,-54.,-223.,10.,-54.;                                    245P    167
110,395.664961235,10.,-3.05624416,395.664961235,0.,-3.05624416;      247P    168
110,399.025394894,0.,-0.886570077,399.025394894,10.,                 249P    169
-0.886570077;                                                        249P    170
110,411.088150836,0.,-35.613,411.088150836,10.,-35.613;              251P    171
110,414.895633469,10.,-34.387,414.895633469,0.,-34.387;              253P    172
S      1G      6D    254P    172                                        T      1
