SolidWorks IGES file using analytic representation for surfaces         S      1
1H,,1H;,56HC003-17001-121-05 Exit Shroud Right Strap REV 1.0.SLDPRT,    G      1
104HW:\Projects\C003\CAD\For Manufacturing\Exit Shroud\C003-17001-121-05G      2
 Exit Shroud Right Strap REV 1.0.IGS,15HSolidWorks 2016,15HSolidWorks 20G      3
16,32,308,15,308,15,56HC003-17001-121-05 Exit Shroud Right Strap REV 1.0G      4
.SLDPRT,1.,2,2HMM,50,0.125,13H170713.112112,1E-008,499990.,8Hengs1478,, G      5
11,0,13H170713.112112;                                                  G      6
     124       1       0       0       0                        00000000D      1
     124       0       0       1       0                               0D      2
     110       2       0       0       0               1        00020000D      3
     110       0       0       1       0                               0D      4
     110       3       0       0       0               1        00020000D      5
     110       0       0       1       0                               0D      6
     110       4       0       0       0               1        00020000D      7
     110       0       0       1       0                               0D      8
     110       5       0       0       0               1        00020000D      9
     110       0       0       1       0                               0D     10
     110       6       0       0       0               1        00020000D     11
     110       0       0       1       0                               0D     12
     110       7       0       0       0               1        00020000D     13
     110       0       0       1       0                               0D     14
     116       8       0       0       0               1        00020000D     15
     116       0       0       1       0                               0D     16
     402       9       0       0       0                        00000000D     17
     402       0       0       1      16                2DSKETCH       1D     18
     124      10       0       0       0                        00000000D     19
     124       0       0       1       0                               0D     20
     110      11       0       0       0              19        00020000D     21
     110       0       0       1       0                               0D     22
     110      12       0       0       0              19        00020000D     23
     110       0       0       1       0                               0D     24
     110      13       0       0       0              19        00020000D     25
     110       0       0       1       0                               0D     26
     110      14       0       0       0              19        00020000D     27
     110       0       0       1       0                               0D     28
     100      15       0       0       0              19        00020000D     29
     100       0       0       2       0                               0D     30
     100      17       0       0       0              19        00020000D     31
     100       0       0       2       0                               0D     32
     100      19       0       0       0              19        00020000D     33
     100       0       0       2       0                               0D     34
     402      21       0       0       0                        00000000D     35
     402       0       0       1      16                2DSKETCH       2D     36
     124      22       0       0       0                        00000000D     37
     124       0       0       1       0                               0D     38
     110      23       0       0       0              37        00020000D     39
     110       0       0       1       0                               0D     40
     110      24       0       0       0              37        00020000D     41
     110       0       0       1       0                               0D     42
     110      25       0       0       0              37        00020000D     43
     110       0       0       1       0                               0D     44
     116      26       0       0       0              37        00020000D     45
     116       0       0       1       0                               0D     46
     116      27       0       0       0              37        00020000D     47
     116       0       0       1       0                               0D     48
     116      28       0       0       0              37        00020000D     49
     116       0       0       1       0                               0D     50
     116      29       0       0       0              37        00020000D     51
     116       0       0       1       0                               0D     52
     116      30       0       0       0              37        00020000D     53
     116       0       0       1       0                               0D     54
     116      31       0       0       0              37        00020000D     55
     116       0       0       1       0                               0D     56
     116      32       0       0       0              37        00020000D     57
     116       0       0       1       0                               0D     58
     116      33       0       0       0              37        00020000D     59
     116       0       0       1       0                               0D     60
     116      34       0       0       0              37        00020000D     61
     116       0       0       1       0                               0D     62
     116      35       0       0       0              37        00020000D     63
     116       0       0       1       0                               0D     64
     116      36       0       0       0              37        00020000D     65
     116       0       0       1       0                               0D     66
     116      37       0       0       0              37        00020000D     67
     116       0       0       1       0                               0D     68
     116      38       0       0       0              37        00020000D     69
     116       0       0       1       0                               0D     70
     116      39       0       0       0              37        00020000D     71
     116       0       0       1       0                               0D     72
     116      40       0       0       0              37        00020000D     73
     116       0       0       1       0                               0D     74
     116      41       0       0       0              37        00020000D     75
     116       0       0       1       0                               0D     76
     116      42       0       0       0              37        00020000D     77
     116       0       0       1       0                               0D     78
     116      43       0       0       0              37        00020000D     79
     116       0       0       1       0                               0D     80
     116      44       0       0       0              37        00020000D     81
     116       0       0       1       0                               0D     82
     116      45       0       0       0              37        00020000D     83
     116       0       0       1       0                               0D     84
     402      46       0       0       0                        00000000D     85
     402       0       0       2      16                2DSKETCH       3D     86
     124      48       0       0       0                        00000000D     87
     124       0       0       1       0                               0D     88
     110      49       0       0       0              87        00020000D     89
     110       0       0       1       0                               0D     90
     110      50       0       0       0              87        00020000D     91
     110       0       0       1       0                               0D     92
     110      51       0       0       0              87        00020000D     93
     110       0       0       1       0                               0D     94
     110      52       0       0       0              87        00020000D     95
     110       0       0       1       0                               0D     96
     402      53       0       0       0                        00000000D     97
     402       0       0       1      16                2DSKETCH       4D     98
     314      54       0       0       0                        00000200D     99
     314       0       8       1       0                               0D    100
     110      55       0       0       0                        00000000D    101
     110       0       0       1       0                               0D    102
     110      56       0       0       0                        00000000D    103
     110       0       0       1       0                               0D    104
     110      57       0       0       0                        00000000D    105
     110       0       0       1       0                               0D    106
     110      58       0       0       0                        00000000D    107
     110       0       0       1       0                               0D    108
     110      59       0       0       0                        00000000D    109
     110       0       0       1       0                               0D    110
     110      60       0       0       0                        00000000D    111
     110       0       0       1       0                               0D    112
     110      61       0       0       0                        00000000D    113
     110       0       0       1       0                               0D    114
     110      62       0       0       0                        00000000D    115
     110       0       0       1       0                               0D    116
     110      63       0       0       0                        00000000D    117
     110       0       0       1       0                               0D    118
     110      64       0       0       0                        00000000D    119
     110       0       0       1       0                               0D    120
     110      65       0       0       0                        00000000D    121
     110       0       0       1       0                               0D    122
     124      66       0       0       0                        00000000D    123
     124       0       0       2       0                               0D    124
     100      68       0       0       0             123        00000000D    125
     100       0       0       1       0                               0D    126
     124      69       0       0       0                        00000000D    127
     124       0       0       2       0                               0D    128
     100      71       0       0       0             127        00000000D    129
     100       0       0       1       0                               0D    130
     124      72       0       0       0                        00000000D    131
     124       0       0       2       0                               0D    132
     100      74       0       0       0             131        00000000D    133
     100       0       0       1       0                               0D    134
     124      75       0       0       0                        00000000D    135
     124       0       0       2       0                               0D    136
     100      77       0       0       0             135        00000000D    137
     100       0       0       1       0                               0D    138
     124      78       0       0       0                        00000000D    139
     124       0       0       2       0                               0D    140
     100      80       0       0       0             139        00000000D    141
     100       0       0       1       0                               0D    142
     124      81       0       0       0                        00000000D    143
     124       0       0       2       0                               0D    144
     100      83       0       0       0             143        00000000D    145
     100       0       0       1       0                               0D    146
     110      84       0       0       0                        00000000D    147
     110       0       0       1       0                               0D    148
     124      85       0       0       0                        00000000D    149
     124       0       0       3       0                               0D    150
     100      88       0       0       0             149        00000000D    151
     100       0       0       1       0                               0D    152
     124      89       0       0       0                        00000000D    153
     124       0       0       3       0                               0D    154
     100      92       0       0       0             153        00000000D    155
     100       0       0       1       0                               0D    156
     124      93       0       0       0                        00000000D    157
     124       0       0       2       0                               0D    158
     100      95       0       0       0             157        00000000D    159
     100       0       0       1       0                               0D    160
     124      96       0       0       0                        00000000D    161
     124       0       0       2       0                               0D    162
     100      98       0       0       0             161        00000000D    163
     100       0       0       1       0                               0D    164
     124      99       0       0       0                        00000000D    165
     124       0       0       2       0                               0D    166
     100     101       0       0       0             165        00000000D    167
     100       0       0       1       0                               0D    168
     124     102       0       0       0                        00000000D    169
     124       0       0       2       0                               0D    170
     100     104       0       0       0             169        00000000D    171
     100       0       0       1       0                               0D    172
     124     105       0       0       0                        00000000D    173
     124       0       0       2       0                               0D    174
     100     107       0       0       0             173        00000000D    175
     100       0       0       1       0                               0D    176
     124     108       0       0       0                        00000000D    177
     124       0       0       2       0                               0D    178
     100     110       0       0       0             177        00000000D    179
     100       0       0       1       0                               0D    180
     124     111       0       0       0                        00000000D    181
     124       0       0       2       0                               0D    182
     100     113       0       0       0             181        00000000D    183
     100       0       0       1       0                               0D    184
     124     114       0       0       0                        00000000D    185
     124       0       0       2       0                               0D    186
     100     116       0       0       0             185        00000000D    187
     100       0       0       1       0                               0D    188
124,1.,0.,0.,0.,0.,1.,0.,0.,0.,0.,1.,0.;                               1P      1
110,-110.,167.,0.,110.,167.,0.;                                        3P      2
110,-110.,167.,0.,-110.,-167.,0.;                                      5P      3
110,-110.,-167.,0.,110.,-167.,0.;                                      7P      4
110,110.,167.,0.,110.,-167.,0.;                                        9P      5
110,-110.,167.,0.,110.,-167.,0.;                                      11P      6
110,-110.,-167.,0.,110.,167.,0.;                                      13P      7
116,0.,0.,0.,;                                                        15P      8
402,1,7,1,3,5,7,9,11,13,15;                                           17P      9
124,1.,0.,0.,-0.,0.,1.,0.,-0.,0.,0.,1.,5.;                            19P     10
110,0.,167.,0.,0.,-167.,0.;                                           21P     11
110,-110.,0.,0.,110.,0.,0.;                                           23P     12
110,-110.,117.,0.,110.,117.,0.;                                       25P     13
110,110.,-141.6,0.,-110.,-141.6,0.;                                   27P     14
100,0.,-60.,117.,-51.632333385,119.558252416,-51.632333385,           29P     15
119.558252416;                                                        29P     16
100,0.,-10.,117.,-1.632333385,119.558252416,-1.632333385,             31P     17
119.558252416;                                                        31P     18
100,0.,-60.,-141.6,-51.632333385,-139.041747584,-51.632333385,        33P     19
-139.041747584;                                                       33P     20
402,1,7,19,21,23,25,27,29,31,33;                                      35P     21
124,1.,0.,0.,0.,0.,1.,0.,0.,0.,0.,1.,5.;                              37P     22
110,-80.,167.,0.,-80.,-167.,0.;                                       39P     23
110,110.,-28.56,0.,-110.,-28.56,0.;                                   41P     24
110,-110.,-92.,0.,110.,-92.,0.;                                       43P     25
116,-80.,-28.56,0.,;                                                  45P     26
116,-60.,-28.56,0.,;                                                  47P     27
116,-40.,-28.56,0.,;                                                  49P     28
116,-80.,-92.,0.,;                                                    51P     29
116,-40.,-28.56,0.,;                                                  53P     30
116,-20.,-28.56,0.,;                                                  55P     31
116,0.,-28.56,0.,;                                                    57P     32
116,20.,-28.56,0.,;                                                   59P     33
116,40.,-28.56,0.,;                                                   61P     34
116,60.,-28.56,0.,;                                                   63P     35
116,80.,-28.56,0.,;                                                   65P     36
116,-60.,-92.,0.,;                                                    67P     37
116,-40.,-92.,0.,;                                                    69P     38
116,-20.,-28.56,0.,;                                                  71P     39
116,-20.,-92.,0.,;                                                    73P     40
116,0.,-92.,0.,;                                                      75P     41
116,20.,-92.,0.,;                                                     77P     42
116,40.,-92.,0.,;                                                     79P     43
116,60.,-92.,0.,;                                                     81P     44
116,80.,-92.,0.,;                                                     83P     45
402,1,23,37,39,41,43,45,47,49,51,53,55,57,59,61,63,65,67,69,71,       85P     46
73,75,77,79,81,83;                                                    85P     47
124,-1.,0.,0.,0.,0.,1.,0.,0.,0.,0.,-1.,0.;                            87P     48
110,-110.,167.,0.,40.,167.,0.;                                        89P     49
110,-110.,167.,0.,-110.,-167.,0.;                                     91P     50
110,-110.,-167.,0.,40.,-167.,0.;                                      93P     51
110,40.,167.,0.,40.,-167.,0.;                                         95P     52
402,1,4,87,89,91,93,95;                                               97P     53
314,79.2156862745098,81.9607843137255,93.3333333333333,;              99P     54
110,-110.,167.,5.,-110.,167.,0.;                                     101P     55
110,-110.,167.,0.,-40.,167.,0.;                                      103P     56
110,-40.,167.,0.,-40.,167.,5.;                                       105P     57
110,-40.,167.,5.,-110.,167.,5.;                                      107P     58
110,-110.,167.,5.,-110.,-167.,5.;                                    109P     59
110,-110.,-167.,5.,-110.,-167.,0.;                                   111P     60
110,-110.,-167.,0.,-110.,167.,0.;                                    113P     61
110,-110.,-167.,5.,-40.,-167.,5.;                                    115P     62
110,-40.,-167.,5.,-40.,-167.,0.;                                     117P     63
110,-40.,-167.,0.,-110.,-167.,0.;                                    119P     64
110,-40.,-167.,5.,-40.,167.,5.;                                      121P     65
124,1.,0.,0.,0.,0.,-1.,-6.98296267768627E-015,-57.12,0.,             123P     66
6.98296267768627E-015,-1.,10.0000000000002;                          123P     67
100,5.,-80.,-28.56,-74.8,-28.56,-74.8,-28.56;                        125P     68
124,1.,0.,0.,0.,0.,-1.,-6.98296267768627E-015,-57.12,0.,             127P     69
6.98296267768627E-015,-1.,10.0000000000002;                          127P     70
100,5.,-60.,-28.56,-54.8,-28.56,-54.8,-28.56;                        129P     71
124,1.,0.,0.,0.,0.,-1.,-6.98296267768627E-015,-184.,0.,              131P     72
6.98296267768627E-015,-1.,10.0000000000006;                          131P     73
100,5.,-80.,-92.,-74.8,-92.,-74.8,-92.;                              133P     74
124,1.,0.,0.,0.,0.,-1.,-6.98296267768627E-015,-184.,0.,              135P     75
6.98296267768627E-015,-1.,10.0000000000006;                          135P     76
100,5.,-60.,-92.,-54.8,-92.,-54.8,-92.;                              137P     77
124,1.,0.,0.,0.,0.,-1.,-6.98296267768627E-015,-283.2,0.,             139P     78
6.98296267768627E-015,-1.,10.000000000001;                           139P     79
100,5.,-60.,-141.6,-51.25,-141.6,-51.25,-141.6;                      141P     80
124,1.,0.,0.,0.,0.,-1.,-6.98296267768627E-015,234.,0.,               143P     81
6.98296267768627E-015,-1.,9.99999999999918;                          143P     82
100,5.,-60.,117.,-51.25,117.,-51.25,117.;                            145P     83
110,-40.,-167.,0.,-40.,167.,0.;                                      147P     84
124,1.,0.,0.,0.,0.,-1.,-6.98296267768627E-015,                       149P     85
-57.1200000000001,0.,6.98296267768627E-015,-1.,                      149P     86
2.01168137550697E-013;                                               149P     87
100,0.,-80.,-28.56,-77.25,-28.56,-77.25,-28.56;                      151P     88
124,1.,0.,0.,0.,0.,-1.,-6.98296267768627E-015,                       153P     89
-57.1200000000001,0.,6.98296267768627E-015,-1.,                      153P     90
2.01168137550697E-013;                                               153P     91
100,0.,-60.,-28.56,-57.25,-28.56,-57.25,-28.56;                      155P     92
124,1.,0.,0.,0.,0.,-1.,-6.98296267768627E-015,-184.,0.,              157P     93
6.98296267768627E-015,-1.,6.44167289823113E-013;                     157P     94
100,0.,-80.,-92.,-77.25,-92.,-77.25,-92.;                            159P     95
124,1.,0.,0.,0.,0.,-1.,-6.98296267768627E-015,-184.,0.,              161P     96
6.98296267768627E-015,-1.,6.44167289823113E-013;                     161P     97
100,0.,-60.,-92.,-57.25,-92.,-57.25,-92.;                            163P     98
124,1.,0.,0.,0.,0.,-1.,-6.98296267768627E-015,-283.2,0.,             165P     99
6.98296267768627E-015,-1.,9.88787515160375E-013;                     165P    100
100,0.,-60.,-141.6,-51.25,-141.6,-51.25,-141.6;                      167P    101
124,1.,0.,0.,0.,0.,-1.,-6.98296267768627E-015,234.,0.,               169P    102
6.98296267768627E-015,-1.,-8.17006633289293E-013;                    169P    103
100,0.,-60.,117.,-51.25,117.,-51.25,117.;                            171P    104
124,1.,0.,0.,0.,0.,-1.,-6.98296267768627E-015,-184.,0.,              173P    105
6.98296267768627E-015,-1.,5.10000000000064;                          173P    106
100,2.55,-60.,-92.,-57.25,-92.,-57.25,-92.;                          175P    107
124,1.,0.,0.,0.,0.,-1.,-6.98296267768627E-015,-184.,0.,              177P    108
6.98296267768627E-015,-1.,5.10000000000064;                          177P    109
100,2.55,-80.,-92.,-77.25,-92.,-77.25,-92.;                          179P    110
124,1.,0.,0.,0.,0.,-1.,-6.98296267768627E-015,                       181P    111
-57.1200000000001,0.,6.98296267768627E-015,-1.,5.1000000000002;      181P    112
100,2.55,-60.,-28.56,-57.25,-28.56,-57.25,-28.56;                    183P    113
124,1.,0.,0.,0.,0.,-1.,-6.98296267768627E-015,                       185P    114
-57.1200000000001,0.,6.98296267768627E-015,-1.,5.1000000000002;      185P    115
100,2.55,-80.,-28.56,-77.25,-28.56,-77.25,-28.56;                    187P    116
S      1G      6D    188P    116                                        T      1
