 This run of the CFX Release 16.1 Solver started at 16:40:55 on 07 Apr
 2017 by user engs1478 on ENGS-24050 (intel_xeon64.sse2_winnt) using the
 command:
 
  "C:\Program Files\ANSYS Inc\v161\CFX\bin\perllib\cfx5solve.pl"
    -stdout-comms -batch -ccl -
 
 Release 16.1
 
  Point Releases and Patches installed:
  ANSYS, Inc. Products Release 16.1
  ANSYS Mechanical Products Release 16.1
  ANSYS Customization Files for User Programmable Features Release 16.1
  ANSYS CFX (includes ANSYS CFD-Post) Release 16.1
  ANSYS Fluent (includes ANSYS CFD-Post) Release 16.1
  ANSYS TurboGrid Release 16.1
  ANSYS CFD-Post only Release 16.1
  ANSYS ICEM CFD Release 16.1
  ANSYS Composite PrepPost Release 16.1
  ANSYS Icepak (includes ANSYS CFD-Post) Release 16.1
  ANSYS Remote Solve Manager Standalone Services Release 16.1
  ANSYS, Inc. License Manager Release 16.1
 
 Setting up CFX Solver run ...
 
 Changed file path for profile function /LIBRARY/CEL/FUNCTION:S1 Inlet
 from relative path: .\S1_Inlet_BC.csv to absolute path:
 W:/Projects/C003/Customer Supplied
 Docs/CFD/Ansys/s1_cfx_case/S1_CFX_Case/S1_Inlet_BC.csv
 

 +--------------------------------------------------------------------+
 |                                                                    |
 |                    CFX Command Language for Run                    |
 |                                                                    |
 +--------------------------------------------------------------------+

 LIBRARY:
   CEL:
     EXPRESSIONS:
       main = massFlowAve(Mach Number)@inlet
       maout = massFlowAve(Mach Number)@outlet
       masin = massFlow()@inlet
       ptin = areaAve(Total Pressure)@inlet
       radius = sqrt( y * y + z * z )
     END
     FUNCTION: S1 Inlet
       Argument Units = [m]
       Extend Max = true
       Extend Min = true
       File Name = W:/Projects/C003/Customer Supplied \
         Docs/CFD/Ansys/s1_cfx_case/S1_CFX_Case/S1_Inlet_BC.csv
       Option = Profile Data
       Spatial Fields = radius
       DATA FIELD: Total Pressure
         Field Name = Total Pressure
         Parameter List = Pressure Profile Shape,Relative Pressure,Relative \
           Total Pressure
         Result Units = [kg m^-1 s^-2]
       END
       DATA FIELD: Total Temperature
         Field Name = Total Temperature
         Parameter List = Stationary Frame Total Temperature,Total Temperature
         Result Units = [K]
       END
       DATA FIELD: Velocity u
         Field Name = Velocity u
         Parameter List = U,Velocity r Component,Wall U,Wall Velocity r \
           Component
         Result Units = []
       END
       DATA FIELD: Velocity v
         Field Name = Velocity v
         Parameter List = V,Velocity Theta Component,Wall V,Wall Velocity \
           Theta Component
         Result Units = []
       END
       DATA FIELD: Velocity w
         Field Name = Velocity w
         Parameter List = Velocity Axial Component,W,Wall Velocity Axial \
           Component,Wall W
         Result Units = []
       END
     END
   END
   ADDITIONAL VARIABLE: myRadius
     Boundary Only Field = On
     Option = Definition
     Tensor Type = SCALAR
     Units = [m]
     Variable Type = Specific
   END
   MATERIAL: MGT Gas
     Coord Frame = Coord 0
     Material Description = MGT gas
     Material Group = User
     Option = Pure Substance
     Thermodynamic State = Gas
     PROPERTIES:
       Option = General Material
       EQUATION OF STATE:
         Molar Mass = 28.4 [kg kmol^-1]
         Option = Ideal Gas
       END
       SPECIFIC HEAT CAPACITY:
         Option = Value
         Specific Heat Capacity = 1205.084 [J kg^-1 K^-1]
         Specific Heat Type = Constant Pressure
       END
       REFERENCE STATE:
         Option = Automatic
       END
       DYNAMIC VISCOSITY:
         Dynamic Viscosity = 5.3884e-05 [Pa s]
         Option = Value
       END
       THERMAL CONDUCTIVITY:
         Option = Kinetic Theory Model
         THERMAL CONDUCTIVITY MODEL:
           Option = Modified Eucken
         END
       END
     END
   END
 END
 FLOW: Flow Analysis 1
   SOLUTION UNITS:
     Angle Units = [rad]
     Length Units = [m]
     Mass Units = [kg]
     Solid Angle Units = [sr]
     Temperature Units = [K]
     Time Units = [s]
   END
   ANALYSIS TYPE:
     Option = Steady State
     EXTERNAL SOLVER COUPLING:
       Option = None
     END
   END
   DOMAIN: S1
     Coord Frame = Coord 0
     Domain Type = Fluid
     Location = \
       row01_VANE01_S1_001_O_PS,row01_VANE01_S1_001_O_PS1,row01_VANE01_S1_002_\
       O_SS,row01_VANE01_S1_002_O_SS1,row01_VANE01_S1_005_H_IN,row01_VANE01_S1\
       _006_H_PASS,row01_VANE01_S1_007_G_PASS,row01_VANE01_S1_008_H_TE,row01_V\
       ANE01_S1_009_H_EXIT
     BOUNDARY: S1 Blade
       Boundary Type = WALL
       Location = p6 \
         3,p14,row01Blade_Wall_ps,row01Blade_Wall_ss,row01Blade_leak_ps1,row01\
         Blade_leak_ps2,row01Blade_leak_ss
       BOUNDARY CONDITIONS:
         HEAT TRANSFER:
           Option = Adiabatic
         END
         MASS AND MOMENTUM:
           Option = No Slip Wall
         END
         WALL ROUGHNESS:
           Option = Smooth Wall
         END
       END
     END
     BOUNDARY: S1 Hub
       Boundary Type = WALL
       Location = row01Hub_Wall,row01Hub_leak_iasle,row01Hub_leak_iaste
       BOUNDARY CONDITIONS:
         HEAT TRANSFER:
           Option = Adiabatic
         END
         MASS AND MOMENTUM:
           Option = No Slip Wall
         END
         WALL ROUGHNESS:
           Option = Smooth Wall
         END
       END
     END
     BOUNDARY: S1 Tip
       Boundary Type = WALL
       Location = row01Tip_Wall,row01Tip_leak_oasle,row01Tip_leak_oaste
       BOUNDARY CONDITIONS:
         HEAT TRANSFER:
           Option = Adiabatic
         END
         MASS AND MOMENTUM:
           Option = No Slip Wall
         END
         WALL ROUGHNESS:
           Option = Smooth Wall
         END
       END
     END
     BOUNDARY: S1 to S1 Periodic 1 Side 1
       Boundary Type = INTERFACE
       Location = Primitive 2D CM
       BOUNDARY CONDITIONS:
         HEAT TRANSFER:
           Option = Conservative Interface Flux
         END
         MASS AND MOMENTUM:
           Option = Conservative Interface Flux
         END
         TURBULENCE:
           Option = Conservative Interface Flux
         END
       END
     END
     BOUNDARY: S1 to S1 Periodic 1 Side 2
       Boundary Type = INTERFACE
       Location = Primitive 2D CY
       BOUNDARY CONDITIONS:
         HEAT TRANSFER:
           Option = Conservative Interface Flux
         END
         MASS AND MOMENTUM:
           Option = Conservative Interface Flux
         END
         TURBULENCE:
           Option = Conservative Interface Flux
         END
       END
     END
     BOUNDARY: S1 to S1 Periodic 2 Side 1
       Boundary Type = INTERFACE
       Location = Primitive 2D FK
       BOUNDARY CONDITIONS:
         HEAT TRANSFER:
           Option = Conservative Interface Flux
         END
         MASS AND MOMENTUM:
           Option = Conservative Interface Flux
         END
         TURBULENCE:
           Option = Conservative Interface Flux
         END
       END
     END
     BOUNDARY: S1 to S1 Periodic 2 Side 2
       Boundary Type = INTERFACE
       Location = Primitive 2D FD
       BOUNDARY CONDITIONS:
         HEAT TRANSFER:
           Option = Conservative Interface Flux
         END
         MASS AND MOMENTUM:
           Option = Conservative Interface Flux
         END
         TURBULENCE:
           Option = Conservative Interface Flux
         END
       END
     END
     BOUNDARY: S1 to S1 Periodic 3 Side 1
       Boundary Type = INTERFACE
       Location = Primitive 2D FT
       BOUNDARY CONDITIONS:
         HEAT TRANSFER:
           Option = Conservative Interface Flux
         END
         MASS AND MOMENTUM:
           Option = Conservative Interface Flux
         END
         TURBULENCE:
           Option = Conservative Interface Flux
         END
       END
     END
     BOUNDARY: S1 to S1 Periodic 3 Side 2
       Boundary Type = INTERFACE
       Location = Primitive 2D FS
       BOUNDARY CONDITIONS:
         HEAT TRANSFER:
           Option = Conservative Interface Flux
         END
         MASS AND MOMENTUM:
           Option = Conservative Interface Flux
         END
         TURBULENCE:
           Option = Conservative Interface Flux
         END
       END
     END
     BOUNDARY: S1 to S1 Periodic 4 Side 1
       Boundary Type = INTERFACE
       Location = Primitive 2D FU
       BOUNDARY CONDITIONS:
         HEAT TRANSFER:
           Option = Conservative Interface Flux
         END
         MASS AND MOMENTUM:
           Option = Conservative Interface Flux
         END
         TURBULENCE:
           Option = Conservative Interface Flux
         END
       END
     END
     BOUNDARY: S1 to S1 Periodic 4 Side 2
       Boundary Type = INTERFACE
       Location = Primitive 2D FV
       BOUNDARY CONDITIONS:
         HEAT TRANSFER:
           Option = Conservative Interface Flux
         END
         MASS AND MOMENTUM:
           Option = Conservative Interface Flux
         END
         TURBULENCE:
           Option = Conservative Interface Flux
         END
       END
     END
     BOUNDARY: inlet
       Boundary Type = INLET
       Location = row01Inlet
       BOUNDARY CONDITIONS:
         FLOW DIRECTION:
           Option = Cartesian Components
           Unit Vector X Component = S1 Inlet.Velocity u(radius)
           Unit Vector Y Component = S1 Inlet.Velocity v(radius)
           Unit Vector Z Component = S1 Inlet.Velocity w(radius)
         END
         FLOW REGIME:
           Option = Subsonic
         END
         HEAT TRANSFER:
           Option = Total Temperature
           Total Temperature = S1 Inlet.Total Temperature(radius)
         END
         MASS AND MOMENTUM:
           Option = Total Pressure
           Relative Pressure = S1 Inlet.Total Pressure(radius)
         END
         TURBULENCE:
           Option = Medium Intensity and Eddy Viscosity Ratio
         END
       END
     END
     BOUNDARY: outlet
       Boundary Type = OUTLET
       Location = row01Outlet
       BOUNDARY CONDITIONS:
         FLOW REGIME:
           Option = Subsonic
         END
         MASS AND MOMENTUM:
           Option = Average Static Pressure
           Pressure Profile Blend = 0.05
           Relative Pressure = 1000000 [Pa]
         END
         PRESSURE AVERAGING:
           Option = Average Over Whole Outlet
         END
       END
     END
     DOMAIN MODELS:
       BUOYANCY MODEL:
         Option = Non Buoyant
       END
       DOMAIN MOTION:
         Option = Stationary
       END
       MESH DEFORMATION:
         Option = None
       END
       REFERENCE PRESSURE:
         Reference Pressure = 0 [Pa]
       END
     END
     FLUID DEFINITION: MGT gas
       Material = MGT Gas
       Option = Material Library
       MORPHOLOGY:
         Option = Continuous Fluid
       END
     END
     FLUID MODELS:
       COMBUSTION MODEL:
         Option = None
       END
       HEAT TRANSFER MODEL:
         Include Viscous Work Term = True
         Option = Total Energy
       END
       THERMAL RADIATION MODEL:
         Option = None
       END
       TURBULENCE MODEL:
         Option = SST
       END
       TURBULENT WALL FUNCTIONS:
         High Speed Model = Off
         Option = Automatic
       END
     END
     INITIALISATION:
       Option = Automatic
       INITIAL CONDITIONS:
         Velocity Type = Cartesian
         CARTESIAN VELOCITY COMPONENTS:
           Option = Automatic with Value
           U = 100 [m s^-1]
           V = 0.0 [m s^-1]
           W = 0.0 [m s^-1]
         END
         STATIC PRESSURE:
           Option = Automatic with Value
           Relative Pressure = 1000000 [Pa]
         END
         TEMPERATURE:
           Option = Automatic with Value
           Temperature = 1000 [K]
         END
         TURBULENCE INITIAL CONDITIONS:
           Option = Medium Intensity and Eddy Viscosity Ratio
         END
       END
     END
   END
   DOMAIN INTERFACE: S1 to S1 Periodic 1
     Boundary List1 = S1 to S1 Periodic 1 Side 1
     Boundary List2 = S1 to S1 Periodic 1 Side 2
     Interface Type = Fluid Fluid
     INTERFACE MODELS:
       Option = Rotational Periodicity
       AXIS DEFINITION:
         Option = Coordinate Axis
         Rotation Axis = Coord 0.1
       END
     END
     MESH CONNECTION:
       Option = Automatic
     END
   END
   DOMAIN INTERFACE: S1 to S1 Periodic 2
     Boundary List1 = S1 to S1 Periodic 2 Side 1
     Boundary List2 = S1 to S1 Periodic 2 Side 2
     Interface Type = Fluid Fluid
     INTERFACE MODELS:
       Option = Rotational Periodicity
       AXIS DEFINITION:
         Option = Coordinate Axis
         Rotation Axis = Coord 0.1
       END
     END
     MESH CONNECTION:
       Option = Automatic
     END
   END
   DOMAIN INTERFACE: S1 to S1 Periodic 3
     Boundary List1 = S1 to S1 Periodic 3 Side 1
     Boundary List2 = S1 to S1 Periodic 3 Side 2
     Interface Type = Fluid Fluid
     INTERFACE MODELS:
       Option = Rotational Periodicity
       AXIS DEFINITION:
         Option = Coordinate Axis
         Rotation Axis = Coord 0.1
       END
     END
     MESH CONNECTION:
       Option = Automatic
     END
   END
   DOMAIN INTERFACE: S1 to S1 Periodic 4
     Boundary List1 = S1 to S1 Periodic 4 Side 1
     Boundary List2 = S1 to S1 Periodic 4 Side 2
     Interface Type = Fluid Fluid
     INTERFACE MODELS:
       Option = Rotational Periodicity
       AXIS DEFINITION:
         Option = Coordinate Axis
         Rotation Axis = Coord 0.1
       END
     END
     MESH CONNECTION:
       Option = Automatic
     END
   END
   OUTPUT CONTROL:
     BACKUP DATA RETENTION:
       Option = Delete Old Files
     END
     BACKUP RESULTS: Backup Results 1
       File Compression Level = Default
       Option = Standard
       OUTPUT FREQUENCY:
         Iteration Interval = 50
         Option = Iteration Interval
       END
     END
     MONITOR OBJECTS:
       MONITOR BALANCES:
         Option = Full
       END
       MONITOR FORCES:
         Option = Full
       END
       MONITOR PARTICLES:
         Option = Full
       END
       MONITOR POINT: Mach Number At Inlet
         Coord Frame = Coord 0
         Expression Value = main
         Option = Expression
       END
       MONITOR POINT: Mach Number At Outlet
         Coord Frame = Coord 0
         Expression Value = maout
         Option = Expression
       END
       MONITOR POINT: Mass Flow At Inlet
         Coord Frame = Coord 0
         Expression Value = masin
         Option = Expression
       END
       MONITOR POINT: Total Pressure At Inlet
         Coord Frame = Coord 0
         Expression Value = ptin
         Option = Expression
       END
       MONITOR RESIDUALS:
         Option = Full
       END
       MONITOR TOTALS:
         Option = Full
       END
     END
     RESULTS:
       File Compression Level = Default
       Option = Standard
     END
   END
   SOLVER CONTROL:
     Turbulence Numerics = High Resolution
     ADVECTION SCHEME:
       Option = High Resolution
     END
     CONVERGENCE CONTROL:
       Maximum Number of Iterations = 1000
       Minimum Number of Iterations = 1
       Physical Timescale = 0.1 [s]
       Timescale Control = Physical Timescale
     END
     CONVERGENCE CRITERIA:
       Residual Target = 0.00001
       Residual Type = MAX
     END
     DYNAMIC MODEL CONTROL:
       Global Dynamic Model Control = On
     END
   END
 END
 COMMAND FILE:
   Version = 17.1
   Results Version = 16.1
 END
 SIMULATION CONTROL:
   EXECUTION CONTROL:
     EXECUTABLE SELECTION:
       Double Precision = No
     END
     INTERPOLATOR STEP CONTROL:
       Runtime Priority = Standard
       MEMORY CONTROL:
         Memory Allocation Factor = 1.0
       END
     END
     PARALLEL HOST LIBRARY:
       HOST DEFINITION: engs24050
         Remote Host Name = ENGS-24050
         Host Architecture String = winnt-amd64
         Installation Root = C:\Program Files\ANSYS Inc\v%v\CFX
       END
     END
     PARTITIONER STEP CONTROL:
       Multidomain Option = Automatic
       Runtime Priority = Standard
       EXECUTABLE SELECTION:
         Use Large Problem Partitioner = Off
       END
       MEMORY CONTROL:
         Memory Allocation Factor = 1.0
       END
       PARTITION SMOOTHING:
         Maximum Partition Smoothing Sweeps = 100
         Option = Smooth
       END
       PARTITIONING TYPE:
         MeTiS Type = k-way
         Option = MeTiS
         Partition Size Rule = Automatic
       END
     END
     RUN DEFINITION:
       Run Mode = Full
       Solver Input File = W:\Projects\C003\Customer Supplied \
         Docs\CFD\Ansys\s1_cfx_case\S1_CFX_Case\HD_S1_Rev2.def
       Solver Results File = W:\Projects\C003\Customer Supplied \
         Docs\CFD\Ansys\s1_cfx_case\S1_CFX_Case\HD_S1_Rev2_004.res
     END
     SOLVER STEP CONTROL:
       Runtime Priority = Standard
       MEMORY CONTROL:
         Memory Allocation Factor = 1.0
       END
       PARALLEL ENVIRONMENT:
         Number of Processes = 1
         Start Method = Serial
       END
     END
   END
 END
 

 +--------------------------------------------------------------------+
 |                An error has occurred in cfx5solve:                 |
 |                                                                    |
 | Errors were encountered in the CFX Command Language for this run:  |
 |                                                                    |
 |  Error: Sub-object 'BACKUP DATA RETENTION' is not allowed in /FLO- |
 | W:Flow Analysis 1/OUTPUT CONTROL                                   |
 |  Warning: Can't check object /FLOW:Flow Analysis 1/OUTPUT CONTROL- |
 | /BACKUP DATA RETENTION: Can't find rule.  Skipping object and all- |
 |  children.                                                         |
 +--------------------------------------------------------------------+


This run of the ANSYS CFX Solver has finished.
