*****************************************************************
      SolidWorks Corporation - IGES Processor Status Report
*****************************************************************
=================================================================
General Information
=================================================================
Sending System Product I.D.  : Fluid Domain Full Passage V2.0.SLDPRT
Receiving System Product I.D.: Fluid Domain Full Passage V2.0.SLDPRT
File Name                    : C:\Users\engs1478\Google Drive\OU Sandbox\Projects\C003\CAD\Working\Fluid Domain Full Passage V3.0.IGS
Sending System               : SolidWorks 2016
Preprocessor Version         : SolidWorks 2016
File Creation Date           : 161116.161142
Model Creation Date          : 161116.161142
Units                        : MM
Model Space Scale            : 1
Author                       : engs1478
Organization                 : 


=================================================================
Entity Processing Information
=================================================================


=================================================================
Precision analysis of IGES file:
=================================================================
  Most prevalent number of significant digits:              11
  Highest number of significant digits:                     12
  Average number of significant digits:                 11.388
  Maximum distance to origin:                          206.865
  Minimum distance to origin:                          116.269
  Effective number of significant digits:              11.4477


=================================================================
Entity Summary
=================================================================
-----------------------------------------------------------------
Type Name                                         Count Converted
---- ----                                         ----- ---------
100  Arc                                             12        12
102  Composite curve                                182       182
110  Line                                             8         8
124  Transformation matrix                           12        12
126  Rational B-spline curve                       2094      2094
128  Rational B-spline surface                       82        82
142  Curve on a parametric surface                   91        91
144  Trimmed parametric surface                      82        82
314  Color definition                                 1         1
_________________________________________________________________


=================================================================
Result Summary
=================================================================
SolidWorks Feature Type                Count
-----------------------                -----
Solid feature(s)                       0
Surface feature(s)                     23
Curve/Sketch feature(s)                0
--------------------------------------------
Start time: Wednesday, November 16, 2016 16:11:54
Finish time: Wednesday, November 16, 2016 16:11:57
Processing time: 0 days, 00 hours, 00 mins, 03 secs
