


          SolidWorks Corporation - INVENTOR Processor Error Log
          ______________________________________________________

                       INVENTOR Post Processor
                       ___________________


INVENTOR File Name: c:\users\engs1179\desktop\simon_backup\geometry\probe cad\conical_probe_extended.ipt



Error: Unsupported Inventor Version.
INVENTOR-in did not complete successfully.
Context: Record ending on line number 1
         OR one of its fields.
